Projeto2/simulation/qsim/Calculator.msim.vcd
$comment
	File created using the following command:
		vcd file Calculator.msim.vcd -direction
$end
$date
	Sun Nov 09 14:40:25 2014
$end
$version
	ModelSim Version 10.1e
$end
$timescale
	1ps
$end
$scope module Calculator_vlg_vec_tst $end
$var reg 1 ! CLK $end
$var reg 7 " data [0:6] $end
$var reg 1 # EN $end
$var reg 1 $ M0 $end
$var reg 1 % M1 $end
$var reg 1 & RES $end
$var reg 2 ' SEL [0:1] $end
$var wire 1 ( H1 [0] $end
$var wire 1 ) H1 [1] $end
$var wire 1 * H1 [2] $end
$var wire 1 + H1 [3] $end
$var wire 1 , H1 [4] $end
$var wire 1 - H1 [5] $end
$var wire 1 . H1 [6] $end
$var wire 1 / H2 [0] $end
$var wire 1 0 H2 [1] $end
$var wire 1 1 H2 [2] $end
$var wire 1 2 H2 [3] $end
$var wire 1 3 H2 [4] $end
$var wire 1 4 H2 [5] $end
$var wire 1 5 H2 [6] $end
$var wire 1 6 H3 [0] $end
$var wire 1 7 H3 [1] $end
$var wire 1 8 H3 [2] $end
$var wire 1 9 H3 [3] $end
$var wire 1 : H3 [4] $end
$var wire 1 ; H3 [5] $end
$var wire 1 < H3 [6] $end
$var wire 1 = sign $end
$var wire 1 > sampler $end
$scope module i1 $end
$var wire 1 ? gnd $end
$var wire 1 @ vcc $end
$var wire 1 A unknown $end
$var tri1 1 B devclrn $end
$var tri1 1 C devpor $end
$var tri1 1 D devoe $end
$var wire 1 E H1[6]~output_o $end
$var wire 1 F H1[5]~output_o $end
$var wire 1 G H1[4]~output_o $end
$var wire 1 H H1[3]~output_o $end
$var wire 1 I H1[2]~output_o $end
$var wire 1 J H1[1]~output_o $end
$var wire 1 K H1[0]~output_o $end
$var wire 1 L H2[6]~output_o $end
$var wire 1 M H2[5]~output_o $end
$var wire 1 N H2[4]~output_o $end
$var wire 1 O H2[3]~output_o $end
$var wire 1 P H2[2]~output_o $end
$var wire 1 Q H2[1]~output_o $end
$var wire 1 R H2[0]~output_o $end
$var wire 1 S H3[6]~output_o $end
$var wire 1 T H3[5]~output_o $end
$var wire 1 U H3[4]~output_o $end
$var wire 1 V H3[3]~output_o $end
$var wire 1 W H3[2]~output_o $end
$var wire 1 X H3[1]~output_o $end
$var wire 1 Y H3[0]~output_o $end
$var wire 1 Z sign~output_o $end
$var wire 1 [ EN~input_o $end
$var wire 1 \ SEL[1]~input_o $end
$var wire 1 ] SEL[0]~input_o $end
$var wire 1 ^ CLK~input_o $end
$var wire 1 _ data_Flux|clockBroke|CLKout_synthesized_var~0_combout $end
$var wire 1 ` data_Flux|clockBroke|CLKout_synthesized_var~q $end
$var wire 1 a unit_logic_arithmetic|FFT1|CLKout_synthesized_var~0_combout $end
$var wire 1 b unit_logic_arithmetic|FFT1|CLKout_synthesized_var~q $end
$var wire 1 c unit_logic_arithmetic|reg1|clkin~combout $end
$var wire 1 d unit_logic_arithmetic|reg1|clkin~clkctrl_outclk $end
$var wire 1 e unit_logic_arithmetic|ENufa~combout $end
$var wire 1 f unit_logic_arithmetic|ufa1|Mux4~0_combout $end
$var wire 1 g unit_logic_arithmetic|ufa1|ENsub~combout $end
$var wire 1 h unit_logic_arithmetic|ufa1|ENsub~clkctrl_outclk $end
$var wire 1 i M1~input_o $end
$var wire 1 j M0~input_o $end
$var wire 1 k data_Flux|reg1|clkin~combout $end
$var wire 1 l data_Flux|reg1|clkin~clkctrl_outclk $end
$var wire 1 m data[1]~input_o $end
$var wire 1 n RES~input_o $end
$var wire 1 o data_Flux|reg1|ff1|Q~q $end
$var wire 1 p data[4]~input_o $end
$var wire 1 q data_Flux|reg1|ff4|Q~q $end
$var wire 1 r data[6]~input_o $end
$var wire 1 s data_Flux|reg1|ff6|Q~q $end
$var wire 1 t data_Flux|reg0|clkin~combout $end
$var wire 1 u data_Flux|reg0|clkin~clkctrl_outclk $end
$var wire 1 v data_Flux|reg0|ff6|Q~q $end
$var wire 1 w unit_logic_arithmetic|ufa1|subtractor|hs|Te~0_combout $end
$var wire 1 x unit_logic_arithmetic|ufa1|subtractor|hs|Te~combout $end
$var wire 1 y data[5]~input_o $end
$var wire 1 z data_Flux|reg0|ff5|Q~q $end
$var wire 1 { data_Flux|reg1|ff5|Q~q $end
$var wire 1 | unit_logic_arithmetic|ufa1|subtractor|fs0|Te~0_combout $end
$var wire 1 } unit_logic_arithmetic|ufa1|subtractor|fs0|Te~combout $end
$var wire 1 ~ data_Flux|reg0|ff4|Q~feeder_combout $end
$var wire 1 !! data_Flux|reg0|ff4|Q~q $end
$var wire 1 "! unit_logic_arithmetic|ufa1|subtractor|fs1|Te~0_combout $end
$var wire 1 #! unit_logic_arithmetic|ufa1|subtractor|fs1|Te~combout $end
$var wire 1 $! data[3]~input_o $end
$var wire 1 %! data_Flux|reg1|ff3|Q~q $end
$var wire 1 &! data_Flux|reg0|ff3|Q~q $end
$var wire 1 '! unit_logic_arithmetic|ufa1|subtractor|fs2|Te~0_combout $end
$var wire 1 (! unit_logic_arithmetic|ufa1|subtractor|fs2|Te~combout $end
$var wire 1 )! data[2]~input_o $end
$var wire 1 *! data_Flux|reg1|ff2|Q~q $end
$var wire 1 +! data_Flux|reg0|ff2|Q~q $end
$var wire 1 ,! unit_logic_arithmetic|ufa1|subtractor|fs3|Te~0_combout $end
$var wire 1 -! unit_logic_arithmetic|ufa1|subtractor|fs3|Te~combout $end
$var wire 1 .! data_Flux|reg0|ff1|Q~q $end
$var wire 1 /! unit_logic_arithmetic|ufa1|subtractor|fs4|Te~0_combout $end
$var wire 1 0! unit_logic_arithmetic|ufa1|subtractor|fs4|Te~combout $end
$var wire 1 1! data[0]~input_o $end
$var wire 1 2! data_Flux|reg1|ff0|Q~q $end
$var wire 1 3! data_Flux|reg0|ff0|Q~feeder_combout $end
$var wire 1 4! data_Flux|reg0|ff0|Q~q $end
$var wire 1 5! unit_logic_arithmetic|ufa1|subtractor|fs5|Te~0_combout $end
$var wire 1 6! unit_logic_arithmetic|ufa1|subtractor|fs5|Te~combout $end
$var wire 1 7! unit_logic_arithmetic|ufa1|Mux8~0_combout $end
$var wire 1 8! unit_logic_arithmetic|ufa1|ENsum~combout $end
$var wire 1 9! unit_logic_arithmetic|ufa1|ENsum~clkctrl_outclk $end
$var wire 1 :! unit_logic_arithmetic|ufa1|and1|S~0_combout $end
$var wire 1 ;! unit_logic_arithmetic|ufa1|adder|ha|Co~combout $end
$var wire 1 <! unit_logic_arithmetic|ufa1|adder|fa0|Co~0_combout $end
$var wire 1 =! unit_logic_arithmetic|ufa1|adder|fa0|Co~combout $end
$var wire 1 >! unit_logic_arithmetic|ufa1|adder|fa1|Co~0_combout $end
$var wire 1 ?! unit_logic_arithmetic|ufa1|adder|fa1|Co~combout $end
$var wire 1 @! unit_logic_arithmetic|ufa1|adder|fa2|Co~0_combout $end
$var wire 1 A! unit_logic_arithmetic|ufa1|adder|fa2|Co~combout $end
$var wire 1 B! unit_logic_arithmetic|ufa1|adder|fa3|Co~0_combout $end
$var wire 1 C! unit_logic_arithmetic|ufa1|adder|fa3|Co~combout $end
$var wire 1 D! unit_logic_arithmetic|ufa1|adder|fa4|Co~0_combout $end
$var wire 1 E! unit_logic_arithmetic|ufa1|adder|fa4|Co~combout $end
$var wire 1 F! unit_logic_arithmetic|ufa1|adder|fa5|Co~0_combout $end
$var wire 1 G! unit_logic_arithmetic|ufa1|adder|fa5|Co~combout $end
$var wire 1 H! unit_logic_arithmetic|ufa1|mux1|m[0]~0_combout $end
$var wire 1 I! unit_logic_arithmetic|reg1|ff0|Q~q $end
$var wire 1 J! sig~0_combout $end
$var wire 1 K! sig~combout $end
$var wire 1 L! unit_logic_arithmetic|ufa1|adder|fa3|S~0_combout $end
$var wire 1 M! unit_logic_arithmetic|ufa1|adder|fa3|S~combout $end
$var wire 1 N! unit_logic_arithmetic|ufa1|Mux4~1_combout $end
$var wire 1 O! unit_logic_arithmetic|ufa1|ENand~combout $end
$var wire 1 P! unit_logic_arithmetic|ufa1|ENand~clkctrl_outclk $end
$var wire 1 Q! unit_logic_arithmetic|ufa1|and1|S~5_combout $end
$var wire 1 R! unit_logic_arithmetic|ufa1|mux1|m[3]~11_combout $end
$var wire 1 S! unit_logic_arithmetic|ufa1|subtractor|fs3|S~0_combout $end
$var wire 1 T! unit_logic_arithmetic|ufa1|subtractor|fs3|S~combout $end
$var wire 1 U! unit_logic_arithmetic|ufa1|Mux4~2_combout $end
$var wire 1 V! unit_logic_arithmetic|ufa1|ENor~combout $end
$var wire 1 W! unit_logic_arithmetic|ufa1|ENor~clkctrl_outclk $end
$var wire 1 X! unit_logic_arithmetic|ufa1|or1|S~5_combout $end
$var wire 1 Y! unit_logic_arithmetic|ufa1|mux1|m[3]~12_combout $end
$var wire 1 Z! unit_logic_arithmetic|reg1|ff3|Q~q $end
$var wire 1 [! unit_logic_arithmetic|ufa1|or1|S~0_combout $end
$var wire 1 \! unit_logic_arithmetic|ufa1|adder|ha|S~0_combout $end
$var wire 1 ]! unit_logic_arithmetic|ufa1|subtractor|hs|S~combout $end
$var wire 1 ^! unit_logic_arithmetic|ufa1|adder|ha|S~combout $end
$var wire 1 _! unit_logic_arithmetic|ufa1|mux1|m[7]~1_combout $end
$var wire 1 `! unit_logic_arithmetic|ufa1|mux1|m[7]~2_combout $end
$var wire 1 a! unit_logic_arithmetic|reg1|ff7|Q~q $end
$var wire 1 b! unit_logic_arithmetic|ufa1|or1|S~3_combout $end
$var wire 1 c! unit_logic_arithmetic|ufa1|adder|fa1|S~0_combout $end
$var wire 1 d! unit_logic_arithmetic|ufa1|adder|fa1|S~combout $end
$var wire 1 e! unit_logic_arithmetic|ufa1|and1|S~3_combout $end
$var wire 1 f! unit_logic_arithmetic|ufa1|mux1|m[5]~7_combout $end
$var wire 1 g! unit_logic_arithmetic|ufa1|subtractor|fs1|S~0_combout $end
$var wire 1 h! unit_logic_arithmetic|ufa1|subtractor|fs1|S~combout $end
$var wire 1 i! unit_logic_arithmetic|ufa1|mux1|m[5]~8_combout $end
$var wire 1 j! unit_logic_arithmetic|reg1|ff5|Q~feeder_combout $end
$var wire 1 k! unit_logic_arithmetic|reg1|ff5|Q~q $end
$var wire 1 l! unit_logic_arithmetic|ufa1|or1|S~2_combout $end
$var wire 1 m! unit_logic_arithmetic|ufa1|and1|S~2_combout $end
$var wire 1 n! unit_logic_arithmetic|ufa1|subtractor|fs2|S~0_combout $end
$var wire 1 o! unit_logic_arithmetic|ufa1|subtractor|fs2|S~combout $end
$var wire 1 p! unit_logic_arithmetic|ufa1|adder|fa2|S~0_combout $end
$var wire 1 q! unit_logic_arithmetic|ufa1|adder|fa2|S~combout $end
$var wire 1 r! unit_logic_arithmetic|ufa1|mux1|m[4]~5_combout $end
$var wire 1 s! unit_logic_arithmetic|ufa1|mux1|m[4]~6_combout $end
$var wire 1 t! unit_logic_arithmetic|reg1|ff4|Q~q $end
$var wire 1 u! unit_logic_arithmetic|ufa1|and1|S~1_combout $end
$var wire 1 v! unit_logic_arithmetic|ufa1|adder|fa0|S~0_combout $end
$var wire 1 w! unit_logic_arithmetic|ufa1|adder|fa0|S~combout $end
$var wire 1 x! unit_logic_arithmetic|ufa1|subtractor|fs0|S~0_combout $end
$var wire 1 y! unit_logic_arithmetic|ufa1|subtractor|fs0|S~combout $end
$var wire 1 z! unit_logic_arithmetic|ufa1|mux1|m[6]~3_combout $end
$var wire 1 {! unit_logic_arithmetic|ufa1|or1|S~1_combout $end
$var wire 1 |! unit_logic_arithmetic|ufa1|mux1|m[6]~4_combout $end
$var wire 1 }! unit_logic_arithmetic|reg1|ff6|Q~q $end
$var wire 1 ~! saida[0]~0_combout $end
$var wire 1 !" saida[3]~8_combout $end
$var wire 1 "" unit_logic_arithmetic|ufa1|or1|S~6_combout $end
$var wire 1 #" unit_logic_arithmetic|ufa1|adder|fa5|S~0_combout $end
$var wire 1 $" unit_logic_arithmetic|ufa1|adder|fa5|S~combout $end
$var wire 1 %" unit_logic_arithmetic|ufa1|and1|S~6_combout $end
$var wire 1 &" unit_logic_arithmetic|ufa1|mux1|m[1]~13_combout $end
$var wire 1 '" unit_logic_arithmetic|ufa1|subtractor|fs5|S~0_combout $end
$var wire 1 (" unit_logic_arithmetic|ufa1|subtractor|fs5|S~combout $end
$var wire 1 )" unit_logic_arithmetic|ufa1|mux1|m[1]~14_combout $end
$var wire 1 *" unit_logic_arithmetic|reg1|ff1|Q~q $end
$var wire 1 +" unit_logic_arithmetic|ufa1|subtractor|fs4|S~0_combout $end
$var wire 1 ," unit_logic_arithmetic|ufa1|subtractor|fs4|S~combout $end
$var wire 1 -" unit_logic_arithmetic|ufa1|adder|fa4|S~0_combout $end
$var wire 1 ." unit_logic_arithmetic|ufa1|adder|fa4|S~combout $end
$var wire 1 /" unit_logic_arithmetic|ufa1|mux1|m[2]~9_combout $end
$var wire 1 0" unit_logic_arithmetic|ufa1|and1|S~4_combout $end
$var wire 1 1" unit_logic_arithmetic|ufa1|or1|S~4_combout $end
$var wire 1 2" unit_logic_arithmetic|ufa1|mux1|m[2]~10_combout $end
$var wire 1 3" unit_logic_arithmetic|reg1|ff2|Q~q $end
$var wire 1 4" saida[0]~1_combout $end
$var wire 1 5" saida[1]~7_combout $end
$var wire 1 6" saida[0]~2_combout $end
$var wire 1 7" saida[2]~4_combout $end
$var wire 1 8" comp|adder|fa2|S~0_combout $end
$var wire 1 9" saida[4]~5_combout $end
$var wire 1 :" saida[6]~3_combout $end
$var wire 1 ;" dec|Mux6~1_combout $end
$var wire 1 <" saida[5]~6_combout $end
$var wire 1 =" dec|Mux6~6_combout $end
$var wire 1 >" dec|Mux6~7_combout $end
$var wire 1 ?" dec|Mux6~4_combout $end
$var wire 1 @" dec|Mux6~8_combout $end
$var wire 1 A" dec|Mux6~9_combout $end
$var wire 1 B" dec|Mux6~2_combout $end
$var wire 1 C" dec|Mux6~3_combout $end
$var wire 1 D" dec|Mux6~0_combout $end
$var wire 1 E" dec|Mux6~5_combout $end
$var wire 1 F" dec|Mux6~10_combout $end
$var wire 1 G" dec|Mux6~12_combout $end
$var wire 1 H" dec|Mux6~13_combout $end
$var wire 1 I" dec|Mux6~14_combout $end
$var wire 1 J" dec|Mux6~15_combout $end
$var wire 1 K" dec|Mux6~11_combout $end
$var wire 1 L" dec|Mux6~16_combout $end
$var wire 1 M" dec|Mux6~17_combout $end
$var wire 1 N" dec|Mux5~8_combout $end
$var wire 1 O" dec|Mux5~16_combout $end
$var wire 1 P" dec|Mux5~15_combout $end
$var wire 1 Q" dec|Mux5~17_combout $end
$var wire 1 R" dec|Mux5~18_combout $end
$var wire 1 S" dec|Mux5~4_combout $end
$var wire 1 T" dec|Mux5~0_combout $end
$var wire 1 U" dec|Mux5~2_combout $end
$var wire 1 V" dec|Mux5~1_combout $end
$var wire 1 W" dec|Mux5~3_combout $end
$var wire 1 X" dec|Mux5~5_combout $end
$var wire 1 Y" dec|Mux5~7_combout $end
$var wire 1 Z" dec|Mux5~6_combout $end
$var wire 1 [" dec|Mux5~11_combout $end
$var wire 1 \" dec|Mux5~12_combout $end
$var wire 1 ]" dec|Mux5~13_combout $end
$var wire 1 ^" dec|Mux13~0_combout $end
$var wire 1 _" dec|Mux5~9_combout $end
$var wire 1 `" dec|Mux4~0_combout $end
$var wire 1 a" dec|Mux5~10_combout $end
$var wire 1 b" dec|Mux5~14_combout $end
$var wire 1 c" dec|Mux5~19_combout $end
$var wire 1 d" dec|Mux4~4_combout $end
$var wire 1 e" dec|Mux4~5_combout $end
$var wire 1 f" dec|Mux4~6_combout $end
$var wire 1 g" dec|Mux4~1_combout $end
$var wire 1 h" dec|Mux4~2_combout $end
$var wire 1 i" dec|Mux4~3_combout $end
$var wire 1 j" dec|Mux4~7_combout $end
$var wire 1 k" dec|Mux3~2_combout $end
$var wire 1 l" dec|Mux3~0_combout $end
$var wire 1 m" dec|Mux3~1_combout $end
$var wire 1 n" dec|Mux3~3_combout $end
$var wire 1 o" dec|Mux3~4_combout $end
$var wire 1 p" dec|Mux3~5_combout $end
$var wire 1 q" dec|Mux3~6_combout $end
$var wire 1 r" dec|Mux2~0_combout $end
$var wire 1 s" dec|Mux1~10_combout $end
$var wire 1 t" dec|Mux1~4_combout $end
$var wire 1 u" dec|Mux1~5_combout $end
$var wire 1 v" dec|Mux1~6_combout $end
$var wire 1 w" dec|Mux1~7_combout $end
$var wire 1 x" dec|Mux1~9_combout $end
$var wire 1 y" dec|Mux1~8_combout $end
$var wire 1 z" dec|Mux0~1_combout $end
$var wire 1 {" dec|Mux0~0_combout $end
$var wire 1 |" dec|Mux0~2_combout $end
$var wire 1 }" dec|Mux0~3_combout $end
$var wire 1 ~" dec|Mux0~4_combout $end
$var wire 1 !# dec|Mux0~5_combout $end
$var wire 1 "# dec|Mux0~6_combout $end
$var wire 1 ## dec|Mux0~7_combout $end
$var wire 1 $# dec|Mux13~1_combout $end
$var wire 1 %# dec|Mux13~2_combout $end
$var wire 1 &# dec|Mux13~3_combout $end
$var wire 1 '# dec|Mux13~4_combout $end
$var wire 1 (# dec|Mux13~5_combout $end
$var wire 1 )# dec|Mux13~6_combout $end
$var wire 1 *# dec|Mux13~7_combout $end
$var wire 1 +# dec|Mux13~8_combout $end
$var wire 1 ,# dec|Mux13~9_combout $end
$var wire 1 -# dec|Mux13~10_combout $end
$var wire 1 .# dec|Mux13~11_combout $end
$var wire 1 /# dec|Mux12~0_combout $end
$var wire 1 0# dec|Mux12~5_combout $end
$var wire 1 1# dec|Mux12~2_combout $end
$var wire 1 2# dec|Mux12~4_combout $end
$var wire 1 3# dec|Mux12~3_combout $end
$var wire 1 4# dec|Mux12~7_combout $end
$var wire 1 5# dec|Mux12~6_combout $end
$var wire 1 6# dec|Mux12~1_combout $end
$var wire 1 7# dec|Mux12~8_combout $end
$var wire 1 8# dec|Mux11~1_combout $end
$var wire 1 9# dec|Mux11~0_combout $end
$var wire 1 :# dec|Mux11~2_combout $end
$var wire 1 ;# dec|Mux11~4_combout $end
$var wire 1 <# dec|Mux11~3_combout $end
$var wire 1 =# dec|Mux11~5_combout $end
$var wire 1 ># dec|Mux11~6_combout $end
$var wire 1 ?# dec|Mux7~12_combout $end
$var wire 1 @# dec|Mux10~1_combout $end
$var wire 1 A# dec|Mux10~0_combout $end
$var wire 1 B# dec|Mux10~2_combout $end
$var wire 1 C# dec|Mux10~8_combout $end
$var wire 1 D# dec|Mux10~9_combout $end
$var wire 1 E# dec|Mux10~3_combout $end
$var wire 1 F# dec|Mux10~5_combout $end
$var wire 1 G# dec|Mux10~4_combout $end
$var wire 1 H# dec|Mux10~6_combout $end
$var wire 1 I# dec|Mux10~7_combout $end
$var wire 1 J# dec|Mux9~0_combout $end
$var wire 1 K# dec|Mux9~1_combout $end
$var wire 1 L# dec|Mux9~4_combout $end
$var wire 1 M# dec|Mux9~2_combout $end
$var wire 1 N# dec|Mux9~3_combout $end
$var wire 1 O# dec|Mux9~5_combout $end
$var wire 1 P# dec|Mux9~6_combout $end
$var wire 1 Q# dec|Mux8~2_combout $end
$var wire 1 R# dec|Mux8~1_combout $end
$var wire 1 S# dec|Mux8~3_combout $end
$var wire 1 T# dec|Mux8~0_combout $end
$var wire 1 U# dec|Mux8~4_combout $end
$var wire 1 V# dec|Mux8~5_combout $end
$var wire 1 W# dec|Mux7~4_combout $end
$var wire 1 X# dec|Mux7~5_combout $end
$var wire 1 Y# dec|Mux7~6_combout $end
$var wire 1 Z# dec|Mux7~9_combout $end
$var wire 1 [# dec|Mux7~7_combout $end
$var wire 1 \# dec|Mux7~8_combout $end
$var wire 1 ]# dec|Mux7~10_combout $end
$var wire 1 ^# dec|Mux7~11_combout $end
$var wire 1 _# dec|Mux18~0_combout $end
$var wire 1 `# dec|Mux18~1_combout $end
$var wire 1 a# dec|Mux16~0_combout $end
$var wire 1 b# dec|Mux16~1_combout $end
$var wire 1 c# dec|Mux16~2_combout $end
$var wire 1 d# dec|Mux15~0_combout $end
$var wire 1 e# unit_logic_arithmetic|ufa1|or1|S [7] $end
$var wire 1 f# unit_logic_arithmetic|ufa1|or1|S [6] $end
$var wire 1 g# unit_logic_arithmetic|ufa1|or1|S [5] $end
$var wire 1 h# unit_logic_arithmetic|ufa1|or1|S [4] $end
$var wire 1 i# unit_logic_arithmetic|ufa1|or1|S [3] $end
$var wire 1 j# unit_logic_arithmetic|ufa1|or1|S [2] $end
$var wire 1 k# unit_logic_arithmetic|ufa1|or1|S [1] $end
$var wire 1 l# unit_logic_arithmetic|ufa1|or1|S [0] $end
$var wire 1 m# unit_logic_arithmetic|ufa1|and1|S [7] $end
$var wire 1 n# unit_logic_arithmetic|ufa1|and1|S [6] $end
$var wire 1 o# unit_logic_arithmetic|ufa1|and1|S [5] $end
$var wire 1 p# unit_logic_arithmetic|ufa1|and1|S [4] $end
$var wire 1 q# unit_logic_arithmetic|ufa1|and1|S [3] $end
$var wire 1 r# unit_logic_arithmetic|ufa1|and1|S [2] $end
$var wire 1 s# unit_logic_arithmetic|ufa1|and1|S [1] $end
$var wire 1 t# unit_logic_arithmetic|ufa1|and1|S [0] $end
$upscope $end
$upscope $end
$enddefinitions $end
#0
$dumpvars
0!
b1001000 "
0#
0$
0%
0&
b0 '
x.
0-
0,
0+
0*
0)
0(
15
x4
x3
02
x1
00
0/
1<
1;
1:
19
x8
x7
16
x=
x>
0?
1@
xA
1B
1C
1D
xE
0F
0G
0H
0I
0J
0K
1L
xM
xN
0O
xP
0Q
0R
1S
1T
1U
1V
xW
xX
1Y
xZ
0[
0\
0]
0^
1_
0`
1a
0b
0c
0d
0e
0f
0g
0h
0i
0j
0k
0l
0m
0n
0o
0p
0q
0r
0s
0t
0u
0v
0w
xx
0y
0z
0{
x|
x}
0~
0!!
x"!
x#!
1$!
0%!
0&!
x'!
x(!
0)!
0*!
0+!
x,!
x-!
0.!
x/!
x0!
11!
02!
13!
04!
x5!
x6!
07!
08!
09!
0:!
x;!
0<!
x=!
0>!
x?!
0@!
xA!
0B!
xC!
0D!
xE!
0F!
xG!
xH!
0I!
0J!
xK!
xL!
xM!
0N!
0O!
0P!
0Q!
xR!
xS!
xT!
0U!
0V!
0W!
0X!
xY!
0Z!
0[!
0\!
x]!
x^!
x_!
x`!
0a!
0b!
xc!
xd!
0e!
xf!
xg!
xh!
xi!
xj!
0k!
0l!
0m!
xn!
xo!
xp!
xq!
xr!
xs!
0t!
0u!
xv!
xw!
xx!
xy!
xz!
0{!
x|!
0}!
1~!
0!"
0""
x#"
x$"
0%"
x&"
x'"
x("
x)"
0*"
x+"
x,"
x-"
x."
x/"
00"
01"
x2"
03"
14"
05"
x6"
07"
08"
09"
0:"
x;"
0<"
0="
x>"
0?"
x@"
xA"
xB"
xC"
xD"
xE"
xF"
0G"
0H"
0I"
0J"
0K"
0L"
xM"
0N"
xO"
xP"
xQ"
xR"
xS"
xT"
xU"
0V"
xW"
xX"
xY"
0Z"
0["
0\"
0]"
1^"
x_"
0`"
xa"
0b"
0c"
xd"
0e"
0f"
0g"
0h"
xi"
0j"
0k"
xl"
xm"
xn"
0o"
0p"
0q"
0r"
0s"
0t"
0u"
xv"
0w"
0x"
0y"
0z"
0{"
0|"
0}"
0~"
x!#
x"#
0##
0$#
1%#
1&#
0'#
1(#
0)#
0*#
0+#
0,#
1-#
1.#
0/#
00#
01#
02#
03#
x4#
05#
06#
x7#
x8#
x9#
0:#
x;#
x<#
0=#
x>#
0?#
0@#
0A#
0B#
0C#
0D#
0E#
0F#
0G#
0H#
0I#
0J#
xK#
xL#
0M#
0N#
0O#
xP#
0Q#
0R#
0S#
xT#
0U#
0V#
0W#
0X#
0Y#
0Z#
x[#
0\#
0]#
0^#
0_#
1`#
0a#
0b#
xc#
xd#
xl#
xk#
xj#
xi#
xh#
xg#
xf#
ze#
xt#
xs#
xr#
xq#
xp#
xo#
xn#
zm#
$end
#250000
1!
1^
0>
1`
0_
1b
0a
#500000
0!
0^
1>
#750000
1!
1^
0>
0`
1_
#1000000
0!
0^
1>
#1250000
1!
1^
0>
1`
0_
0b
1a
#1280000
1$
1j
1>
1t
1u
14!
1&!
1""
xF!
05!
1l!
x@!
0'!
#1500000
0!
0^
0>
0t
0u
#1750000
1!
1^
1>
1t
1u
0`
1_
#2000000
0!
0^
0>
0t
0u
#2250000
1!
1^
1>
1t
1u
1`
0_
1b
0a
#2500000
0!
0^
0>
0t
0u
#2750000
1!
1^
1>
1t
1u
0`
1_
#3000000
0!
0^
0>
0t
0u
#3250000
1!
1^
1>
1t
1u
1`
0_
0b
1a
#3500000
0!
0^
0>
0t
0u
#3750000
1!
1^
1>
1t
1u
0`
1_
#3840000
0$
0j
0>
0t
0u
#4000000
0!
0^
1>
#4250000
1!
1^
0>
1`
0_
1b
0a
#4500000
0!
0^
1>
#4750000
1!
1^
0>
0`
1_
#5000000
b1001010 "
b1001110 "
b1011110 "
b1111110 "
0!
1y
1p
1)!
1m
0^
1>
1~
#5250000
1!
1^
0>
1`
0_
0b
1a
#5500000
0!
0^
1>
#5750000
1!
1^
0>
0`
1_
#6000000
0!
0^
1>
#6250000
1!
1^
0>
1`
0_
1b
0a
#6400000
1%
1i
1>
1k
1l
12!
1*!
1%!
1{
1q
1o
1%"
1F!
x5!
1X!
xB!
1,!
1m!
1@!
x'!
1{!
x<!
1|
1b!
x>!
1"!
11"
xD!
1/!
#6500000
0!
0^
0>
0k
0l
#6750000
1!
1^
1>
1k
1l
0`
1_
#7000000
0!
0^
0>
0k
0l
#7250000
1!
1^
1>
1k
1l
1`
0_
0b
1a
#7500000
0!
0^
0>
0k
0l
#7750000
1!
1^
1>
1k
1l
0`
1_
#8000000
0!
0^
0>
0k
0l
#8250000
1!
1^
1>
1k
1l
1`
0_
1b
0a
#8500000
0!
0^
0>
0k
0l
#8750000
1!
1^
1>
1k
1l
0`
1_
#8960000
0%
0i
0>
0k
0l
#9000000
0!
0^
1>
#9250000
1!
1^
0>
1`
0_
0b
1a
#9500000
0!
0^
1>
#9750000
1!
1^
0>
0`
1_
#10000000
b1111111 "
b1110111 "
b1110011 "
b1100011 "
0!
1r
0p
0$!
0)!
0^
1>
0~
#10240000
b1 '
1\
0>
0&"
0f!
0R!
17!
1f
#10250000
1!
1^
1>
1`
0_
1b
0a
#10500000
0!
0^
0>
#10750000
1!
1^
1>
0`
1_
#11000000
0!
0^
0>
#11250000
1!
1^
1>
1`
0_
0b
1a
#11500000
0!
0^
0>
#11520000
1#
1[
1>
1e
0K!
1g
06"
0Z
1h
0=
0[#
0T#
1L#
0K#
09#
08#
04#
0!#
0v"
0n"
1i"
0d"
0Y"
0U"
0T"
0S"
0P"
0O"
0D"
0B"
0@"
0;"
0]!
10!
1-!
1#!
1}
0x
1d#
1c#
0<#
0;#
0"#
0_"
1W"
1l"
0Q"
1C"
0>"
0_!
1'"
15!
0+"
1n!
1'!
0g!
1x!
1X
1W
17
18
0P#
07#
0a"
1X"
1m"
0R"
1E"
0A"
0`!
1("
16!
0,"
1o!
1(!
0h!
1y!
0P
0M
01
04
0>#
1F"
1)"
1H!
0/"
1r!
0S!
0i!
1z!
0N
03
02"
1s!
0T!
0j!
1|!
1M"
0Y!
1E
1.
#11750000
1!
1^
0>
0`
0e
1_
0g
0h
#12000000
0!
0^
1>
#12250000
1!
1^
0>
1`
1e
0_
1g
1h
1b
1c
0a
1d
1*"
1}!
1t!
1I!
11#
16"
15"
1x"
1:"
0~!
19"
1J!
13#
1[#
1W#
1T#
1K#
16#
14#
10#
1!#
1v"
1n"
0i"
1d"
1Y"
1U"
1T"
1S"
1P"
1O"
1D"
1B"
1@"
1;"
1_#
1U#
1M#
1J#
1F#
1C#
1A#
0-#
0&#
1t"
1k"
0F"
1)#
1'#
0%#
1$#
0^"
04"
0d#
0c#
1##
1j"
1K!
04#
1"#
0k"
1_"
0W"
0l"
1Q"
0C"
1>"
0K#
1H#
0v"
1*#
1a#
01#
06"
05"
1+#
1N"
1<"
09"
17"
1!"
0X
0W
1K
1G
1Z
07
08
1(
1,
1=
1P#
17#
0j"
0`#
1q"
0M"
1a"
0X"
0m"
1R"
0E"
1A"
03#
12#
0a#
0[#
1Z#
1X#
18#
15#
14#
00#
0!#
1w"
1`"
0Y"
1V"
0U"
0T"
0S"
0P"
1I"
0@"
1="
0;"
0_#
0U#
1@#
0(#
1&#
0t"
1e"
0_"
0Q"
1b#
1\#
1R#
1/#
0)#
0$#
1g"
0N"
1C"
0>"
0H#
1?#
1{"
1z"
1J"
1H"
1G"
1=#
0x"
1s"
1o"
1W"
1P
1M
0G
0Y
0V
0U
1H
0E
11
14
0,
06
09
0:
1+
0.
0##
0q"
0P#
1c#
1d#
1`#
0.#
05#
0\#
1f"
0a"
0e"
1L"
0A"
1>"
0C"
1(#
0R"
1S#
0&#
1E"
1}"
0I"
0K
0H
0P
1W
1X
1Y
1V
1U
0L
0(
0+
01
18
17
16
19
1:
05
1>#
1k"
1A"
0E"
0(#
0L"
1N
13
07#
1j"
1M"
1V#
1##
0M
1G
1E
1Q
1K
04
1,
1.
10
1(
1q"
0M"
1H
0E
1+
0.
#12500000
0!
0^
1>
#12750000
1!
1^
0>
0`
0e
1_
0g
0h
#13000000
0!
0^
1>
#13250000
1!
1^
0>
1`
1e
0_
1g
1h
0b
0c
1a
0d
#13500000
0!
0^
1>
#13750000
1!
1^
0>
0`
0e
1_
0g
0h
#14000000
0!
0^
1>
#14250000
1!
1^
0>
1`
1e
0_
1g
1h
1b
1c
0a
1d
#14500000
0!
0^
1>
#14750000
1!
1^
0>
0`
0e
1_
0g
0h
#15000000
b1100001 "
b1100000 "
b1101000 "
b1111000 "
0!
0r
0y
1$!
1)!
0^
1>
