Projeto2/simulation/qsim/Calculator.msim.vcd
$comment
	File created using the following command:
		vcd file Calculator.msim.vcd -direction
$end
$date
	Fri Nov 07 09:38:17 2014
$end
$version
	ModelSim Version 10.1e
$end
$timescale
	1ps
$end
$scope module Calculator_vlg_vec_tst $end
$var reg 1 ! CLK $end
$var reg 7 " data [0:6] $end
$var reg 1 # EN $end
$var reg 1 $ M0 $end
$var reg 1 % M1 $end
$var reg 1 & RES $end
$var reg 2 ' SEL [0:1] $end
$var wire 1 ( result [0] $end
$var wire 1 ) result [1] $end
$var wire 1 * result [2] $end
$var wire 1 + result [3] $end
$var wire 1 , result [4] $end
$var wire 1 - result [5] $end
$var wire 1 . result [6] $end
$var wire 1 / result [7] $end
$var wire 1 0 sampler $end
$scope module i1 $end
$var wire 1 1 gnd $end
$var wire 1 2 vcc $end
$var wire 1 3 unknown $end
$var tri1 1 4 devclrn $end
$var tri1 1 5 devpor $end
$var tri1 1 6 devoe $end
$var wire 1 7 result[7]~output_o $end
$var wire 1 8 result[6]~output_o $end
$var wire 1 9 result[5]~output_o $end
$var wire 1 : result[4]~output_o $end
$var wire 1 ; result[3]~output_o $end
$var wire 1 < result[2]~output_o $end
$var wire 1 = result[1]~output_o $end
$var wire 1 > result[0]~output_o $end
$var wire 1 ? CLK~input_o $end
$var wire 1 @ data_Flux|clockBroke|CLKout_synthesized_var~0_combout $end
$var wire 1 A data_Flux|clockBroke|CLKout_synthesized_var~q $end
$var wire 1 B unit_logic_arithmetic|FFT1|CLKout_synthesized_var~0_combout $end
$var wire 1 C unit_logic_arithmetic|FFT1|CLKout_synthesized_var~q $end
$var wire 1 D EN~input_o $end
$var wire 1 E unit_logic_arithmetic|reg1|clkin~combout $end
$var wire 1 F unit_logic_arithmetic|reg1|clkin~clkctrl_outclk $end
$var wire 1 G unit_logic_arithmetic|ENufa~combout $end
$var wire 1 H SEL[1]~input_o $end
$var wire 1 I SEL[0]~input_o $end
$var wire 1 J unit_logic_arithmetic|ufa1|Mux4~2_combout $end
$var wire 1 K unit_logic_arithmetic|ufa1|ENor~combout $end
$var wire 1 L unit_logic_arithmetic|ufa1|ENor~clkctrl_outclk $end
$var wire 1 M M0~input_o $end
$var wire 1 N M1~input_o $end
$var wire 1 O data_Flux|reg0|clkin~combout $end
$var wire 1 P data_Flux|reg0|clkin~clkctrl_outclk $end
$var wire 1 Q data[6]~input_o $end
$var wire 1 R RES~input_o $end
$var wire 1 S RES~inputclkctrl_outclk $end
$var wire 1 T data_Flux|reg0|ff6|Q~q $end
$var wire 1 U data_Flux|reg1|clkin~combout $end
$var wire 1 V data_Flux|reg1|clkin~clkctrl_outclk $end
$var wire 1 W data_Flux|reg1|ff6|Q~q $end
$var wire 1 X unit_logic_arithmetic|ufa1|or1|S~0_combout $end
$var wire 1 Y unit_logic_arithmetic|ufa1|Mux4~0_combout $end
$var wire 1 Z unit_logic_arithmetic|ufa1|ENand~combout $end
$var wire 1 [ unit_logic_arithmetic|ufa1|ENand~clkctrl_outclk $end
$var wire 1 \ unit_logic_arithmetic|ufa1|and1|S~0_combout $end
$var wire 1 ] unit_logic_arithmetic|ufa1|Mux8~0_combout $end
$var wire 1 ^ unit_logic_arithmetic|ufa1|ENsum~combout $end
$var wire 1 _ unit_logic_arithmetic|ufa1|ENsum~clkctrl_outclk $end
$var wire 1 ` unit_logic_arithmetic|ufa1|adder|ha|S~0_combout $end
$var wire 1 a unit_logic_arithmetic|ufa1|adder|ha|S~combout $end
$var wire 1 b unit_logic_arithmetic|ufa1|Mux4~1_combout $end
$var wire 1 c unit_logic_arithmetic|ufa1|ENsub~combout $end
$var wire 1 d unit_logic_arithmetic|ufa1|ENsub~clkctrl_outclk $end
$var wire 1 e unit_logic_arithmetic|ufa1|subtractor|hs|S~combout $end
$var wire 1 f unit_logic_arithmetic|ufa1|mux1|m[7]~0_combout $end
$var wire 1 g unit_logic_arithmetic|ufa1|mux1|m[7]~1_combout $end
$var wire 1 h unit_logic_arithmetic|reg1|ff7|Q~feeder_combout $end
$var wire 1 i unit_logic_arithmetic|reg1|ff7|Q~q $end
$var wire 1 j data[5]~input_o $end
$var wire 1 k data_Flux|reg0|ff5|Q~q $end
$var wire 1 l data_Flux|reg1|ff5|Q~q $end
$var wire 1 m unit_logic_arithmetic|ufa1|or1|S~1_combout $end
$var wire 1 n unit_logic_arithmetic|ufa1|and1|S~1_combout $end
$var wire 1 o unit_logic_arithmetic|ufa1|adder|ha|Co~combout $end
$var wire 1 p unit_logic_arithmetic|ufa1|adder|fa0|S~0_combout $end
$var wire 1 q unit_logic_arithmetic|ufa1|adder|fa0|S~combout $end
$var wire 1 r unit_logic_arithmetic|ufa1|mux1|m[6]~2_combout $end
$var wire 1 s unit_logic_arithmetic|ufa1|subtractor|hs|Te~0_combout $end
$var wire 1 t unit_logic_arithmetic|ufa1|subtractor|hs|Te~combout $end
$var wire 1 u unit_logic_arithmetic|ufa1|subtractor|fs0|S~0_combout $end
$var wire 1 v unit_logic_arithmetic|ufa1|subtractor|fs0|S~combout $end
$var wire 1 w unit_logic_arithmetic|ufa1|mux1|m[6]~3_combout $end
$var wire 1 x unit_logic_arithmetic|reg1|ff6|Q~q $end
$var wire 1 y data[4]~input_o $end
$var wire 1 z data_Flux|reg0|ff4|Q~q $end
$var wire 1 { data_Flux|reg1|ff4|Q~q $end
$var wire 1 | unit_logic_arithmetic|ufa1|and1|S~2_combout $end
$var wire 1 } unit_logic_arithmetic|ufa1|or1|S~2_combout $end
$var wire 1 ~ unit_logic_arithmetic|ufa1|subtractor|fs0|Te~0_combout $end
$var wire 1 !! unit_logic_arithmetic|ufa1|subtractor|fs0|Te~combout $end
$var wire 1 "! unit_logic_arithmetic|ufa1|subtractor|fs1|S~0_combout $end
$var wire 1 #! unit_logic_arithmetic|ufa1|subtractor|fs1|S~combout $end
$var wire 1 $! unit_logic_arithmetic|ufa1|adder|fa0|Co~0_combout $end
$var wire 1 %! unit_logic_arithmetic|ufa1|adder|fa0|Co~combout $end
$var wire 1 &! unit_logic_arithmetic|ufa1|adder|fa1|S~0_combout $end
$var wire 1 '! unit_logic_arithmetic|ufa1|adder|fa1|S~combout $end
$var wire 1 (! unit_logic_arithmetic|ufa1|mux1|m[5]~4_combout $end
$var wire 1 )! unit_logic_arithmetic|ufa1|mux1|m[5]~5_combout $end
$var wire 1 *! unit_logic_arithmetic|reg1|ff5|Q~q $end
$var wire 1 +! data[3]~input_o $end
$var wire 1 ,! data_Flux|reg0|ff3|Q~q $end
$var wire 1 -! data_Flux|reg1|ff3|Q~feeder_combout $end
$var wire 1 .! data_Flux|reg1|ff3|Q~q $end
$var wire 1 /! unit_logic_arithmetic|ufa1|or1|S~3_combout $end
$var wire 1 0! unit_logic_arithmetic|ufa1|subtractor|fs1|Te~0_combout $end
$var wire 1 1! unit_logic_arithmetic|ufa1|subtractor|fs1|Te~combout $end
$var wire 1 2! unit_logic_arithmetic|ufa1|subtractor|fs2|S~0_combout $end
$var wire 1 3! unit_logic_arithmetic|ufa1|subtractor|fs2|S~combout $end
$var wire 1 4! unit_logic_arithmetic|ufa1|adder|fa1|Co~0_combout $end
$var wire 1 5! unit_logic_arithmetic|ufa1|adder|fa1|Co~combout $end
$var wire 1 6! unit_logic_arithmetic|ufa1|adder|fa2|S~0_combout $end
$var wire 1 7! unit_logic_arithmetic|ufa1|adder|fa2|S~combout $end
$var wire 1 8! unit_logic_arithmetic|ufa1|and1|S~3_combout $end
$var wire 1 9! unit_logic_arithmetic|ufa1|mux1|m[4]~6_combout $end
$var wire 1 :! unit_logic_arithmetic|ufa1|mux1|m[4]~7_combout $end
$var wire 1 ;! unit_logic_arithmetic|reg1|ff4|Q~q $end
$var wire 1 <! data[2]~input_o $end
$var wire 1 =! data_Flux|reg0|ff2|Q~q $end
$var wire 1 >! data_Flux|reg1|ff2|Q~q $end
$var wire 1 ?! unit_logic_arithmetic|ufa1|or1|S~4_combout $end
$var wire 1 @! unit_logic_arithmetic|ufa1|and1|S~4_combout $end
$var wire 1 A! unit_logic_arithmetic|ufa1|subtractor|fs2|Te~0_combout $end
$var wire 1 B! unit_logic_arithmetic|ufa1|subtractor|fs2|Te~combout $end
$var wire 1 C! unit_logic_arithmetic|ufa1|subtractor|fs3|S~0_combout $end
$var wire 1 D! unit_logic_arithmetic|ufa1|subtractor|fs3|S~combout $end
$var wire 1 E! unit_logic_arithmetic|ufa1|adder|fa2|Co~0_combout $end
$var wire 1 F! unit_logic_arithmetic|ufa1|adder|fa2|Co~combout $end
$var wire 1 G! unit_logic_arithmetic|ufa1|adder|fa3|S~0_combout $end
$var wire 1 H! unit_logic_arithmetic|ufa1|adder|fa3|S~combout $end
$var wire 1 I! unit_logic_arithmetic|ufa1|mux1|m[3]~8_combout $end
$var wire 1 J! unit_logic_arithmetic|ufa1|mux1|m[3]~9_combout $end
$var wire 1 K! unit_logic_arithmetic|reg1|ff3|Q~feeder_combout $end
$var wire 1 L! unit_logic_arithmetic|reg1|ff3|Q~q $end
$var wire 1 M! data[1]~input_o $end
$var wire 1 N! data_Flux|reg0|ff1|Q~q $end
$var wire 1 O! unit_logic_arithmetic|ufa1|subtractor|fs3|Te~0_combout $end
$var wire 1 P! unit_logic_arithmetic|ufa1|subtractor|fs3|Te~combout $end
$var wire 1 Q! data_Flux|reg1|ff1|Q~q $end
$var wire 1 R! unit_logic_arithmetic|ufa1|subtractor|fs4|S~0_combout $end
$var wire 1 S! unit_logic_arithmetic|ufa1|subtractor|fs4|S~combout $end
$var wire 1 T! unit_logic_arithmetic|ufa1|and1|S~5_combout $end
$var wire 1 U! unit_logic_arithmetic|ufa1|adder|fa3|Co~0_combout $end
$var wire 1 V! unit_logic_arithmetic|ufa1|adder|fa3|Co~combout $end
$var wire 1 W! unit_logic_arithmetic|ufa1|adder|fa4|S~0_combout $end
$var wire 1 X! unit_logic_arithmetic|ufa1|adder|fa4|S~combout $end
$var wire 1 Y! unit_logic_arithmetic|ufa1|mux1|m[2]~10_combout $end
$var wire 1 Z! unit_logic_arithmetic|ufa1|or1|S~5_combout $end
$var wire 1 [! unit_logic_arithmetic|ufa1|mux1|m[2]~11_combout $end
$var wire 1 \! unit_logic_arithmetic|reg1|ff2|Q~q $end
$var wire 1 ]! data[0]~input_o $end
$var wire 1 ^! data_Flux|reg0|ff0|Q~q $end
$var wire 1 _! data_Flux|reg1|ff0|Q~q $end
$var wire 1 `! unit_logic_arithmetic|ufa1|and1|S~6_combout $end
$var wire 1 a! unit_logic_arithmetic|ufa1|subtractor|fs4|Te~0_combout $end
$var wire 1 b! unit_logic_arithmetic|ufa1|subtractor|fs4|Te~combout $end
$var wire 1 c! unit_logic_arithmetic|ufa1|subtractor|fs5|S~0_combout $end
$var wire 1 d! unit_logic_arithmetic|ufa1|subtractor|fs5|S~combout $end
$var wire 1 e! unit_logic_arithmetic|ufa1|adder|fa4|Co~0_combout $end
$var wire 1 f! unit_logic_arithmetic|ufa1|adder|fa4|Co~combout $end
$var wire 1 g! unit_logic_arithmetic|ufa1|adder|fa5|S~0_combout $end
$var wire 1 h! unit_logic_arithmetic|ufa1|adder|fa5|S~combout $end
$var wire 1 i! unit_logic_arithmetic|ufa1|mux1|m[1]~12_combout $end
$var wire 1 j! unit_logic_arithmetic|ufa1|or1|S~6_combout $end
$var wire 1 k! unit_logic_arithmetic|ufa1|mux1|m[1]~13_combout $end
$var wire 1 l! unit_logic_arithmetic|reg1|ff1|Q~feeder_combout $end
$var wire 1 m! unit_logic_arithmetic|reg1|ff1|Q~q $end
$var wire 1 n! unit_logic_arithmetic|ufa1|subtractor|fs5|Te~0_combout $end
$var wire 1 o! unit_logic_arithmetic|ufa1|subtractor|fs5|Te~combout $end
$var wire 1 p! unit_logic_arithmetic|ufa1|adder|fa5|Co~0_combout $end
$var wire 1 q! unit_logic_arithmetic|ufa1|adder|fa5|Co~combout $end
$var wire 1 r! unit_logic_arithmetic|ufa1|mux1|m[0]~14_combout $end
$var wire 1 s! unit_logic_arithmetic|reg1|ff0|Q~feeder_combout $end
$var wire 1 t! unit_logic_arithmetic|reg1|ff0|Q~q $end
$var wire 1 u! unit_logic_arithmetic|ufa1|or1|S [7] $end
$var wire 1 v! unit_logic_arithmetic|ufa1|or1|S [6] $end
$var wire 1 w! unit_logic_arithmetic|ufa1|or1|S [5] $end
$var wire 1 x! unit_logic_arithmetic|ufa1|or1|S [4] $end
$var wire 1 y! unit_logic_arithmetic|ufa1|or1|S [3] $end
$var wire 1 z! unit_logic_arithmetic|ufa1|or1|S [2] $end
$var wire 1 {! unit_logic_arithmetic|ufa1|or1|S [1] $end
$var wire 1 |! unit_logic_arithmetic|ufa1|or1|S [0] $end
$var wire 1 }! unit_logic_arithmetic|ufa1|and1|S [7] $end
$var wire 1 ~! unit_logic_arithmetic|ufa1|and1|S [6] $end
$var wire 1 !" unit_logic_arithmetic|ufa1|and1|S [5] $end
$var wire 1 "" unit_logic_arithmetic|ufa1|and1|S [4] $end
$var wire 1 #" unit_logic_arithmetic|ufa1|and1|S [3] $end
$var wire 1 $" unit_logic_arithmetic|ufa1|and1|S [2] $end
$var wire 1 %" unit_logic_arithmetic|ufa1|and1|S [1] $end
$var wire 1 &" unit_logic_arithmetic|ufa1|and1|S [0] $end
$upscope $end
$upscope $end
$enddefinitions $end
#0
$dumpvars
0!
b100010 "
0#
0$
0%
0&
b0 '
0/
0.
0-
0,
0+
0*
0)
0(
x0
01
12
x3
14
15
16
07
08
09
0:
0;
0<
0=
0>
0?
1@
0A
1B
0C
0D
0E
0F
0G
0H
0I
0J
0K
0L
0M
0N
0O
0P
0Q
0R
0S
0T
0U
0V
0W
0X
0Y
0Z
0[
0\
0]
0^
0_
0`
xa
0b
0c
0d
xe
xf
xg
xh
0i
1j
0k
0l
0m
0n
xo
xp
xq
xr
0s
xt
xu
xv
xw
0x
0y
0z
0{
0|
0}
x~
x!!
x"!
x#!
0$!
x%!
x&!
x'!
x(!
x)!
0*!
0+!
0,!
0-!
0.!
0/!
x0!
x1!
x2!
x3!
04!
x5!
x6!
x7!
08!
x9!
x:!
0;!
0<!
0=!
0>!
0?!
0@!
xA!
xB!
xC!
xD!
0E!
xF!
xG!
xH!
xI!
xJ!
xK!
0L!
1M!
0N!
xO!
xP!
0Q!
xR!
xS!
0T!
0U!
xV!
xW!
xX!
xY!
0Z!
x[!
0\!
0]!
0^!
0_!
0`!
xa!
xb!
xc!
xd!
0e!
xf!
xg!
xh!
xi!
0j!
xk!
xl!
0m!
xn!
xo!
0p!
xq!
xr!
xs!
0t!
x|!
x{!
xz!
xy!
xx!
xw!
xv!
zu!
x&"
x%"
x$"
x#"
x""
x!"
x~!
z}!
$end
#250000
1!
1?
00
1A
0@
1C
0B
#500000
0!
0?
10
#750000
1!
1?
00
0A
1@
#1000000
0!
0?
10
#1250000
1!
1?
00
1A
0@
0C
1B
#1280000
1$
1M
10
1O
1P
1N!
1k
xe!
0a!
1Z!
x$!
0~
1m
#1500000
0!
0?
00
0O
0P
#1750000
1!
1?
10
1O
1P
0A
1@
#2000000
0!
0?
00
0O
0P
#2250000
1!
1?
10
1O
1P
1A
0@
1C
0B
#2500000
0!
0?
00
0O
0P
#2750000
1!
1?
10
1O
1P
0A
1@
#3000000
0!
0?
00
0O
0P
#3250000
1!
1?
10
1O
1P
1A
0@
0C
1B
#3500000
0!
0?
00
0O
0P
#3750000
1!
1?
10
1O
1P
0A
1@
#3840000
0$
0M
00
0O
0P
#4000000
0!
0?
10
#4250000
1!
1?
00
1A
0@
1C
0B
#4500000
0!
0?
10
#4750000
1!
1?
00
0A
1@
#5000000
b100011 "
b100001 "
b110001 "
b10001 "
0!
1Q
0j
1<!
0M!
0?
10
#5250000
1!
1?
00
1A
0@
0C
1B
#5500000
0!
0?
10
#5750000
1!
1?
00
0A
1@
#6000000
0!
0?
10
#6250000
1!
1?
00
1A
0@
1C
0B
#6500000
0!
0?
10
#6750000
1!
1?
00
0A
1@
#7000000
0!
0?
10
#7250000
1!
1?
00
1A
0@
0C
1B
#7500000
0!
0?
10
#7750000
1!
1?
00
0A
1@
#8000000
0!
0?
10
#8250000
1!
1?
00
1A
0@
1C
0B
#8500000
0!
0?
10
#8750000
1!
1?
00
0A
1@
#9000000
0!
0?
10
#9250000
1!
1?
00
1A
0@
0C
1B
#9500000
0!
0?
10
#9750000
1!
1?
00
0A
1@
#10000000
b11001 "
b1011001 "
b1011000 "
0!
0Q
1+!
1]!
0?
10
1-!
#10240000
b10 '
1I
00
0r!
0i!
0I!
0(!
0f
1]
1Y
0s!
#10250000
1!
1?
10
1A
0@
1C
0B
#10500000
0!
0?
00
#10750000
1!
1?
10
0A
1@
#11000000
0!
0?
00
#11250000
1!
1?
10
1A
0@
0C
1B
#11500000
0!
0?
00
#11750000
1!
1?
10
0A
1@
#12000000
0!
0?
00
#12250000
1!
1?
10
1A
0@
1C
0B
#12500000
0!
0?
00
#12750000
1!
1?
10
0A
1@
#13000000
0!
0?
00
#13250000
1!
1?
10
1A
0@
0C
1B
#13500000
0!
0?
00
#13750000
1!
1?
10
0A
1@
#14000000
0!
0?
00
#14250000
1!
1?
10
1A
0@
1C
0B
#14500000
0!
0?
00
#14750000
1!
1?
10
0A
1@
#15000000
b1011100 "
b1010100 "
b1010101 "
0!
1Q
1y
0+!
0?
00
0-!
#15250000
1!
1?
10
1A
0@
0C
1B
#15360000
b0 '
0I
00
xr!
0k!
xi!
0J!
xI!
0)!
x(!
0g
xf
0]
0Y
xs!
0l!
xk!
0K!
xJ!
x)!
0h
xg
xl!
xK!
xh
#15500000
0!
0?
10
#15750000
1!
1?
00
0A
1@
#16000000
0!
0?
10
#16250000
1!
1?
00
1A
0@
1C
0B
#16500000
0!
0?
10
#16750000
1!
1?
00
0A
1@
#17000000
0!
0?
10
#17250000
1!
1?
00
1A
0@
0C
1B
#17500000
0!
0?
10
#17750000
1!
1?
00
0A
1@
#18000000
0!
0?
10
#18250000
1!
1?
00
1A
0@
1C
0B
#18500000
0!
0?
10
#18750000
1!
1?
00
0A
1@
#19000000
0!
0?
10
#19250000
1!
1?
00
1A
0@
0C
1B
#19500000
0!
0?
10
#19750000
1!
1?
00
0A
1@
#20000000
b1000101 "
b101 "
b100 "
0!
0Q
0<!
0]!
0?
10
#20250000
1!
1?
00
1A
0@
1C
0B
#20500000
0!
0?
10
#20750000
1!
1?
00
0A
1@
#21000000
0!
0?
10
#21250000
1!
1?
00
1A
0@
0C
1B
#21500000
0!
0?
10
#21750000
1!
1?
00
0A
1@
#22000000
0!
0?
10
#22250000
1!
1?
00
1A
0@
1C
0B
#22500000
0!
0?
10
#22750000
1!
1?
00
0A
1@
#23000000
0!
0?
10
#23250000
1!
1?
00
1A
0@
0C
1B
#23500000
0!
0?
10
#23750000
1!
1?
00
0A
1@
#24000000
0!
0?
10
#24250000
1!
1?
00
1A
0@
1C
0B
#24500000
0!
0?
10
#24750000
1!
1?
00
0A
1@
#25000000
b110 "
b10 "
b1010 "
b1011 "
0!
1Q
1j
0y
1+!
0?
10
1-!
#25250000
1!
1?
00
1A
0@
0C
1B
#25500000
0!
0?
10
#25750000
1!
1?
00
0A
1@
#26000000
0!
0?
10
#26250000
1!
1?
00
1A
0@
1C
0B
#26500000
0!
0?
10
#26750000
1!
1?
00
0A
1@
#27000000
0!
0?
10
#27250000
1!
1?
00
1A
0@
0C
1B
#27500000
0!
0?
10
#27750000
1!
1?
00
0A
1@
#28000000
0!
0?
10
#28250000
1!
1?
00
1A
0@
1C
0B
#28500000
0!
0?
10
#28750000
1!
1?
00
0A
1@
#29000000
0!
0?
10
#29250000
1!
1?
00
1A
0@
0C
1B
#29500000
0!
0?
10
#29750000
1!
1?
00
0A
1@
#30000000
b1001011 "
b1001111 "
b1000111 "
0!
1y
0+!
1]!
0?
10
0-!
#30250000
1!
1?
00
1A
0@
1C
0B
#30500000
0!
0?
10
#30720000
1%
1N
00
#30750000
1!
1?
10
1U
1V
1_!
1{
1l
1W
0A
xp!
1n!
1j!
x4!
10!
1}
1$!
x~
1n
1s
1`
1X
1@
#31000000
0!
0?
00
0U
0V
#31250000
1!
1?
10
1U
1V
1A
0@
0C
1B
#31500000
0!
0?
00
0U
0V
#31750000
1!
1?
10
1U
1V
0A
1@
#32000000
0!
0?
00
0U
0V
#32250000
1!
1?
10
1U
1V
1A
0@
1C
0B
#32500000
0!
0?
00
0U
0V
#32750000
1!
1?
10
1U
1V
0A
1@
#33000000
0!
0?
00
0U
0V
#33250000
1!
1?
10
1U
1V
1A
0@
0C
1B
#33280000
0%
0N
00
0U
0V
#33500000
0!
0?
10
#33750000
1!
1?
00
0A
1@
#34000000
0!
0?
10
#34250000
1!
1?
00
1A
0@
1C
0B
#34500000
0!
0?
10
#34750000
1!
1?
00
0A
1@
#35000000
b1000110 "
b110 "
b1110 "
0!
0Q
1+!
0]!
0?
10
1-!
#35250000
1!
1?
00
1A
0@
0C
1B
#35500000
0!
0?
10
#35750000
1!
1?
00
0A
1@
#35840000
1#
1D
10
#36000000
0!
0?
00
#36250000
1!
1?
10
1A
1G
0@
1^
1_
0V!
0F!
1%!
0o
1a
0e!
1W!
0G!
14!
0&!
0p
1f
0f!
1X!
0H!
15!
0'!
0q
1g
0p!
1g!
1Y!
0I!
16!
0(!
0r
1h
0q!
1h!
1[!
0J!
17!
0)!
0w
0r!
1i!
0K!
19!
0s!
1k!
1:!
1l!
1C
1E
0B
1F
1m!
1\!
1;!
1i
1=
1<
1:
17
1)
1*
1,
1/
#36500000
0!
0?
00
#36750000
1!
1?
10
0A
0G
1@
0^
0_
#37000000
0!
0?
00
#37120000
b10 '
1I
10
xk!
0i!
xY!
xJ!
x9!
x)!
xr
xg
0f
1]
1Y
xl!
x[!
xK!
x:!
xw
xh
#37250000
1!
1?
00
1A
1G
0@
1Z
1[
0~!
0!"
0""
0#"
0$"
1%"
0&"
0k!
0Y!
0J!
09!
0)!
1r
0g
0l!
0[!
0K!
0:!
1w
0h
0C
0E
1B
0F
#37500000
0!
0?
10
#37750000
1!
1?
00
0A
0G
1@
0Z
0[
#38000000
0!
0?
10
#38250000
1!
1?
00
1A
1G
0@
1Z
1[
1C
1E
0B
1F
0m!
0\!
0;!
1x
0i
0=
0<
0:
18
07
0)
0*
0,
1.
0/
#38500000
0!
0?
10
#38750000
1!
1?
00
0A
0G
1@
0Z
0[
#39000000
0!
0?
10
#39250000
1!
1?
00
1A
1G
0@
1Z
1[
0C
0E
1B
0F
#39500000
0!
0?
10
#39680000
0#
b0 '
0D
0I
00
0G
1i!
1Y!
19!
0r
1f
0]
0Y
0Z
1k!
1[!
1:!
0w
1g
0[
1l!
1h
#39750000
1!
1?
10
0A
1@
#40000000
b101110 "
b1101110 "
0!
1M!
1]!
0?
00
#40250000
1!
1?
10
1A
0@
1C
0B
#40500000
0!
0?
00
#40750000
1!
1?
10
0A
1@
#41000000
0!
0?
00
#41250000
1!
1?
10
1A
0@
0C
1B
#41500000
0!
0?
00
#41750000
1!
1?
10
0A
1@
#42000000
0!
0?
00
#42250000
1!
1?
10
1A
0@
1C
0B
#42500000
0!
0?
00
#42750000
1!
1?
10
0A
1@
#43000000
0!
0?
00
#43250000
1!
1?
10
1A
0@
0C
1B
#43500000
0!
0?
00
#43750000
1!
1?
10
0A
1@
#44000000
0!
0?
00
#44250000
1!
1?
10
1A
0@
1C
0B
#44500000
0!
0?
00
#44750000
1!
1?
10
0A
1@
#45000000
b1101100 "
b1101101 "
b1100101 "
b1000101 "
0!
1Q
0j
0+!
0M!
0?
00
0-!
#45250000
1!
1?
10
1A
0@
0C
1B
#45500000
0!
0?
00
#45750000
1!
1?
10
0A
1@
#46000000
0!
0?
00
#46250000
1!
1?
10
1A
0@
1C
0B
#46500000
0!
0?
00
#46750000
1!
1?
10
0A
1@
#47000000
0!
0?
00
#47250000
1!
1?
10
1A
0@
0C
1B
#47500000
0!
0?
00
#47750000
1!
1?
10
0A
1@
#48000000
0!
0?
00
#48250000
1!
1?
10
1A
0@
1C
0B
#48500000
0!
0?
00
#48750000
1!
1?
10
0A
1@
#49000000
0!
0?
00
#49250000
1!
1?
10
1A
0@
0C
1B
#49500000
0!
0?
00
#49750000
1!
1?
10
0A
1@
#50000000
b1000111 "
b1001111 "
0!
1j
1+!
0?
00
1-!
#50250000
1!
1?
10
1A
0@
1C
0B
#50500000
0!
0?
00
#50750000
1!
1?
10
0A
1@
#51000000
0!
0?
00
#51250000
1!
1?
10
1A
0@
0C
1B
#51500000
0!
0?
00
#51750000
1!
1?
10
0A
1@
#52000000
0!
0?
00
#52250000
1!
1?
10
1A
0@
1C
0B
#52500000
0!
0?
00
#52750000
1!
1?
10
0A
1@
#53000000
0!
0?
00
#53250000
1!
1?
10
1A
0@
0C
1B
#53500000
0!
0?
00
#53750000
1!
1?
10
0A
1@
#54000000
0!
0?
00
#54250000
1!
1?
10
1A
0@
1C
0B
#54500000
0!
0?
00
#54750000
1!
1?
10
0A
1@
#55000000
b1111 "
b1101 "
b101 "
0!
0j
0+!
0]!
0?
00
0-!
#55250000
1!
1?
10
1A
0@
0C
1B
#55500000
0!
0?
00
#55750000
1!
1?
10
0A
1@
#56000000
0!
0?
00
#56250000
1!
1?
10
1A
0@
1C
0B
#56500000
0!
0?
00
#56750000
1!
1?
10
0A
1@
#57000000
0!
0?
00
#57250000
1!
1?
10
1A
0@
0C
1B
#57500000
0!
0?
00
#57750000
1!
1?
10
0A
1@
#58000000
0!
0?
00
#58250000
1!
1?
10
1A
0@
1C
0B
#58500000
0!
0?
00
#58750000
1!
1?
10
0A
1@
#59000000
0!
0?
00
#59250000
1!
1?
10
1A
0@
0C
1B
#59500000
0!
0?
00
#59750000
1!
1?
10
0A
1@
#60000000
b10101 "
b10001 "
b10000 "
b1010000 "
b1011000 "
0!
0Q
0y
1+!
1<!
1]!
0?
00
1-!
#60250000
1!
1?
10
1A
0@
1C
0B
#60500000
0!
0?
00
#60750000
1!
1?
10
0A
1@
#61000000
0!
0?
00
#61250000
1!
1?
10
1A
0@
0C
1B
#61500000
0!
0?
00
#61750000
1!
1?
10
0A
1@
#62000000
0!
0?
00
#62250000
1!
1?
10
1A
0@
1C
0B
#62500000
0!
0?
00
#62750000
1!
1?
10
0A
1@
#63000000
0!
0?
00
#63250000
1!
1?
10
1A
0@
0C
1B
#63500000
0!
0?
00
#63750000
1!
1?
10
0A
1@
#64000000
0!
0?
00
#64250000
1!
1?
10
1A
0@
1C
0B
#64500000
0!
0?
00
#64750000
1!
1?
10
0A
1@
#65000000
b1111000 "
b1101000 "
b1101100 "
b101100 "
b100100 "
0!
1y
0+!
0<!
1M!
0]!
0?
00
0-!
#65250000
1!
1?
10
1A
0@
0C
1B
#65500000
0!
0?
00
#65750000
1!
1?
10
0A
1@
#66000000
0!
0?
00
#66250000
1!
1?
10
1A
0@
1C
0B
#66500000
0!
0?
00
#66750000
1!
1?
10
0A
1@
#67000000
0!
0?
00
#67250000
1!
1?
10
1A
0@
0C
1B
#67500000
0!
0?
00
#67750000
1!
1?
10
0A
1@
#68000000
0!
0?
00
#68250000
1!
1?
10
1A
0@
1C
0B
#68500000
0!
0?
00
#68750000
1!
1?
10
0A
1@
#69000000
0!
0?
00
#69250000
1!
1?
10
1A
0@
0C
1B
#69500000
0!
0?
00
#69750000
1!
1?
10
0A
1@
#70000000
b100101 "
b100001 "
b101001 "
0!
1Q
0y
1+!
0?
00
1-!
#70250000
1!
1?
10
1A
0@
1C
0B
#70500000
0!
0?
00
#70750000
1!
1?
10
0A
1@
#71000000
0!
0?
00
#71250000
1!
1?
10
1A
0@
0C
1B
#71500000
0!
0?
00
#71750000
1!
1?
10
0A
1@
#72000000
0!
0?
00
#72250000
1!
1?
10
1A
0@
1C
0B
#72500000
0!
0?
00
#72750000
1!
1?
10
0A
1@
#73000000
0!
0?
00
#73250000
1!
1?
10
1A
0@
0C
1B
#73500000
0!
0?
00
#73750000
1!
1?
10
0A
1@
#74000000
0!
0?
00
#74250000
1!
1?
10
1A
0@
1C
0B
#74500000
0!
0?
00
#74750000
1!
1?
10
0A
1@
#75000000
b1001 "
b11001 "
b1011001 "
b1011101 "
b1010101 "
0!
1y
0+!
1<!
0M!
1]!
0?
00
0-!
#75250000
1!
1?
10
1A
0@
0C
1B
#75500000
0!
0?
00
#75750000
1!
1?
10
0A
1@
#76000000
0!
0?
00
#76250000
1!
1?
10
1A
0@
1C
0B
#76500000
0!
0?
00
#76750000
1!
1?
10
0A
1@
#77000000
0!
0?
00
#77250000
1!
1?
10
1A
0@
0C
1B
#77500000
0!
0?
00
#77750000
1!
1?
10
0A
1@
#78000000
0!
0?
00
#78250000
1!
1?
10
1A
0@
1C
0B
#78500000
0!
0?
00
#78750000
1!
1?
10
0A
1@
#79000000
0!
0?
00
#79250000
1!
1?
10
1A
0@
0C
1B
#79500000
0!
0?
00
#79750000
1!
1?
10
0A
1@
#80000000
b1010100 "
b1000100 "
b1000000 "
b1001000 "
0!
0Q
0y
1+!
0<!
0?
00
1-!
#80250000
1!
1?
10
1A
0@
1C
0B
#80500000
0!
0?
00
#80750000
1!
1?
10
0A
1@
#81000000
0!
0?
00
#81250000
1!
1?
10
1A
0@
0C
1B
#81500000
0!
0?
00
#81750000
1!
1?
10
0A
1@
#82000000
0!
0?
00
#82250000
1!
1?
10
1A
0@
1C
0B
#82500000
0!
0?
00
#82750000
1!
1?
10
0A
1@
#83000000
0!
0?
00
#83250000
1!
1?
10
1A
0@
0C
1B
#83500000
0!
0?
00
#83750000
1!
1?
10
0A
1@
#84000000
0!
0?
00
#84250000
1!
1?
10
1A
0@
1C
0B
#84500000
0!
0?
00
#84750000
1!
1?
10
0A
1@
