Projeto2/simulation/qsim/Calculator.msim.vcd
$comment
	File created using the following command:
		vcd file Calculator.msim.vcd -direction
$end
$date
	Sat Nov 08 19:27:57 2014
$end
$version
	ModelSim Version 10.1e
$end
$timescale
	1ps
$end
$scope module Calculator_vlg_vec_tst $end
$var reg 1 ! CLK $end
$var reg 7 " data [0:6] $end
$var reg 1 # EN $end
$var reg 1 $ M0 $end
$var reg 1 % M1 $end
$var reg 1 & RES $end
$var reg 2 ' SEL [0:1] $end
$var wire 1 ( H1 [0] $end
$var wire 1 ) H1 [1] $end
$var wire 1 * H1 [2] $end
$var wire 1 + H1 [3] $end
$var wire 1 , H1 [4] $end
$var wire 1 - H1 [5] $end
$var wire 1 . H1 [6] $end
$var wire 1 / H2 [0] $end
$var wire 1 0 H2 [1] $end
$var wire 1 1 H2 [2] $end
$var wire 1 2 H2 [3] $end
$var wire 1 3 H2 [4] $end
$var wire 1 4 H2 [5] $end
$var wire 1 5 H2 [6] $end
$var wire 1 6 H3 [0] $end
$var wire 1 7 H3 [1] $end
$var wire 1 8 H3 [2] $end
$var wire 1 9 H3 [3] $end
$var wire 1 : H3 [4] $end
$var wire 1 ; H3 [5] $end
$var wire 1 < H3 [6] $end
$var wire 1 = sign $end
$var wire 1 > sampler $end
$scope module i1 $end
$var wire 1 ? gnd $end
$var wire 1 @ vcc $end
$var wire 1 A unknown $end
$var tri1 1 B devclrn $end
$var tri1 1 C devpor $end
$var tri1 1 D devoe $end
$var wire 1 E H1[6]~output_o $end
$var wire 1 F H1[5]~output_o $end
$var wire 1 G H1[4]~output_o $end
$var wire 1 H H1[3]~output_o $end
$var wire 1 I H1[2]~output_o $end
$var wire 1 J H1[1]~output_o $end
$var wire 1 K H1[0]~output_o $end
$var wire 1 L H2[6]~output_o $end
$var wire 1 M H2[5]~output_o $end
$var wire 1 N H2[4]~output_o $end
$var wire 1 O H2[3]~output_o $end
$var wire 1 P H2[2]~output_o $end
$var wire 1 Q H2[1]~output_o $end
$var wire 1 R H2[0]~output_o $end
$var wire 1 S H3[6]~output_o $end
$var wire 1 T H3[5]~output_o $end
$var wire 1 U H3[4]~output_o $end
$var wire 1 V H3[3]~output_o $end
$var wire 1 W H3[2]~output_o $end
$var wire 1 X H3[1]~output_o $end
$var wire 1 Y H3[0]~output_o $end
$var wire 1 Z sign~output_o $end
$var wire 1 [ EN~input_o $end
$var wire 1 \ CLK~input_o $end
$var wire 1 ] data_Flux|clockBroke|CLKout_synthesized_var~0_combout $end
$var wire 1 ^ data_Flux|clockBroke|CLKout_synthesized_var~q $end
$var wire 1 _ unit_logic_arithmetic|FFT1|CLKout_synthesized_var~0_combout $end
$var wire 1 ` unit_logic_arithmetic|FFT1|CLKout_synthesized_var~q $end
$var wire 1 a unit_logic_arithmetic|reg1|clkin~combout $end
$var wire 1 b unit_logic_arithmetic|reg1|clkin~clkctrl_outclk $end
$var wire 1 c SEL[1]~input_o $end
$var wire 1 d M1~input_o $end
$var wire 1 e M0~input_o $end
$var wire 1 f data_Flux|reg0|clkin~combout $end
$var wire 1 g data_Flux|reg0|clkin~clkctrl_outclk $end
$var wire 1 h data[0]~input_o $end
$var wire 1 i data_Flux|reg0|ff0|Q~feeder_combout $end
$var wire 1 j RES~input_o $end
$var wire 1 k data_Flux|reg0|ff0|Q~q $end
$var wire 1 l data_Flux|reg1|clkin~combout $end
$var wire 1 m data_Flux|reg1|clkin~clkctrl_outclk $end
$var wire 1 n data_Flux|reg1|ff0|Q~feeder_combout $end
$var wire 1 o data_Flux|reg1|ff0|Q~q $end
$var wire 1 p SEL[0]~input_o $end
$var wire 1 q unit_logic_arithmetic|ufa1|Mux4~0_combout $end
$var wire 1 r unit_logic_arithmetic|ENufa~combout $end
$var wire 1 s unit_logic_arithmetic|ufa1|ENsub~combout $end
$var wire 1 t unit_logic_arithmetic|ufa1|ENsub~clkctrl_outclk $end
$var wire 1 u data[1]~input_o $end
$var wire 1 v data_Flux|reg0|ff1|Q~feeder_combout $end
$var wire 1 w data_Flux|reg0|ff1|Q~q $end
$var wire 1 x data[2]~input_o $end
$var wire 1 y data_Flux|reg0|ff2|Q~q $end
$var wire 1 z data_Flux|reg1|ff2|Q~q $end
$var wire 1 { data[5]~input_o $end
$var wire 1 | data_Flux|reg0|ff5|Q~feeder_combout $end
$var wire 1 } data_Flux|reg0|ff5|Q~q $end
$var wire 1 ~ data[6]~input_o $end
$var wire 1 !! data_Flux|reg1|ff6|Q~q $end
$var wire 1 "! data_Flux|reg0|ff6|Q~q $end
$var wire 1 #! unit_logic_arithmetic|ufa1|subtractor|hs|Te~0_combout $end
$var wire 1 $! unit_logic_arithmetic|ufa1|subtractor|hs|Te~combout $end
$var wire 1 %! data_Flux|reg1|ff5|Q~q $end
$var wire 1 &! unit_logic_arithmetic|ufa1|subtractor|fs0|Te~0_combout $end
$var wire 1 '! unit_logic_arithmetic|ufa1|subtractor|fs0|Te~combout $end
$var wire 1 (! data[4]~input_o $end
$var wire 1 )! data_Flux|reg0|ff4|Q~feeder_combout $end
$var wire 1 *! data_Flux|reg0|ff4|Q~q $end
$var wire 1 +! data_Flux|reg1|ff4|Q~q $end
$var wire 1 ,! unit_logic_arithmetic|ufa1|subtractor|fs1|Te~0_combout $end
$var wire 1 -! unit_logic_arithmetic|ufa1|subtractor|fs1|Te~combout $end
$var wire 1 .! data[3]~input_o $end
$var wire 1 /! data_Flux|reg0|ff3|Q~q $end
$var wire 1 0! data_Flux|reg1|ff3|Q~feeder_combout $end
$var wire 1 1! data_Flux|reg1|ff3|Q~q $end
$var wire 1 2! unit_logic_arithmetic|ufa1|subtractor|fs2|Te~0_combout $end
$var wire 1 3! unit_logic_arithmetic|ufa1|subtractor|fs2|Te~combout $end
$var wire 1 4! unit_logic_arithmetic|ufa1|subtractor|fs3|Te~0_combout $end
$var wire 1 5! unit_logic_arithmetic|ufa1|subtractor|fs3|Te~combout $end
$var wire 1 6! data_Flux|reg1|ff1|Q~feeder_combout $end
$var wire 1 7! data_Flux|reg1|ff1|Q~q $end
$var wire 1 8! unit_logic_arithmetic|ufa1|subtractor|fs4|Te~0_combout $end
$var wire 1 9! unit_logic_arithmetic|ufa1|subtractor|fs4|Te~combout $end
$var wire 1 :! unit_logic_arithmetic|ufa1|subtractor|fs5|S~0_combout $end
$var wire 1 ;! unit_logic_arithmetic|ufa1|subtractor|fs5|S~combout $end
$var wire 1 <! unit_logic_arithmetic|ufa1|Mux8~0_combout $end
$var wire 1 =! unit_logic_arithmetic|ufa1|ENsum~combout $end
$var wire 1 >! unit_logic_arithmetic|ufa1|ENsum~clkctrl_outclk $end
$var wire 1 ?! unit_logic_arithmetic|ufa1|and1|S~3_combout $end
$var wire 1 @! unit_logic_arithmetic|ufa1|adder|ha|Co~combout $end
$var wire 1 A! unit_logic_arithmetic|ufa1|adder|fa0|Co~0_combout $end
$var wire 1 B! unit_logic_arithmetic|ufa1|adder|fa0|Co~combout $end
$var wire 1 C! unit_logic_arithmetic|ufa1|adder|fa1|Co~0_combout $end
$var wire 1 D! unit_logic_arithmetic|ufa1|adder|fa1|Co~combout $end
$var wire 1 E! unit_logic_arithmetic|ufa1|adder|fa2|Co~0_combout $end
$var wire 1 F! unit_logic_arithmetic|ufa1|adder|fa2|Co~combout $end
$var wire 1 G! unit_logic_arithmetic|ufa1|adder|fa3|Co~0_combout $end
$var wire 1 H! unit_logic_arithmetic|ufa1|adder|fa3|Co~combout $end
$var wire 1 I! unit_logic_arithmetic|ufa1|adder|fa4|Co~0_combout $end
$var wire 1 J! unit_logic_arithmetic|ufa1|adder|fa4|Co~combout $end
$var wire 1 K! unit_logic_arithmetic|ufa1|adder|fa5|S~0_combout $end
$var wire 1 L! unit_logic_arithmetic|ufa1|adder|fa5|S~combout $end
$var wire 1 M! unit_logic_arithmetic|ufa1|mux1|m[1]~11_combout $end
$var wire 1 N! unit_logic_arithmetic|ufa1|Mux4~1_combout $end
$var wire 1 O! unit_logic_arithmetic|ufa1|ENand~combout $end
$var wire 1 P! unit_logic_arithmetic|ufa1|ENand~clkctrl_outclk $end
$var wire 1 Q! unit_logic_arithmetic|ufa1|and1|S~5_combout $end
$var wire 1 R! unit_logic_arithmetic|ufa1|Mux4~2_combout $end
$var wire 1 S! unit_logic_arithmetic|ufa1|ENor~combout $end
$var wire 1 T! unit_logic_arithmetic|ufa1|ENor~clkctrl_outclk $end
$var wire 1 U! unit_logic_arithmetic|ufa1|or1|S~5_combout $end
$var wire 1 V! unit_logic_arithmetic|ufa1|mux1|m[1]~12_combout $end
$var wire 1 W! unit_logic_arithmetic|reg1|ff1|Q~q $end
$var wire 1 X! unit_logic_arithmetic|ufa1|and1|S~2_combout $end
$var wire 1 Y! unit_logic_arithmetic|ufa1|adder|fa2|S~0_combout $end
$var wire 1 Z! unit_logic_arithmetic|ufa1|adder|fa2|S~combout $end
$var wire 1 [! unit_logic_arithmetic|ufa1|mux1|m[4]~5_combout $end
$var wire 1 \! unit_logic_arithmetic|ufa1|or1|S~2_combout $end
$var wire 1 ]! unit_logic_arithmetic|ufa1|subtractor|fs2|S~0_combout $end
$var wire 1 ^! unit_logic_arithmetic|ufa1|subtractor|fs2|S~combout $end
$var wire 1 _! unit_logic_arithmetic|ufa1|mux1|m[4]~6_combout $end
$var wire 1 `! unit_logic_arithmetic|reg1|ff4|Q~q $end
$var wire 1 a! unit_logic_arithmetic|ufa1|and1|S~0_combout $end
$var wire 1 b! unit_logic_arithmetic|ufa1|adder|fa0|S~0_combout $end
$var wire 1 c! unit_logic_arithmetic|ufa1|adder|fa0|S~combout $end
$var wire 1 d! unit_logic_arithmetic|ufa1|mux1|m[6]~1_combout $end
$var wire 1 e! unit_logic_arithmetic|ufa1|or1|S~0_combout $end
$var wire 1 f! unit_logic_arithmetic|ufa1|subtractor|fs0|S~0_combout $end
$var wire 1 g! unit_logic_arithmetic|ufa1|subtractor|fs0|S~combout $end
$var wire 1 h! unit_logic_arithmetic|ufa1|mux1|m[6]~2_combout $end
$var wire 1 i! unit_logic_arithmetic|reg1|ff6|Q~q $end
$var wire 1 j! unit_logic_arithmetic|ufa1|or1|S~3_combout $end
$var wire 1 k! unit_logic_arithmetic|ufa1|adder|ha|S~0_combout $end
$var wire 1 l! unit_logic_arithmetic|ufa1|adder|ha|S~combout $end
$var wire 1 m! unit_logic_arithmetic|ufa1|subtractor|hs|S~combout $end
$var wire 1 n! unit_logic_arithmetic|ufa1|mux1|m[7]~7_combout $end
$var wire 1 o! unit_logic_arithmetic|ufa1|mux1|m[7]~8_combout $end
$var wire 1 p! unit_logic_arithmetic|reg1|ff7|Q~q $end
$var wire 1 q! unit_logic_arithmetic|ufa1|and1|S~1_combout $end
$var wire 1 r! unit_logic_arithmetic|ufa1|adder|fa4|S~0_combout $end
$var wire 1 s! unit_logic_arithmetic|ufa1|adder|fa4|S~combout $end
$var wire 1 t! unit_logic_arithmetic|ufa1|mux1|m[2]~3_combout $end
$var wire 1 u! unit_logic_arithmetic|ufa1|subtractor|fs4|S~0_combout $end
$var wire 1 v! unit_logic_arithmetic|ufa1|subtractor|fs4|S~combout $end
$var wire 1 w! unit_logic_arithmetic|ufa1|or1|S~1_combout $end
$var wire 1 x! unit_logic_arithmetic|ufa1|mux1|m[2]~4_combout $end
$var wire 1 y! unit_logic_arithmetic|reg1|ff2|Q~q $end
$var wire 1 z! dec|Mux6~15_combout $end
$var wire 1 {! dec|Mux6~11_combout $end
$var wire 1 |! unit_logic_arithmetic|ufa1|adder|fa5|Co~0_combout $end
$var wire 1 }! unit_logic_arithmetic|ufa1|adder|fa5|Co~combout $end
$var wire 1 ~! unit_logic_arithmetic|ufa1|mux1|m[0]~0_combout $end
$var wire 1 !" unit_logic_arithmetic|reg1|ff0|Q~q $end
$var wire 1 "" dec|Mux6~12_combout $end
$var wire 1 #" unit_logic_arithmetic|ufa1|or1|S~4_combout $end
$var wire 1 $" unit_logic_arithmetic|ufa1|adder|fa1|S~0_combout $end
$var wire 1 %" unit_logic_arithmetic|ufa1|adder|fa1|S~combout $end
$var wire 1 &" unit_logic_arithmetic|ufa1|subtractor|fs1|S~0_combout $end
$var wire 1 '" unit_logic_arithmetic|ufa1|subtractor|fs1|S~combout $end
$var wire 1 (" unit_logic_arithmetic|ufa1|mux1|m[5]~9_combout $end
$var wire 1 )" unit_logic_arithmetic|ufa1|and1|S~4_combout $end
$var wire 1 *" unit_logic_arithmetic|ufa1|mux1|m[5]~10_combout $end
$var wire 1 +" unit_logic_arithmetic|reg1|ff5|Q~q $end
$var wire 1 ," dec|Mux6~13_combout $end
$var wire 1 -" dec|Mux6~14_combout $end
$var wire 1 ." dec|Mux6~16_combout $end
$var wire 1 /" dec|Mux6~0_combout $end
$var wire 1 0" dec|Mux6~2_combout $end
$var wire 1 1" dec|Mux6~1_combout $end
$var wire 1 2" dec|Mux6~3_combout $end
$var wire 1 3" dec|Mux6~4_combout $end
$var wire 1 4" dec|Mux6~5_combout $end
$var wire 1 5" dec|Mux6~8_combout $end
$var wire 1 6" dec|Mux6~6_combout $end
$var wire 1 7" dec|Mux6~7_combout $end
$var wire 1 8" dec|Mux6~9_combout $end
$var wire 1 9" unit_logic_arithmetic|ufa1|and1|S~6_combout $end
$var wire 1 :" unit_logic_arithmetic|ufa1|subtractor|fs3|S~0_combout $end
$var wire 1 ;" unit_logic_arithmetic|ufa1|subtractor|fs3|S~combout $end
$var wire 1 <" unit_logic_arithmetic|ufa1|adder|fa3|S~0_combout $end
$var wire 1 =" unit_logic_arithmetic|ufa1|adder|fa3|S~combout $end
$var wire 1 >" unit_logic_arithmetic|ufa1|mux1|m[3]~13_combout $end
$var wire 1 ?" unit_logic_arithmetic|ufa1|or1|S~6_combout $end
$var wire 1 @" unit_logic_arithmetic|ufa1|mux1|m[3]~14_combout $end
$var wire 1 A" unit_logic_arithmetic|reg1|ff3|Q~q $end
$var wire 1 B" dec|Mux6~10_combout $end
$var wire 1 C" dec|Mux6~17_combout $end
$var wire 1 D" dec|Mux5~20_combout $end
$var wire 1 E" dec|Mux5~17_combout $end
$var wire 1 F" dec|Mux5~16_combout $end
$var wire 1 G" dec|Mux5~26_combout $end
$var wire 1 H" dec|Mux5~27_combout $end
$var wire 1 I" dec|Mux4~2_combout $end
$var wire 1 J" dec|Mux5~18_combout $end
$var wire 1 K" dec|Mux13~0_combout $end
$var wire 1 L" dec|Mux5~25_combout $end
$var wire 1 M" dec|Mux5~19_combout $end
$var wire 1 N" dec|Mux5~21_combout $end
$var wire 1 O" dec|Mux5~14_combout $end
$var wire 1 P" dec|Mux5~10_combout $end
$var wire 1 Q" dec|Mux5~12_combout $end
$var wire 1 R" dec|Mux5~11_combout $end
$var wire 1 S" dec|Mux5~13_combout $end
$var wire 1 T" dec|Mux5~15_combout $end
$var wire 1 U" dec|Mux5~22_combout $end
$var wire 1 V" dec|Mux5~23_combout $end
$var wire 1 W" dec|Mux5~28_combout $end
$var wire 1 X" dec|Mux5~29_combout $end
$var wire 1 Y" dec|Mux5~24_combout $end
$var wire 1 Z" dec|Mux4~3_combout $end
$var wire 1 [" dec|Mux4~4_combout $end
$var wire 1 \" dec|Mux4~5_combout $end
$var wire 1 ]" dec|Mux4~6_combout $end
$var wire 1 ^" dec|Mux4~9_combout $end
$var wire 1 _" dec|Mux4~7_combout $end
$var wire 1 `" dec|Mux4~8_combout $end
$var wire 1 a" dec|Mux3~4_combout $end
$var wire 1 b" dec|Mux3~5_combout $end
$var wire 1 c" dec|Mux3~6_combout $end
$var wire 1 d" dec|Mux3~7_combout $end
$var wire 1 e" dec|Mux3~9_combout $end
$var wire 1 f" dec|Mux3~10_combout $end
$var wire 1 g" dec|Mux3~8_combout $end
$var wire 1 h" dec|Mux2~0_combout $end
$var wire 1 i" dec|Mux1~2_combout $end
$var wire 1 j" dec|Mux1~1_combout $end
$var wire 1 k" dec|Mux1~3_combout $end
$var wire 1 l" dec|Mux1~0_combout $end
$var wire 1 m" dec|Mux1~4_combout $end
$var wire 1 n" dec|Mux1~5_combout $end
$var wire 1 o" dec|Mux1~6_combout $end
$var wire 1 p" dec|Mux0~3_combout $end
$var wire 1 q" dec|Mux0~1_combout $end
$var wire 1 r" dec|Mux0~2_combout $end
$var wire 1 s" dec|Mux0~5_combout $end
$var wire 1 t" dec|Mux0~0_combout $end
$var wire 1 u" dec|Mux0~4_combout $end
$var wire 1 v" dec|Mux0~6_combout $end
$var wire 1 w" dec|Mux13~6_combout $end
$var wire 1 x" dec|Mux13~7_combout $end
$var wire 1 y" dec|Mux13~8_combout $end
$var wire 1 z" dec|Mux13~9_combout $end
$var wire 1 {" dec|Mux13~2_combout $end
$var wire 1 |" dec|Mux13~1_combout $end
$var wire 1 }" dec|Mux13~3_combout $end
$var wire 1 ~" dec|Mux13~4_combout $end
$var wire 1 !# dec|Mux13~5_combout $end
$var wire 1 "# dec|Mux13~10_combout $end
$var wire 1 ## dec|Mux12~1_combout $end
$var wire 1 $# dec|Mux12~0_combout $end
$var wire 1 %# dec|Mux12~2_combout $end
$var wire 1 &# dec|Mux12~4_combout $end
$var wire 1 '# dec|Mux12~3_combout $end
$var wire 1 (# dec|Mux12~5_combout $end
$var wire 1 )# dec|Mux12~6_combout $end
$var wire 1 *# dec|Mux11~2_combout $end
$var wire 1 +# dec|Mux11~1_combout $end
$var wire 1 ,# dec|Mux11~0_combout $end
$var wire 1 -# dec|Mux11~4_combout $end
$var wire 1 .# dec|Mux11~3_combout $end
$var wire 1 /# dec|Mux11~5_combout $end
$var wire 1 0# dec|Mux11~6_combout $end
$var wire 1 1# dec|Mux10~2_combout $end
$var wire 1 2# dec|Mux10~0_combout $end
$var wire 1 3# dec|Mux10~1_combout $end
$var wire 1 4# dec|Mux10~4_combout $end
$var wire 1 5# dec|Mux10~3_combout $end
$var wire 1 6# dec|Mux10~5_combout $end
$var wire 1 7# dec|Mux10~6_combout $end
$var wire 1 8# dec|Mux10~7_combout $end
$var wire 1 9# dec|Mux9~4_combout $end
$var wire 1 :# dec|Mux9~2_combout $end
$var wire 1 ;# dec|Mux9~0_combout $end
$var wire 1 <# dec|Mux9~1_combout $end
$var wire 1 =# dec|Mux9~3_combout $end
$var wire 1 ># dec|Mux9~5_combout $end
$var wire 1 ?# dec|Mux8~2_combout $end
$var wire 1 @# dec|Mux8~1_combout $end
$var wire 1 A# dec|Mux8~4_combout $end
$var wire 1 B# dec|Mux8~0_combout $end
$var wire 1 C# dec|Mux8~3_combout $end
$var wire 1 D# dec|Mux8~5_combout $end
$var wire 1 E# dec|Mux7~2_combout $end
$var wire 1 F# dec|Mux7~0_combout $end
$var wire 1 G# dec|Mux7~1_combout $end
$var wire 1 H# dec|Mux7~3_combout $end
$var wire 1 I# dec|Mux7~5_combout $end
$var wire 1 J# dec|Mux7~4_combout $end
$var wire 1 K# dec|Mux7~6_combout $end
$var wire 1 L# dec|Mux7~7_combout $end
$var wire 1 M# dec|Mux18~0_combout $end
$var wire 1 N# dec|Mux18~1_combout $end
$var wire 1 O# dec|Mux16~0_combout $end
$var wire 1 P# dec|Mux16~1_combout $end
$var wire 1 Q# dec|Mux16~2_combout $end
$var wire 1 R# dec|Mux15~0_combout $end
$var wire 1 S# unit_logic_arithmetic|ufa1|subtractor|fs5|Te~0_combout $end
$var wire 1 T# unit_logic_arithmetic|ufa1|subtractor|fs5|Te~combout $end
$var wire 1 U# sign~reg0_q $end
$var wire 1 V# unit_logic_arithmetic|ufa1|or1|S [7] $end
$var wire 1 W# unit_logic_arithmetic|ufa1|or1|S [6] $end
$var wire 1 X# unit_logic_arithmetic|ufa1|or1|S [5] $end
$var wire 1 Y# unit_logic_arithmetic|ufa1|or1|S [4] $end
$var wire 1 Z# unit_logic_arithmetic|ufa1|or1|S [3] $end
$var wire 1 [# unit_logic_arithmetic|ufa1|or1|S [2] $end
$var wire 1 \# unit_logic_arithmetic|ufa1|or1|S [1] $end
$var wire 1 ]# unit_logic_arithmetic|ufa1|or1|S [0] $end
$var wire 1 ^# unit_logic_arithmetic|ufa1|and1|S [7] $end
$var wire 1 _# unit_logic_arithmetic|ufa1|and1|S [6] $end
$var wire 1 `# unit_logic_arithmetic|ufa1|and1|S [5] $end
$var wire 1 a# unit_logic_arithmetic|ufa1|and1|S [4] $end
$var wire 1 b# unit_logic_arithmetic|ufa1|and1|S [3] $end
$var wire 1 c# unit_logic_arithmetic|ufa1|and1|S [2] $end
$var wire 1 d# unit_logic_arithmetic|ufa1|and1|S [1] $end
$var wire 1 e# unit_logic_arithmetic|ufa1|and1|S [0] $end
$upscope $end
$upscope $end
$enddefinitions $end
#0
$dumpvars
0!
b1001000 "
0#
0$
0%
0&
b0 '
1.
0-
0,
0+
0*
0)
0(
15
04
03
02
01
00
0/
1<
1;
1:
19
18
17
16
0=
x>
0?
1@
xA
1B
1C
1D
1E
0F
0G
0H
0I
0J
0K
1L
0M
0N
0O
0P
0Q
0R
1S
1T
1U
1V
1W
1X
1Y
0Z
0[
0\
1]
0^
1_
0`
0a
0b
0c
0d
0e
0f
0g
1h
1i
0j
0k
0l
0m
1n
0o
0p
0q
0r
0s
0t
0u
0v
0w
0x
0y
0z
0{
0|
0}
0~
0!!
0"!
0#!
x$!
0%!
x&!
x'!
0(!
0)!
0*!
0+!
x,!
x-!
1.!
0/!
10!
01!
x2!
x3!
x4!
x5!
06!
07!
x8!
x9!
x:!
x;!
0<!
0=!
0>!
0?!
x@!
0A!
xB!
0C!
xD!
0E!
xF!
0G!
xH!
0I!
xJ!
xK!
xL!
xM!
0N!
0O!
0P!
0Q!
0R!
0S!
0T!
0U!
xV!
0W!
0X!
xY!
xZ!
x[!
0\!
x]!
x^!
x_!
0`!
0a!
xb!
xc!
xd!
0e!
xf!
xg!
xh!
0i!
0j!
0k!
xl!
xm!
xn!
xo!
0p!
0q!
xr!
xs!
xt!
xu!
xv!
0w!
xx!
0y!
0z!
0{!
0|!
x}!
x~!
0!"
0""
0#"
x$"
x%"
x&"
x'"
x("
0)"
x*"
0+"
0,"
0-"
0."
0/"
00"
01"
12"
03"
14"
05"
06"
07"
08"
09"
x:"
x;"
x<"
x="
x>"
0?"
x@"
0A"
1B"
1C"
0D"
0E"
0F"
0G"
0H"
0I"
0J"
1K"
0L"
0M"
0N"
0O"
0P"
0Q"
0R"
1S"
1T"
0U"
0V"
0W"
0X"
0Y"
0Z"
0["
1\"
0]"
0^"
0_"
0`"
0a"
0b"
0c"
0d"
1e"
1f"
0g"
0h"
0i"
0j"
0k"
0l"
0m"
0n"
0o"
0p"
0q"
0r"
0s"
0t"
0u"
0v"
0w"
0x"
0y"
1z"
1{"
0|"
1}"
0~"
1!#
1"#
0##
0$#
0%#
0&#
0'#
0(#
0)#
0*#
0+#
0,#
0-#
0.#
0/#
00#
01#
02#
03#
04#
05#
06#
07#
08#
09#
1:#
0;#
0<#
0=#
0>#
0?#
0@#
0A#
0B#
0C#
0D#
0E#
0F#
0G#
0H#
0I#
0J#
0K#
0L#
0M#
1N#
0O#
0P#
1Q#
1R#
xS#
xT#
0U#
x]#
x\#
x[#
xZ#
xY#
xX#
xW#
zV#
xe#
xd#
xc#
xb#
xa#
x`#
x_#
z^#
$end
#250000
1!
1\
0>
1^
0]
1`
0_
#500000
0!
0\
1>
#750000
1!
1\
0>
0^
1]
#1000000
0!
0\
1>
#1250000
1!
1\
0>
1^
0]
0`
1_
#1280000
1$
1e
1>
1f
1g
1/!
1k
1\!
xE!
02!
0S#
x|!
1U!
#1500000
0!
0\
0>
0f
0g
#1750000
1!
1\
1>
1f
1g
0^
1]
#2000000
0!
0\
0>
0f
0g
#2250000
1!
1\
1>
1f
1g
1^
0]
1`
0_
#2500000
0!
0\
0>
0f
0g
#2750000
1!
1\
1>
1f
1g
0^
1]
#3000000
0!
0\
0>
0f
0g
#3250000
1!
1\
1>
1f
1g
1^
0]
0`
1_
#3500000
0!
0\
0>
0f
0g
#3750000
1!
1\
1>
1f
1g
0^
1]
#3840000
0$
0e
0>
0f
0g
#4000000
0!
0\
1>
#4250000
1!
1\
0>
1^
0]
1`
0_
#4500000
0!
0\
1>
#4750000
1!
1\
0>
0^
1]
#5000000
b1001010 "
b1001110 "
b1011110 "
b1111110 "
0!
1{
1(!
1x
1u
0\
1>
1|
1)!
16!
1v
#5250000
1!
1\
0>
1^
0]
0`
1_
#5500000
0!
0\
1>
#5750000
1!
1\
0>
0^
1]
#6000000
0!
0\
1>
#6250000
1!
1\
0>
1^
0]
1`
0_
#6400000
1%
1d
1>
1l
1m
17!
11!
1+!
1%!
1z
1o
1w!
xI!
18!
1X!
1E!
x2!
1#"
xC!
1,!
1e!
xA!
1&!
1?"
xG!
14!
xS#
1|!
1Q!
#6500000
0!
0\
0>
0l
0m
#6750000
1!
1\
1>
1l
1m
0^
1]
#7000000
0!
0\
0>
0l
0m
#7250000
1!
1\
1>
1l
1m
1^
0]
0`
1_
#7500000
0!
0\
0>
0l
0m
#7750000
1!
1\
1>
1l
1m
0^
1]
#8000000
0!
0\
0>
0l
0m
#8250000
1!
1\
1>
1l
1m
1^
0]
1`
0_
#8500000
0!
0\
0>
0l
0m
#8750000
1!
1\
1>
1l
1m
0^
1]
#8960000
0%
0d
0>
0l
0m
#9000000
0!
0\
1>
#9250000
1!
1\
0>
1^
0]
0`
1_
#9500000
0!
0\
1>
#9750000
1!
1\
0>
0^
1]
#10000000
b1111111 "
b1110111 "
b1110011 "
b1100011 "
0!
1~
0(!
0.!
0x
0\
1>
0)!
00!
#10240000
b1 '
1c
0>
0~!
0t!
0d!
0[!
1<!
1q
#10250000
1!
1\
1>
1^
0]
1`
0_
#10500000
0!
0\
0>
#10750000
1!
1\
1>
0^
1]
#11000000
0!
0\
0>
#11250000
1!
1\
1>
1^
0]
0`
1_
#11500000
0!
0\
0>
#11520000
1#
1[
1>
1r
1s
1t
0m!
19!
15!
1-!
1'!
0$!
0n!
1S#
1:!
0u!
1]!
12!
0&"
1f!
0o!
1T#
1;!
0v!
1^!
13!
0'"
1g!
1M!
0x!
1_!
0:"
0("
1h!
1V!
0;"
0*"
0>"
0@"
xU#
xZ
x=
#11750000
1!
1\
0>
0^
0r
1]
0s
0t
#12000000
0!
0\
1>
#12250000
1!
1\
0>
1^
1r
0]
1s
1t
1`
1a
0_
1b
1i!
1`!
1W!
1E#
1;#
19#
15#
1~"
1|"
0{"
1w"
1l"
1M#
1A#
1<#
0:#
16#
1*#
1$#
1##
0K"
13#
0}"
0z"
1t"
1i"
1a"
0B"
1`"
0<#
17#
06#
1?#
1x"
1n"
1m"
1/#
1&#
05#
14#
1G
1,
1D#
10#
0"#
1v"
1g"
0C"
0A#
1z"
1Q
1N
0L
1K
1H
0E
10
13
05
1(
1+
0.
18#
1)#
1O
1M
12
14
0D#
1"#
0Q
1L
00
15
#12500000
0!
0\
1>
#12750000
1!
1\
0>
0^
0r
1]
0s
0t
#13000000
0!
0\
1>
#13250000
1!
1\
0>
1^
1r
0]
1s
1t
0`
0a
1_
0b
#13500000
0!
0\
1>
#13750000
1!
1\
0>
0^
0r
1]
0s
0t
#14000000
0!
0\
1>
#14080000
0#
0[
0>
#14250000
1!
1\
1>
1^
0]
1`
0_
#14500000
0!
0\
0>
#14750000
1!
1\
1>
0^
1]
#15000000
b1100001 "
b1100000 "
b1101000 "
b1111000 "
0!
0~
0{
1.!
1x
0\
0>
0|
10!
#15250000
1!
1\
1>
1^
0]
0`
1_
#15360000
b0 '
0c
0>
x>"
x("
x~!
xt!
xn!
0h!
xd!
0_!
x[!
xM!
0<!
0q
x@"
x*"
xx!
xo!
xh!
x_!
xV!
#15500000
0!
0\
1>
#15750000
1!
1\
0>
0^
1]
#16000000
0!
0\
1>
#16250000
1!
1\
0>
1^
0]
1`
0_
#16500000
0!
0\
1>
#16640000
1$
1e
0>
#16750000
1!
1\
1>
1f
1g
1y
1w
0^
1:"
19"
1G!
1u!
1q!
1I!
1]
#17000000
0!
0\
0>
0f
0g
#17250000
1!
1\
1>
1f
1g
1^
0]
0`
1_
#17500000
0!
0\
0>
0f
0g
#17750000
1!
1\
1>
1f
1g
0^
1]
#18000000
0!
0\
0>
0f
0g
#18250000
1!
1\
1>
1f
1g
1^
0]
1`
0_
#18500000
0!
0\
0>
0f
0g
#18750000
1!
1\
1>
1f
1g
0^
1]
#19000000
0!
0\
0>
0f
0g
#19200000
0$
0e
1>
#19250000
1!
1\
0>
1^
0]
0`
1_
#19500000
0!
0\
1>
#19750000
1!
1\
0>
0^
1]
#20000000
b1111001 "
b1101001 "
0!
1~
0x
0\
1>
#20250000
1!
1\
0>
1^
0]
1`
0_
#20500000
0!
0\
1>
#20750000
1!
1\
0>
0^
1]
#21000000
0!
0\
1>
#21250000
1!
1\
0>
1^
0]
0`
1_
#21500000
0!
0\
1>
#21750000
1!
1\
0>
0^
1]
#21760000
1%
1d
1>
1l
1m
0+!
0%!
1!!
0z
1&"
0#"
0C!
0f!
0e!
0A!
0&!
1k!
1j!
1#!
0:"
09"
xG!
04!
#22000000
0!
0\
0>
0l
0m
#22250000
1!
1\
1>
1l
1m
1^
0]
1`
0_
#22500000
0!
0\
0>
0l
0m
#22750000
1!
1\
1>
1l
1m
0^
1]
#23000000
0!
0\
0>
0l
0m
#23250000
1!
1\
1>
1l
1m
1^
0]
0`
1_
#23500000
0!
0\
0>
0l
0m
#23750000
1!
1\
1>
1l
1m
0^
1]
#24000000
0!
0\
0>
0l
0m
#24250000
1!
1\
1>
1l
1m
1^
0]
1`
0_
#24320000
0%
0d
0>
0l
0m
#24500000
0!
0\
1>
#24750000
1!
1\
0>
0^
1]
#25000000
b101001 "
b101101 "
b101100 "
b111100 "
0!
0~
1(!
1x
0h
0\
1>
1)!
0n
0i
