Projeto2/simulation/qsim/Calculator.msim.vcd
$comment
	File created using the following command:
		vcd file Calculator.msim.vcd -direction
$end
$date
	Sun Nov 09 20:26:08 2014
$end
$version
	ModelSim Version 10.1e
$end
$timescale
	1ps
$end
$scope module Calculator_vlg_vec_tst $end
$var reg 1 ! CLK $end
$var reg 7 " data [0:6] $end
$var reg 1 # EN $end
$var reg 1 $ M0 $end
$var reg 1 % M1 $end
$var reg 1 & RES $end
$var reg 2 ' SEL [0:1] $end
$var wire 1 ( H1 [0] $end
$var wire 1 ) H1 [1] $end
$var wire 1 * H1 [2] $end
$var wire 1 + H1 [3] $end
$var wire 1 , H1 [4] $end
$var wire 1 - H1 [5] $end
$var wire 1 . H1 [6] $end
$var wire 1 / H2 [0] $end
$var wire 1 0 H2 [1] $end
$var wire 1 1 H2 [2] $end
$var wire 1 2 H2 [3] $end
$var wire 1 3 H2 [4] $end
$var wire 1 4 H2 [5] $end
$var wire 1 5 H2 [6] $end
$var wire 1 6 H3 [0] $end
$var wire 1 7 H3 [1] $end
$var wire 1 8 H3 [2] $end
$var wire 1 9 H3 [3] $end
$var wire 1 : H3 [4] $end
$var wire 1 ; H3 [5] $end
$var wire 1 < H3 [6] $end
$var wire 1 = sign $end
$var wire 1 > sampler $end
$scope module i1 $end
$var wire 1 ? gnd $end
$var wire 1 @ vcc $end
$var wire 1 A unknown $end
$var tri1 1 B devclrn $end
$var tri1 1 C devpor $end
$var tri1 1 D devoe $end
$var wire 1 E H1[6]~output_o $end
$var wire 1 F H1[5]~output_o $end
$var wire 1 G H1[4]~output_o $end
$var wire 1 H H1[3]~output_o $end
$var wire 1 I H1[2]~output_o $end
$var wire 1 J H1[1]~output_o $end
$var wire 1 K H1[0]~output_o $end
$var wire 1 L H2[6]~output_o $end
$var wire 1 M H2[5]~output_o $end
$var wire 1 N H2[4]~output_o $end
$var wire 1 O H2[3]~output_o $end
$var wire 1 P H2[2]~output_o $end
$var wire 1 Q H2[1]~output_o $end
$var wire 1 R H2[0]~output_o $end
$var wire 1 S H3[6]~output_o $end
$var wire 1 T H3[5]~output_o $end
$var wire 1 U H3[4]~output_o $end
$var wire 1 V H3[3]~output_o $end
$var wire 1 W H3[2]~output_o $end
$var wire 1 X H3[1]~output_o $end
$var wire 1 Y H3[0]~output_o $end
$var wire 1 Z sign~output_o $end
$var wire 1 [ EN~input_o $end
$var wire 1 \ CLK~input_o $end
$var wire 1 ] data_Flux|clockBroke|CLKout_synthesized_var~0_combout $end
$var wire 1 ^ data_Flux|clockBroke|CLKout_synthesized_var~feeder_combout $end
$var wire 1 _ data_Flux|clockBroke|CLKout_synthesized_var~q $end
$var wire 1 ` unit_logic_arithmetic|FFT1|CLKout_synthesized_var~0_combout $end
$var wire 1 a unit_logic_arithmetic|FFT1|CLKout_synthesized_var~q $end
$var wire 1 b unit_logic_arithmetic|reg1|clkin~combout $end
$var wire 1 c unit_logic_arithmetic|reg1|clkin~clkctrl_outclk $end
$var wire 1 d SEL[0]~input_o $end
$var wire 1 e SEL[1]~input_o $end
$var wire 1 f unit_logic_arithmetic|ENufa~combout $end
$var wire 1 g unit_logic_arithmetic|ufa1|Mux4~0_combout $end
$var wire 1 h unit_logic_arithmetic|ufa1|ENsub~combout $end
$var wire 1 i unit_logic_arithmetic|ufa1|ENsub~clkctrl_outclk $end
$var wire 1 j M1~input_o $end
$var wire 1 k M0~input_o $end
$var wire 1 l data_Flux|reg1|clkin~combout $end
$var wire 1 m data_Flux|reg1|clkin~clkctrl_outclk $end
$var wire 1 n data[6]~input_o $end
$var wire 1 o data_Flux|reg1|ff6|Q~feeder_combout $end
$var wire 1 p RES~input_o $end
$var wire 1 q data_Flux|reg1|ff6|Q~q $end
$var wire 1 r data_Flux|reg0|clkin~combout $end
$var wire 1 s data_Flux|reg0|clkin~clkctrl_outclk $end
$var wire 1 t data_Flux|reg0|ff6|Q~feeder_combout $end
$var wire 1 u data_Flux|reg0|ff6|Q~q $end
$var wire 1 v unit_logic_arithmetic|ufa1|subtractor|hs|Te~0_combout $end
$var wire 1 w unit_logic_arithmetic|ufa1|subtractor|hs|Te~combout $end
$var wire 1 x data[5]~input_o $end
$var wire 1 y data_Flux|reg1|ff5|Q~feeder_combout $end
$var wire 1 z data_Flux|reg1|ff5|Q~q $end
$var wire 1 { data_Flux|reg0|ff5|Q~feeder_combout $end
$var wire 1 | data_Flux|reg0|ff5|Q~q $end
$var wire 1 } unit_logic_arithmetic|ufa1|subtractor|fs0|S~0_combout $end
$var wire 1 ~ unit_logic_arithmetic|ufa1|subtractor|fs0|S~combout $end
$var wire 1 !! unit_logic_arithmetic|ufa1|Mux8~0_combout $end
$var wire 1 "! unit_logic_arithmetic|ufa1|ENsum~combout $end
$var wire 1 #! unit_logic_arithmetic|ufa1|ENsum~clkctrl_outclk $end
$var wire 1 $! unit_logic_arithmetic|ufa1|and1|S~0_combout $end
$var wire 1 %! unit_logic_arithmetic|ufa1|adder|ha|Co~combout $end
$var wire 1 &! unit_logic_arithmetic|ufa1|adder|fa0|S~0_combout $end
$var wire 1 '! unit_logic_arithmetic|ufa1|adder|fa0|S~combout $end
$var wire 1 (! unit_logic_arithmetic|ufa1|mux1|m[6]~3_combout $end
$var wire 1 )! unit_logic_arithmetic|ufa1|Mux4~2_combout $end
$var wire 1 *! unit_logic_arithmetic|ufa1|ENor~combout $end
$var wire 1 +! unit_logic_arithmetic|ufa1|ENor~clkctrl_outclk $end
$var wire 1 ,! unit_logic_arithmetic|ufa1|or1|S~1_combout $end
$var wire 1 -! unit_logic_arithmetic|ufa1|Mux4~1_combout $end
$var wire 1 .! unit_logic_arithmetic|ufa1|ENand~combout $end
$var wire 1 /! unit_logic_arithmetic|ufa1|ENand~clkctrl_outclk $end
$var wire 1 0! unit_logic_arithmetic|ufa1|and1|S~1_combout $end
$var wire 1 1! unit_logic_arithmetic|ufa1|mux1|m[6]~4_combout $end
$var wire 1 2! unit_logic_arithmetic|reg1|ff6|Q~q $end
$var wire 1 3! data[2]~input_o $end
$var wire 1 4! data_Flux|reg1|ff2|Q~q $end
$var wire 1 5! unit_logic_arithmetic|ufa1|subtractor|fs0|Te~0_combout $end
$var wire 1 6! unit_logic_arithmetic|ufa1|subtractor|fs0|Te~combout $end
$var wire 1 7! data[4]~input_o $end
$var wire 1 8! data_Flux|reg1|ff4|Q~q $end
$var wire 1 9! data_Flux|reg0|ff4|Q~q $end
$var wire 1 :! unit_logic_arithmetic|ufa1|subtractor|fs1|Te~0_combout $end
$var wire 1 ;! unit_logic_arithmetic|ufa1|subtractor|fs1|Te~combout $end
$var wire 1 <! data[3]~input_o $end
$var wire 1 =! data_Flux|reg0|ff3|Q~q $end
$var wire 1 >! data_Flux|reg1|ff3|Q~q $end
$var wire 1 ?! unit_logic_arithmetic|ufa1|subtractor|fs2|Te~0_combout $end
$var wire 1 @! unit_logic_arithmetic|ufa1|subtractor|fs2|Te~combout $end
$var wire 1 A! data_Flux|reg0|ff2|Q~q $end
$var wire 1 B! unit_logic_arithmetic|ufa1|subtractor|fs3|Te~0_combout $end
$var wire 1 C! unit_logic_arithmetic|ufa1|subtractor|fs3|Te~combout $end
$var wire 1 D! data[1]~input_o $end
$var wire 1 E! data_Flux|reg1|ff1|Q~feeder_combout $end
$var wire 1 F! data_Flux|reg1|ff1|Q~q $end
$var wire 1 G! data_Flux|reg0|ff1|Q~q $end
$var wire 1 H! unit_logic_arithmetic|ufa1|subtractor|fs4|Te~0_combout $end
$var wire 1 I! unit_logic_arithmetic|ufa1|subtractor|fs4|Te~combout $end
$var wire 1 J! data[0]~input_o $end
$var wire 1 K! data_Flux|reg1|ff0|Q~q $end
$var wire 1 L! data_Flux|reg0|ff0|Q~feeder_combout $end
$var wire 1 M! data_Flux|reg0|ff0|Q~q $end
$var wire 1 N! unit_logic_arithmetic|ufa1|subtractor|fs5|Te~0_combout $end
$var wire 1 O! unit_logic_arithmetic|ufa1|subtractor|fs5|Te~combout $end
$var wire 1 P! unit_logic_arithmetic|ufa1|adder|fa0|Co~0_combout $end
$var wire 1 Q! unit_logic_arithmetic|ufa1|adder|fa0|Co~combout $end
$var wire 1 R! unit_logic_arithmetic|ufa1|adder|fa1|Co~0_combout $end
$var wire 1 S! unit_logic_arithmetic|ufa1|adder|fa1|Co~combout $end
$var wire 1 T! unit_logic_arithmetic|ufa1|adder|fa2|Co~0_combout $end
$var wire 1 U! unit_logic_arithmetic|ufa1|adder|fa2|Co~combout $end
$var wire 1 V! unit_logic_arithmetic|ufa1|adder|fa3|Co~0_combout $end
$var wire 1 W! unit_logic_arithmetic|ufa1|adder|fa3|Co~combout $end
$var wire 1 X! unit_logic_arithmetic|ufa1|adder|fa4|Co~0_combout $end
$var wire 1 Y! unit_logic_arithmetic|ufa1|adder|fa4|Co~combout $end
$var wire 1 Z! unit_logic_arithmetic|ufa1|adder|fa5|Co~0_combout $end
$var wire 1 [! unit_logic_arithmetic|ufa1|adder|fa5|Co~combout $end
$var wire 1 \! unit_logic_arithmetic|ufa1|mux1|m[0]~0_combout $end
$var wire 1 ]! unit_logic_arithmetic|reg1|ff0|Q~feeder_combout $end
$var wire 1 ^! unit_logic_arithmetic|reg1|ff0|Q~q $end
$var wire 1 _! sig~0_combout $end
$var wire 1 `! sig~combout $end
$var wire 1 a! unit_logic_arithmetic|ufa1|or1|S~0_combout $end
$var wire 1 b! unit_logic_arithmetic|ufa1|adder|ha|S~0_combout $end
$var wire 1 c! unit_logic_arithmetic|ufa1|adder|ha|S~combout $end
$var wire 1 d! unit_logic_arithmetic|ufa1|subtractor|hs|S~combout $end
$var wire 1 e! unit_logic_arithmetic|ufa1|mux1|m[7]~1_combout $end
$var wire 1 f! unit_logic_arithmetic|ufa1|mux1|m[7]~2_combout $end
$var wire 1 g! unit_logic_arithmetic|reg1|ff7|Q~q $end
$var wire 1 h! saida[6]~3_combout $end
$var wire 1 i! unit_logic_arithmetic|ufa1|and1|S~2_combout $end
$var wire 1 j! unit_logic_arithmetic|ufa1|adder|fa2|S~0_combout $end
$var wire 1 k! unit_logic_arithmetic|ufa1|adder|fa2|S~combout $end
$var wire 1 l! unit_logic_arithmetic|ufa1|subtractor|fs2|S~0_combout $end
$var wire 1 m! unit_logic_arithmetic|ufa1|subtractor|fs2|S~combout $end
$var wire 1 n! unit_logic_arithmetic|ufa1|mux1|m[4]~5_combout $end
$var wire 1 o! unit_logic_arithmetic|ufa1|or1|S~2_combout $end
$var wire 1 p! unit_logic_arithmetic|ufa1|mux1|m[4]~6_combout $end
$var wire 1 q! unit_logic_arithmetic|reg1|ff4|Q~feeder_combout $end
$var wire 1 r! unit_logic_arithmetic|reg1|ff4|Q~q $end
$var wire 1 s! unit_logic_arithmetic|ufa1|or1|S~3_combout $end
$var wire 1 t! unit_logic_arithmetic|ufa1|subtractor|fs1|S~0_combout $end
$var wire 1 u! unit_logic_arithmetic|ufa1|subtractor|fs1|S~combout $end
$var wire 1 v! unit_logic_arithmetic|ufa1|adder|fa1|S~0_combout $end
$var wire 1 w! unit_logic_arithmetic|ufa1|adder|fa1|S~combout $end
$var wire 1 x! unit_logic_arithmetic|ufa1|and1|S~3_combout $end
$var wire 1 y! unit_logic_arithmetic|ufa1|mux1|m[5]~7_combout $end
$var wire 1 z! unit_logic_arithmetic|ufa1|mux1|m[5]~8_combout $end
$var wire 1 {! unit_logic_arithmetic|reg1|ff5|Q~feeder_combout $end
$var wire 1 |! unit_logic_arithmetic|reg1|ff5|Q~q $end
$var wire 1 }! comp|adder|fa2|S~0_combout $end
$var wire 1 ~! saida[4]~5_combout $end
$var wire 1 !" saida[0]~0_combout $end
$var wire 1 "" unit_logic_arithmetic|ufa1|or1|S~4_combout $end
$var wire 1 #" unit_logic_arithmetic|ufa1|and1|S~4_combout $end
$var wire 1 $" unit_logic_arithmetic|ufa1|adder|fa4|S~0_combout $end
$var wire 1 %" unit_logic_arithmetic|ufa1|adder|fa4|S~combout $end
$var wire 1 &" unit_logic_arithmetic|ufa1|subtractor|fs4|S~0_combout $end
$var wire 1 '" unit_logic_arithmetic|ufa1|subtractor|fs4|S~combout $end
$var wire 1 (" unit_logic_arithmetic|ufa1|mux1|m[2]~9_combout $end
$var wire 1 )" unit_logic_arithmetic|ufa1|mux1|m[2]~10_combout $end
$var wire 1 *" unit_logic_arithmetic|reg1|ff2|Q~q $end
$var wire 1 +" unit_logic_arithmetic|ufa1|or1|S~5_combout $end
$var wire 1 ," unit_logic_arithmetic|ufa1|adder|fa3|S~0_combout $end
$var wire 1 -" unit_logic_arithmetic|ufa1|adder|fa3|S~combout $end
$var wire 1 ." unit_logic_arithmetic|ufa1|and1|S~5_combout $end
$var wire 1 /" unit_logic_arithmetic|ufa1|mux1|m[3]~11_combout $end
$var wire 1 0" unit_logic_arithmetic|ufa1|subtractor|fs3|S~0_combout $end
$var wire 1 1" unit_logic_arithmetic|ufa1|subtractor|fs3|S~combout $end
$var wire 1 2" unit_logic_arithmetic|ufa1|mux1|m[3]~12_combout $end
$var wire 1 3" unit_logic_arithmetic|reg1|ff3|Q~q $end
$var wire 1 4" saida[2]~4_combout $end
$var wire 1 5" saida[0]~1_combout $end
$var wire 1 6" unit_logic_arithmetic|ufa1|or1|S~6_combout $end
$var wire 1 7" unit_logic_arithmetic|ufa1|and1|S~6_combout $end
$var wire 1 8" unit_logic_arithmetic|ufa1|adder|fa5|S~0_combout $end
$var wire 1 9" unit_logic_arithmetic|ufa1|adder|fa5|S~combout $end
$var wire 1 :" unit_logic_arithmetic|ufa1|mux1|m[1]~13_combout $end
$var wire 1 ;" unit_logic_arithmetic|ufa1|subtractor|fs5|S~0_combout $end
$var wire 1 <" unit_logic_arithmetic|ufa1|subtractor|fs5|S~combout $end
$var wire 1 =" unit_logic_arithmetic|ufa1|mux1|m[1]~14_combout $end
$var wire 1 >" unit_logic_arithmetic|reg1|ff1|Q~feeder_combout $end
$var wire 1 ?" unit_logic_arithmetic|reg1|ff1|Q~q $end
$var wire 1 @" saida[0]~2_combout $end
$var wire 1 A" dec|Mux6~1_combout $end
$var wire 1 B" dec|Mux6~6_combout $end
$var wire 1 C" saida[5]~6_combout $end
$var wire 1 D" dec|Mux6~7_combout $end
$var wire 1 E" dec|Mux6~4_combout $end
$var wire 1 F" dec|Mux6~8_combout $end
$var wire 1 G" dec|Mux6~9_combout $end
$var wire 1 H" saida[1]~7_combout $end
$var wire 1 I" dec|Mux6~2_combout $end
$var wire 1 J" dec|Mux6~3_combout $end
$var wire 1 K" dec|Mux6~0_combout $end
$var wire 1 L" dec|Mux6~5_combout $end
$var wire 1 M" saida[3]~8_combout $end
$var wire 1 N" dec|Mux6~10_combout $end
$var wire 1 O" dec|Mux6~13_combout $end
$var wire 1 P" dec|Mux6~12_combout $end
$var wire 1 Q" dec|Mux6~14_combout $end
$var wire 1 R" dec|Mux6~11_combout $end
$var wire 1 S" dec|Mux6~15_combout $end
$var wire 1 T" dec|Mux6~16_combout $end
$var wire 1 U" dec|Mux6~17_combout $end
$var wire 1 V" dec|Mux5~12_combout $end
$var wire 1 W" dec|Mux5~6_combout $end
$var wire 1 X" dec|Mux5~7_combout $end
$var wire 1 Y" dec|Mux5~8_combout $end
$var wire 1 Z" dec|Mux5~11_combout $end
$var wire 1 [" dec|Mux5~13_combout $end
$var wire 1 \" dec|Mux13~0_combout $end
$var wire 1 ]" dec|Mux5~9_combout $end
$var wire 1 ^" dec|Mux4~0_combout $end
$var wire 1 _" dec|Mux5~10_combout $end
$var wire 1 `" dec|Mux5~14_combout $end
$var wire 1 a" dec|Mux5~1_combout $end
$var wire 1 b" dec|Mux5~2_combout $end
$var wire 1 c" dec|Mux5~3_combout $end
$var wire 1 d" dec|Mux5~0_combout $end
$var wire 1 e" dec|Mux5~4_combout $end
$var wire 1 f" dec|Mux5~5_combout $end
$var wire 1 g" dec|Mux5~16_combout $end
$var wire 1 h" dec|Mux5~15_combout $end
$var wire 1 i" dec|Mux5~17_combout $end
$var wire 1 j" dec|Mux5~18_combout $end
$var wire 1 k" dec|Mux5~19_combout $end
$var wire 1 l" dec|Mux4~1_combout $end
$var wire 1 m" dec|Mux4~2_combout $end
$var wire 1 n" dec|Mux4~3_combout $end
$var wire 1 o" dec|Mux4~4_combout $end
$var wire 1 p" dec|Mux4~5_combout $end
$var wire 1 q" dec|Mux4~6_combout $end
$var wire 1 r" dec|Mux4~7_combout $end
$var wire 1 s" dec|Mux3~0_combout $end
$var wire 1 t" dec|Mux3~1_combout $end
$var wire 1 u" dec|Mux3~3_combout $end
$var wire 1 v" dec|Mux3~4_combout $end
$var wire 1 w" dec|Mux3~5_combout $end
$var wire 1 x" dec|Mux3~2_combout $end
$var wire 1 y" dec|Mux3~6_combout $end
$var wire 1 z" dec|Mux2~0_combout $end
$var wire 1 {" dec|Mux1~10_combout $end
$var wire 1 |" dec|Mux1~4_combout $end
$var wire 1 }" dec|Mux1~5_combout $end
$var wire 1 ~" dec|Mux1~7_combout $end
$var wire 1 !# dec|Mux1~9_combout $end
$var wire 1 "# dec|Mux1~6_combout $end
$var wire 1 ## dec|Mux1~8_combout $end
$var wire 1 $# dec|Mux0~2_combout $end
$var wire 1 %# dec|Mux0~1_combout $end
$var wire 1 &# dec|Mux0~0_combout $end
$var wire 1 '# dec|Mux0~5_combout $end
$var wire 1 (# dec|Mux0~3_combout $end
$var wire 1 )# dec|Mux0~4_combout $end
$var wire 1 *# dec|Mux0~6_combout $end
$var wire 1 +# dec|Mux0~7_combout $end
$var wire 1 ,# dec|Mux13~6_combout $end
$var wire 1 -# dec|Mux13~7_combout $end
$var wire 1 .# dec|Mux13~8_combout $end
$var wire 1 /# dec|Mux13~9_combout $end
$var wire 1 0# dec|Mux13~10_combout $end
$var wire 1 1# dec|Mux13~1_combout $end
$var wire 1 2# dec|Mux13~2_combout $end
$var wire 1 3# dec|Mux13~3_combout $end
$var wire 1 4# dec|Mux13~4_combout $end
$var wire 1 5# dec|Mux13~5_combout $end
$var wire 1 6# dec|Mux13~11_combout $end
$var wire 1 7# dec|Mux12~0_combout $end
$var wire 1 8# dec|Mux12~5_combout $end
$var wire 1 9# dec|Mux12~2_combout $end
$var wire 1 :# dec|Mux12~4_combout $end
$var wire 1 ;# dec|Mux12~3_combout $end
$var wire 1 <# dec|Mux12~7_combout $end
$var wire 1 =# dec|Mux12~6_combout $end
$var wire 1 ># dec|Mux12~1_combout $end
$var wire 1 ?# dec|Mux12~8_combout $end
$var wire 1 @# dec|Mux11~2_combout $end
$var wire 1 A# dec|Mux11~1_combout $end
$var wire 1 B# dec|Mux11~0_combout $end
$var wire 1 C# dec|Mux11~3_combout $end
$var wire 1 D# dec|Mux11~5_combout $end
$var wire 1 E# dec|Mux11~4_combout $end
$var wire 1 F# dec|Mux11~6_combout $end
$var wire 1 G# dec|Mux10~0_combout $end
$var wire 1 H# dec|Mux10~1_combout $end
$var wire 1 I# dec|Mux7~12_combout $end
$var wire 1 J# dec|Mux10~2_combout $end
$var wire 1 K# dec|Mux10~8_combout $end
$var wire 1 L# dec|Mux10~9_combout $end
$var wire 1 M# dec|Mux10~3_combout $end
$var wire 1 N# dec|Mux10~4_combout $end
$var wire 1 O# dec|Mux10~5_combout $end
$var wire 1 P# dec|Mux10~6_combout $end
$var wire 1 Q# dec|Mux10~7_combout $end
$var wire 1 R# dec|Mux9~0_combout $end
$var wire 1 S# dec|Mux9~1_combout $end
$var wire 1 T# dec|Mux9~4_combout $end
$var wire 1 U# dec|Mux9~2_combout $end
$var wire 1 V# dec|Mux9~3_combout $end
$var wire 1 W# dec|Mux9~5_combout $end
$var wire 1 X# dec|Mux9~6_combout $end
$var wire 1 Y# dec|Mux8~0_combout $end
$var wire 1 Z# dec|Mux8~1_combout $end
$var wire 1 [# dec|Mux8~2_combout $end
$var wire 1 \# dec|Mux8~4_combout $end
$var wire 1 ]# dec|Mux8~3_combout $end
$var wire 1 ^# dec|Mux8~5_combout $end
$var wire 1 _# dec|Mux7~5_combout $end
$var wire 1 `# dec|Mux7~4_combout $end
$var wire 1 a# dec|Mux7~6_combout $end
$var wire 1 b# dec|Mux7~7_combout $end
$var wire 1 c# dec|Mux7~8_combout $end
$var wire 1 d# dec|Mux7~9_combout $end
$var wire 1 e# dec|Mux7~10_combout $end
$var wire 1 f# dec|Mux7~11_combout $end
$var wire 1 g# dec|Mux18~0_combout $end
$var wire 1 h# dec|Mux18~1_combout $end
$var wire 1 i# dec|Mux16~1_combout $end
$var wire 1 j# dec|Mux16~0_combout $end
$var wire 1 k# dec|Mux16~2_combout $end
$var wire 1 l# dec|Mux15~0_combout $end
$var wire 1 m# unit_logic_arithmetic|ufa1|or1|S [7] $end
$var wire 1 n# unit_logic_arithmetic|ufa1|or1|S [6] $end
$var wire 1 o# unit_logic_arithmetic|ufa1|or1|S [5] $end
$var wire 1 p# unit_logic_arithmetic|ufa1|or1|S [4] $end
$var wire 1 q# unit_logic_arithmetic|ufa1|or1|S [3] $end
$var wire 1 r# unit_logic_arithmetic|ufa1|or1|S [2] $end
$var wire 1 s# unit_logic_arithmetic|ufa1|or1|S [1] $end
$var wire 1 t# unit_logic_arithmetic|ufa1|or1|S [0] $end
$var wire 1 u# unit_logic_arithmetic|ufa1|and1|S [7] $end
$var wire 1 v# unit_logic_arithmetic|ufa1|and1|S [6] $end
$var wire 1 w# unit_logic_arithmetic|ufa1|and1|S [5] $end
$var wire 1 x# unit_logic_arithmetic|ufa1|and1|S [4] $end
$var wire 1 y# unit_logic_arithmetic|ufa1|and1|S [3] $end
$var wire 1 z# unit_logic_arithmetic|ufa1|and1|S [2] $end
$var wire 1 {# unit_logic_arithmetic|ufa1|and1|S [1] $end
$var wire 1 |# unit_logic_arithmetic|ufa1|and1|S [0] $end
$upscope $end
$upscope $end
$enddefinitions $end
#0
$dumpvars
0!
b1001000 "
0#
0$
0%
0&
b0 '
x.
0-
0,
0+
0*
0)
0(
15
x4
x3
02
x1
00
0/
1<
1;
1:
19
x8
x7
16
x=
x>
0?
1@
xA
1B
1C
1D
xE
0F
0G
0H
0I
0J
0K
1L
xM
xN
0O
xP
0Q
0R
1S
1T
1U
1V
xW
xX
1Y
xZ
0[
0\
1]
1^
0_
1`
0a
0b
0c
0d
0e
0f
0g
0h
0i
0j
0k
0l
0m
0n
0o
0p
0q
0r
0s
0t
0u
0v
xw
0x
0y
0z
0{
0|
x}
x~
0!!
0"!
0#!
0$!
x%!
x&!
x'!
x(!
0)!
0*!
0+!
0,!
0-!
0.!
0/!
00!
x1!
02!
03!
04!
x5!
x6!
07!
08!
09!
x:!
x;!
1<!
0=!
0>!
x?!
x@!
0A!
xB!
xC!
0D!
0E!
0F!
0G!
xH!
xI!
1J!
0K!
1L!
0M!
xN!
xO!
0P!
xQ!
0R!
xS!
0T!
xU!
0V!
xW!
0X!
xY!
0Z!
x[!
x\!
x]!
0^!
0_!
x`!
0a!
0b!
xc!
xd!
xe!
xf!
0g!
0h!
0i!
xj!
xk!
xl!
xm!
xn!
0o!
xp!
xq!
0r!
0s!
xt!
xu!
xv!
xw!
0x!
xy!
xz!
x{!
0|!
0}!
0~!
1!"
0""
0#"
x$"
x%"
x&"
x'"
x("
x)"
0*"
0+"
x,"
x-"
0."
x/"
x0"
x1"
x2"
03"
04"
15"
06"
07"
x8"
x9"
x:"
x;"
x<"
x="
x>"
0?"
x@"
xA"
0B"
0C"
xD"
0E"
xF"
xG"
0H"
xI"
xJ"
xK"
xL"
0M"
xN"
0O"
0P"
0Q"
0R"
0S"
0T"
xU"
0V"
0W"
xX"
0Y"
0Z"
0["
1\"
x]"
0^"
x_"
0`"
0a"
xb"
xc"
xd"
xe"
xf"
xg"
xh"
xi"
xj"
0k"
0l"
0m"
xn"
xo"
0p"
0q"
0r"
xs"
xt"
xu"
0v"
0w"
0x"
0y"
0z"
0{"
0|"
0}"
0~"
0!#
x"#
0##
0$#
0%#
0&#
x'#
0(#
0)#
x*#
0+#
0,#
0-#
0.#
0/#
10#
01#
12#
13#
04#
15#
16#
07#
08#
09#
0:#
0;#
x<#
0=#
0>#
x?#
0@#
xA#
xB#
xC#
0D#
xE#
xF#
0G#
0H#
0I#
0J#
0K#
0L#
0M#
0N#
0O#
0P#
0Q#
0R#
xS#
xT#
0U#
0V#
0W#
xX#
xY#
0Z#
0[#
0\#
0]#
0^#
0_#
0`#
0a#
xb#
0c#
0d#
0e#
0f#
0g#
1h#
0i#
0j#
xk#
xl#
xt#
xs#
xr#
xq#
xp#
xo#
xn#
zm#
x|#
x{#
xz#
xy#
xx#
xw#
xv#
zu#
$end
#250000
1!
1\
0>
1_
0]
0^
1a
0`
#500000
0!
0\
1>
#750000
1!
1\
0>
0_
1]
1^
#1000000
0!
0\
1>
#1250000
1!
1\
0>
1_
0]
0^
0a
1`
#1280000
1$
1k
1>
1r
1s
1M!
1=!
16"
xZ!
0N!
1o!
xT!
0?!
#1500000
0!
0\
0>
0r
0s
#1750000
1!
1\
1>
1r
1s
0_
1]
1^
#2000000
0!
0\
0>
0r
0s
#2250000
1!
1\
1>
1r
1s
1_
0]
0^
1a
0`
#2500000
0!
0\
0>
0r
0s
#2750000
1!
1\
1>
1r
1s
0_
1]
1^
#3000000
0!
0\
0>
0r
0s
#3250000
1!
1\
1>
1r
1s
1_
0]
0^
0a
1`
#3500000
0!
0\
0>
0r
0s
#3750000
1!
1\
1>
1r
1s
0_
1]
1^
#3840000
0$
0k
0>
0r
0s
#4000000
0!
0\
1>
#4250000
1!
1\
0>
1_
0]
0^
1a
0`
#4500000
0!
0\
1>
#4750000
1!
1\
0>
0_
1]
1^
#5000000
b1001010 "
b1001110 "
b1011110 "
b1111110 "
0!
1x
17!
13!
1D!
0\
1>
1{
1y
1E!
#5250000
1!
1\
0>
1_
0]
0^
0a
1`
#5500000
0!
0\
1>
#5750000
1!
1\
0>
0_
1]
1^
#6000000
0!
0\
1>
#6250000
1!
1\
0>
1_
0]
0^
1a
0`
#6400000
1%
1j
1>
1l
1m
1K!
1F!
1>!
18!
14!
1z
17"
1Z!
xN!
1""
xX!
1H!
1i!
1T!
x?!
1s!
xR!
1:!
1+"
xV!
1B!
xP!
15!
1,!
#6500000
0!
0\
0>
0l
0m
#6750000
1!
1\
1>
1l
1m
0_
1]
1^
#7000000
0!
0\
0>
0l
0m
#7250000
1!
1\
1>
1l
1m
1_
0]
0^
0a
1`
#7500000
0!
0\
0>
0l
0m
#7750000
1!
1\
1>
1l
1m
0_
1]
1^
#8000000
0!
0\
0>
0l
0m
#8250000
1!
1\
1>
1l
1m
1_
0]
0^
1a
0`
#8500000
0!
0\
0>
0l
0m
#8750000
1!
1\
1>
1l
1m
0_
1]
1^
#8960000
0%
0j
0>
0l
0m
#9000000
0!
0\
1>
#9250000
1!
1\
0>
1_
0]
0^
0a
1`
#9500000
0!
0\
1>
#9750000
1!
1\
0>
0_
1]
1^
#10000000
b1111111 "
b1110111 "
b1110011 "
b1100011 "
0!
1n
07!
0<!
03!
0\
1>
1t
1o
#10240000
b1 '
1e
0>
0:"
0/"
0y!
1!!
1g
#10250000
1!
1\
1>
1_
0]
0^
1a
0`
#10500000
0!
0\
0>
#10750000
1!
1\
1>
0_
1]
1^
#11000000
0!
0\
0>
#11250000
1!
1\
1>
1_
0]
0^
0a
1`
#11500000
0!
0\
0>
#11520000
1#
1[
1>
1f
0`!
1h
0@"
0Z
1i
0=
0b#
0Y#
1T#
0S#
0B#
0A#
0<#
0'#
0"#
0u"
0o"
1n"
0h"
0g"
0e"
0d"
0b"
0X"
0K"
0I"
0F"
0A"
0d!
1I!
1C!
1;!
16!
0w
1l#
1k#
0E#
0C#
0*#
1s"
0i"
1c"
0]"
1J"
0D"
0e!
1;"
1N!
0&"
1l!
1?!
0t!
1}
1X
1W
17
18
0X#
0?#
1t"
0j"
1f"
0_"
1L"
0G"
0f!
1<"
1O!
0'"
1m!
1@!
0u!
1~
0P
0M
01
04
0F#
1N"
1="
1\!
0("
1n!
00"
0z!
1(!
0N
03
1>"
1]!
0)"
1p!
01"
0{!
11!
1U"
1q!
02"
1E
1.
#11750000
1!
1\
0>
0_
0f
1]
0h
1^
0i
#12000000
0!
0\
1>
