Projeto2/simulation/qsim/Calculator.msim.vcd
$comment
	File created using the following command:
		vcd file Calculator.msim.vcd -direction
$end
$date
	Fri Oct 31 09:04:12 2014
$end
$version
	ModelSim Version 10.1e
$end
$timescale
	1ps
$end
$scope module dataFlux_vlg_vec_tst $end
$var reg 1 ! CLK $end
$var reg 1 " CLR $end
$var reg 7 # data [0:6] $end
$var reg 1 $ m0 $end
$var reg 1 % m1 $end
$var wire 1 & A [0] $end
$var wire 1 ' A [1] $end
$var wire 1 ( A [2] $end
$var wire 1 ) A [3] $end
$var wire 1 * A [4] $end
$var wire 1 + A [5] $end
$var wire 1 , A [6] $end
$var wire 1 - B [0] $end
$var wire 1 . B [1] $end
$var wire 1 / B [2] $end
$var wire 1 0 B [3] $end
$var wire 1 1 B [4] $end
$var wire 1 2 B [5] $end
$var wire 1 3 B [6] $end
$var wire 1 4 sampler $end
$scope module i1 $end
$var wire 1 5 gnd $end
$var wire 1 6 vcc $end
$var wire 1 7 unknown $end
$var tri1 1 8 devclrn $end
$var tri1 1 9 devpor $end
$var tri1 1 : devoe $end
$var wire 1 ; A[6]~output_o $end
$var wire 1 < A[5]~output_o $end
$var wire 1 = A[4]~output_o $end
$var wire 1 > A[3]~output_o $end
$var wire 1 ? A[2]~output_o $end
$var wire 1 @ A[1]~output_o $end
$var wire 1 A A[0]~output_o $end
$var wire 1 B B[6]~output_o $end
$var wire 1 C B[5]~output_o $end
$var wire 1 D B[4]~output_o $end
$var wire 1 E B[3]~output_o $end
$var wire 1 F B[2]~output_o $end
$var wire 1 G B[1]~output_o $end
$var wire 1 H B[0]~output_o $end
$var wire 1 I m1~input_o $end
$var wire 1 J m0~input_o $end
$var wire 1 K CLK~input_o $end
$var wire 1 L reg0|clkin~combout $end
$var wire 1 M reg0|clkin~clkctrl_outclk $end
$var wire 1 N data[6]~input_o $end
$var wire 1 O CLR~input_o $end
$var wire 1 P CLR~inputclkctrl_outclk $end
$var wire 1 Q reg0|ff6|Q~q $end
$var wire 1 R data[5]~input_o $end
$var wire 1 S reg0|ff5|Q~feeder_combout $end
$var wire 1 T reg0|ff5|Q~q $end
$var wire 1 U data[4]~input_o $end
$var wire 1 V reg0|ff4|Q~feeder_combout $end
$var wire 1 W reg0|ff4|Q~q $end
$var wire 1 X data[3]~input_o $end
$var wire 1 Y reg0|ff3|Q~feeder_combout $end
$var wire 1 Z reg0|ff3|Q~q $end
$var wire 1 [ data[2]~input_o $end
$var wire 1 \ reg0|ff2|Q~feeder_combout $end
$var wire 1 ] reg0|ff2|Q~q $end
$var wire 1 ^ data[1]~input_o $end
$var wire 1 _ reg0|ff1|Q~feeder_combout $end
$var wire 1 ` reg0|ff1|Q~q $end
$var wire 1 a data[0]~input_o $end
$var wire 1 b reg0|ff0|Q~feeder_combout $end
$var wire 1 c reg0|ff0|Q~q $end
$var wire 1 d reg1|clkin~combout $end
$var wire 1 e reg1|clkin~clkctrl_outclk $end
$var wire 1 f reg1|ff6|Q~q $end
$var wire 1 g reg1|ff5|Q~feeder_combout $end
$var wire 1 h reg1|ff5|Q~q $end
$var wire 1 i reg1|ff4|Q~feeder_combout $end
$var wire 1 j reg1|ff4|Q~q $end
$var wire 1 k reg1|ff3|Q~feeder_combout $end
$var wire 1 l reg1|ff3|Q~q $end
$var wire 1 m reg1|ff2|Q~feeder_combout $end
$var wire 1 n reg1|ff2|Q~q $end
$var wire 1 o reg1|ff1|Q~feeder_combout $end
$var wire 1 p reg1|ff1|Q~q $end
$var wire 1 q reg1|ff0|Q~feeder_combout $end
$var wire 1 r reg1|ff0|Q~q $end
$upscope $end
$upscope $end
$enddefinitions $end
#0
$dumpvars
0!
0"
b1110111 #
1$
1%
0,
0+
0*
0)
0(
0'
0&
03
02
01
00
0/
0.
0-
x4
05
16
x7
18
19
1:
0;
0<
0=
0>
0?
0@
0A
0B
0C
0D
0E
0F
0G
0H
1I
1J
0K
0L
0M
1N
0O
0P
0Q
1R
1S
0T
1U
1V
0W
0X
0Y
0Z
1[
1\
0]
1^
1_
0`
1a
1b
0c
0d
0e
0f
1g
0h
1i
0j
0k
0l
1m
0n
1o
0p
1q
0r
$end
#2500000
1!
1K
04
#5000000
b1110101 #
b1110001 #
b110001 #
0!
0R
0U
0a
0K
14
0g
0S
0i
0V
0q
0b
#7500000
1!
1K
04
#10000000
b100001 #
0$
b100011 #
b100111 #
b1100111 #
0!
1R
1U
0[
1a
0J
0K
14
1g
1S
1i
1V
0m
0\
1q
1b
#12500000
1!
1K
04
1d
1e
1r
1p
1j
1h
1f
1H
1G
1D
1C
1B
1-
1.
11
12
13
#14080000
0%
0I
14
0d
0e
#15000000
b1100011 #
b100011 #
0!
0U
0a
0K
04
0i
0V
0q
0b
#17500000
1!
1K
14
#20000000
b100010 #
b10 #
b10010 #
b10000 #
b1010000 #
0!
0N
0R
1[
0^
1a
0K
04
0g
0S
1m
1\
0o
0_
1q
1b
#22500000
1!
1K
14
#25000000
1$
1%
b1010100 #
b1010101 #
b1000101 #
b101 #
0!
1J
1I
1N
1U
0[
0a
0K
04
1i
1V
0m
0\
0q
0b
#25600000
1"
1O
1P
14
0f
0h
0j
0p
0r
0B
0C
0D
0G
0H
03
02
01
0.
0-
#26880000
0"
0O
0P
04
#27500000
1!
1K
14
#28160000
0$
0J
04
1d
1e
1j
1f
1D
1B
11
13
#30000000
b100101 #
b100111 #
0!
1R
1^
0K
14
1g
1S
1o
1_
0d
0e
#32500000
1!
1K
04
1d
1e
1p
1h
1G
1C
1.
12
#33280000
0%
0I
14
0d
0e
#34560000
1"
1O
1P
04
0f
0h
0j
0p
0B
0C
0D
0G
03
02
01
0.
#35000000
b101111 #
b101011 #
b101010 #
b1010 #
0!
0N
0U
1X
0^
0K
14
0i
0V
1k
1Y
0o
0_
#37500000
1!
1K
04
#40000000
1$
b1000 #
1%
b101000 #
0!
1J
0R
1^
1I
0K
14
0g
0S
1o
1_
#42500000
1!
1K
04
#45000000
b111000 #
b1111000 #
0$
0%
b1011000 #
0!
1[
0^
1a
0J
0I
0K
14
1m
1\
0o
0_
1q
1b
#47500000
1!
1K
04
#50000000
b1011100 #
b1111100 #
0!
1U
1^
0K
14
1i
1V
1o
1_
#52480000
0"
0O
0P
04
#52500000
1!
1K
14
#55000000
b1110100 #
b1100100 #
1$
1%
b1100000 #
0!
0U
0X
0[
1J
1I
0K
04
0i
0V
0k
0Y
0m
0\
#57500000
1!
1K
14
#60000000
b1100001 #
b1100011 #
b1000011 #
0$
0%
b1000111 #
0!
1N
1R
1U
0^
0J
0I
0K
04
1g
1S
1i
1V
0o
0_
#62500000
1!
1K
14
#65000000
b1000110 #
b1000010 #
0!
0N
0U
0K
04
0i
0V
#67500000
1!
1K
14
#70000000
b10 #
b10010 #
b10000 #
0!
0R
1[
0a
0K
04
0g
0S
1m
1\
0q
0b
#72500000
1!
1K
14
#75000000
b11000 #
b111000 #
b111001 #
b111101 #
b1111101 #
b1111111 #
0!
1N
1R
1U
1X
1^
1a
0K
04
1g
1S
1i
1V
1k
1Y
1o
1_
1q
1b
#77500000
1!
1K
14
#80000000
b1110111 #
b1110110 #
b1110010 #
b110010 #
b110000 #
0!
0N
0R
0U
0X
0a
0K
04
0g
0S
0i
0V
0k
0Y
0q
0b
#82500000
1!
1K
14
#85000000
b100000 #
b0 #
b1000 #
b1001 #
b1011 #
0!
1N
1R
1X
0[
0^
0K
04
1g
1S
1k
1Y
0m
0\
0o
0_
#87500000
1!
1K
14
#90000000
1$
1%
b1111 #
b101111 #
b101101 #
0!
1J
1I
0R
1U
1^
0K
04
0g
0S
1i
1V
1o
1_
#92500000
1!
1K
14
#95000000
b1101101 #
b1101100 #
b1101000 #
0!
0N
0U
1a
0K
04
0i
0V
1q
1b
#97500000
1!
1K
14
