Quartus2/simulation/qsim/Projeto.msim.vcd
$comment
	File created using the following command:
		vcd file Projeto.msim.vcd -direction
$end
$date
	Thu Sep 25 21:57:28 2014
$end
$version
	ModelSim Version 10.1e
$end
$timescale
	1ps
$end
$scope module teste_vlg_vec_tst $end
$var reg 1 ! CLKUC $end
$var wire 1 " CLKFD $end
$var wire 1 # sampler $end
$scope module i1 $end
$var wire 1 $ gnd $end
$var wire 1 % vcc $end
$var wire 1 & unknown $end
$var tri1 1 ' devclrn $end
$var tri1 1 ( devpor $end
$var tri1 1 ) devoe $end
$var wire 1 * CLKFD~output_o $end
$var wire 1 + CLKUC~input_o $end
$var wire 1 , inst~0_combout $end
$var wire 1 - inst~q $end
$upscope $end
$upscope $end
$enddefinitions $end
#0
$dumpvars
0!
0"
x#
0$
1%
x&
1'
1(
1)
0*
0+
1,
0-
$end
#1250000
1!
1+
0#
1-
0,
1*
1"
#2500000
0!
0+
1#
#3750000
1!
1+
0#
0-
1,
0*
0"
#5000000
0!
0+
1#
#6250000
1!
1+
0#
1-
0,
1*
1"
#7500000
0!
0+
1#
#8750000
1!
1+
0#
0-
1,
0*
0"
#10000000
0!
0+
1#
#11250000
1!
1+
0#
1-
0,
1*
1"
#12500000
0!
0+
1#
#13750000
1!
1+
0#
0-
1,
0*
0"
#15000000
0!
0+
1#
#16250000
1!
1+
0#
1-
0,
1*
1"
#17500000
0!
0+
1#
#18750000
1!
1+
0#
0-
1,
0*
0"
#20000000
0!
0+
1#
#21250000
1!
1+
0#
1-
0,
1*
1"
#22500000
0!
0+
1#
#23750000
1!
1+
0#
0-
1,
0*
0"
#25000000
0!
0+
1#
#26250000
1!
1+
0#
1-
0,
1*
1"
#27500000
0!
0+
1#
#28750000
1!
1+
0#
0-
1,
0*
0"
#30000000
0!
0+
1#
#31250000
1!
1+
0#
1-
0,
1*
1"
#32500000
0!
0+
1#
#33750000
1!
1+
0#
0-
1,
0*
0"
#35000000
0!
0+
1#
#36250000
1!
1+
0#
1-
0,
1*
1"
#37500000
0!
0+
1#
#38750000
1!
1+
0#
0-
1,
0*
0"
#40000000
0!
0+
1#
#41250000
1!
1+
0#
1-
0,
1*
1"
#42500000
0!
0+
1#
#43750000
1!
1+
0#
0-
1,
0*
0"
#45000000
0!
0+
1#
#46250000
1!
1+
0#
1-
0,
1*
1"
#47500000
0!
0+
1#
#48750000
1!
1+
0#
0-
1,
0*
0"
#50000000
0!
0+
1#
#51250000
1!
1+
0#
1-
0,
1*
1"
#52500000
0!
0+
1#
#53750000
1!
1+
0#
0-
1,
0*
0"
#55000000
0!
0+
1#
#56250000
1!
1+
0#
1-
0,
1*
1"
#57500000
0!
0+
1#
#58750000
1!
1+
0#
0-
1,
0*
0"
#60000000
0!
0+
1#
#61250000
1!
1+
0#
1-
0,
1*
1"
#62500000
0!
0+
1#
#63750000
1!
1+
0#
0-
1,
0*
0"
#65000000
0!
0+
1#
#66250000
1!
1+
0#
1-
0,
1*
1"
#67500000
0!
0+
1#
#68750000
1!
1+
0#
0-
1,
0*
0"
#70000000
0!
0+
1#
#71250000
1!
1+
0#
1-
0,
1*
1"
#72500000
0!
0+
1#
#73750000
1!
1+
0#
0-
1,
0*
0"
#75000000
0!
0+
1#
#76250000
1!
1+
0#
1-
0,
1*
1"
#77500000
0!
0+
1#
#78750000
1!
1+
0#
0-
1,
0*
0"
#80000000
0!
0+
1#
#81250000
1!
1+
0#
1-
0,
1*
1"
#82500000
0!
0+
1#
#83750000
1!
1+
0#
0-
1,
0*
0"
#85000000
0!
0+
1#
#86250000
1!
1+
0#
1-
0,
1*
1"
#87500000
0!
0+
1#
#88750000
1!
1+
0#
0-
1,
0*
0"
#90000000
0!
0+
1#
#91250000
1!
1+
0#
1-
0,
1*
1"
#92500000
0!
0+
1#
#93750000
1!
1+
0#
0-
1,
0*
0"
#95000000
0!
0+
1#
#96250000
1!
1+
0#
1-
0,
1*
1"
#97500000
0!
0+
1#
#98750000
1!
1+
0#
0-
1,
0*
0"
