Projeto Microprocessadores/serialToParallelConverter/simulation/qsim/serialToParallel.msim.vcd
$comment
	File created using the following command:
		vcd file serialToParallel.msim.vcd -direction
$end
$date
	Mon May 01 19:27:17 2017
$end
$version
	ModelSim Version 10.5b
$end
$timescale
	1ps
$end

$scope module clockrecovery_vhd_vec_tst $end
$var wire 1 ! clockPLL $end
$var wire 1 " dataIn $end
$var wire 1 # syncClock $end
$var wire 1 $ syncData $end

$scope module i1 $end
$var wire 1 % gnd $end
$var wire 1 & vcc $end
$var wire 1 ' unknown $end
$var wire 1 ( devoe $end
$var wire 1 ) devclrn $end
$var wire 1 * devpor $end
$var wire 1 + ww_devoe $end
$var wire 1 , ww_devclrn $end
$var wire 1 - ww_devpor $end
$var wire 1 . ww_clockPLL $end
$var wire 1 / ww_dataIn $end
$var wire 1 0 ww_syncData $end
$var wire 1 1 ww_syncClock $end
$var wire 1 2 \syncData~output_o\ $end
$var wire 1 3 \syncClock~output_o\ $end
$var wire 1 4 \clockPLL~input_o\ $end
$var wire 1 5 \dataIn~input_o\ $end
$var wire 1 6 \counter[1]~1_combout\ $end
$var wire 1 7 \edge1|temp~q\ $end
$var wire 1 8 \edge1|EDGES~combout\ $end
$var wire 1 9 \counter[0]~0_combout\ $end
$var wire 1 : \syncData~0_combout\ $end
$var wire 1 ; \syncData~1_combout\ $end
$var wire 1 < \syncData~reg0_q\ $end
$var wire 1 = \clockOutCounter[1]~0_combout\ $end
$var wire 1 > \clkOut~0_combout\ $end
$var wire 1 ? \clkOut~q\ $end
$var wire 1 @ counter [0] $end
$var wire 1 A counter [1] $end
$var wire 1 B clockOutCounter [0] $end
$var wire 1 C clockOutCounter [1] $end
$var wire 1 D \ALT_INV_clkOut~q\ $end
$var wire 1 E \edge1|ALT_INV_EDGES~combout\ $end
$upscope $end
$upscope $end
$enddefinitions $end
#0
$dumpvars
0!
0"
1#
0$
0%
1&
x'
1(
1)
1*
1+
1,
1-
0.
0/
00
11
02
13
04
05
16
07
08
09
0:
0;
0<
1=
1>
0?
1D
1E
0@
0A
xB
0C
$end
#15625
1!
1.
14
1A
1C
1?
0D
0=
06
19
03
01
0#
#31250
0!
0.
04
#46875
1!
1.
14
0A
1@
0C
1=
0>
16
1:
#62500
0!
0.
04
#78125
1!
1.
14
1A
1C
0?
1D
0=
06
09
0:
13
11
1#
#93750
0!
0.
04
#109375
1!
1.
14
0A
0@
0C
1=
1>
16
#125000
0!
0.
04
#140625
1!
1.
14
1A
1C
1?
0D
0=
06
19
03
01
0#
#156250
0!
0.
04
#171875
1!
1.
14
0A
1@
0C
1=
0>
16
1:
#187500
0!
0.
04
#203125
1!
1.
14
1A
1C
0?
1D
0=
06
09
0:
13
11
1#
#218750
0!
0.
04
#234375
1!
1.
14
0A
0@
0C
1=
1>
16
#250000
0!
1"
0.
1/
15
04
18
0E
#265625
1!
1.
14
17
1C
1?
0D
0=
08
1E
03
01
0#
#281250
0!
0.
04
#296875
1!
1.
14
1A
0C
1=
0>
06
19
#312500
0!
0.
04
#328125
1!
1.
14
0A
1@
1C
0?
1D
0=
16
1:
1;
13
11
1#
#343750
0!
0.
04
#359375
1!
1.
14
1A
1<
0C
1=
1>
06
09
0:
12
10
1$
#375000
0!
0.
04
#390625
1!
1.
14
0A
0@
1C
1?
0D
0=
16
03
01
0#
#406250
0!
0.
04
#421875
1!
1.
14
1A
0C
1=
0>
06
19
#437500
0!
0.
04
#453125
1!
1.
14
0A
1@
1C
0?
1D
0=
16
1:
13
11
1#
#468750
0!
0.
04
#484375
1!
1.
14
1A
0C
1=
1>
06
09
0:
#500000
0!
0.
04
#515625
1!
1.
14
0A
0@
1C
1?
0D
0=
16
03
01
0#
#531250
0!
0.
04
#546875
1!
1.
14
1A
0C
1=
0>
06
19
#562500
0!
0.
04
#578125
1!
1.
14
0A
1@
1C
0?
1D
0=
16
1:
13
11
1#
#593750
0!
0.
04
#609375
1!
1.
14
1A
0C
1=
1>
06
09
0:
#625000
0!
0.
04
#640625
1!
1.
14
0A
0@
1C
1?
0D
0=
16
03
01
0#
#656250
0!
0.
04
#671875
1!
1.
14
1A
0C
1=
0>
06
19
#687500
0!
0.
04
#703125
1!
1.
14
0A
1@
1C
0?
1D
0=
16
1:
13
11
1#
#718750
0!
0.
04
#734375
1!
1.
14
1A
0C
1=
1>
06
09
0:
#750000
0!
0.
04
#765625
1!
1.
14
0A
0@
1C
1?
0D
0=
16
03
01
0#
#781250
0!
0.
04
#796875
1!
1.
14
1A
0C
1=
0>
06
19
#812500
0!
0.
04
#828125
1!
1.
14
0A
1@
1C
0?
1D
0=
16
1:
13
11
1#
#843750
0!
0.
04
#859375
1!
1.
14
1A
0C
1=
1>
06
09
0:
#875000
0!
0.
04
#890625
1!
1.
14
0A
0@
1C
1?
0D
0=
16
03
01
0#
#906250
0!
0.
04
#921875
1!
1.
14
1A
0C
1=
0>
06
19
#937500
0!
0.
04
#953125
1!
1.
14
0A
1@
1C
0?
1D
0=
16
1:
13
11
1#
#968750
0!
0.
04
#984375
1!
1.
14
1A
0C
1=
1>
06
09
0:
#1000000
0!
0.
04
#1015625
1!
1.
14
0A
0@
1C
1?
0D
0=
16
03
01
0#
#1031250
0!
0.
04
#1046875
1!
1.
14
1A
0C
1=
0>
06
19
#1062500
0!
0.
04
#1078125
1!
1.
14
0A
1@
1C
0?
1D
0=
16
1:
13
11
1#
#1093750
0!
0.
04
#1109375
1!
1.
14
1A
0C
1=
1>
06
09
0:
#1125000
0!
0.
04
#1140625
1!
1.
14
0A
0@
1C
1?
0D
0=
16
03
01
0#
#1156250
0!
0.
04
#1171875
1!
1.
14
1A
0C
1=
0>
06
19
#1187500
0!
0.
04
#1203125
1!
1.
14
0A
1@
1C
0?
1D
0=
16
1:
13
11
1#
#1218750
0!
0.
04
#1234375
1!
1.
14
1A
0C
1=
1>
06
09
0:
#1250000
0!
0.
04
#1265625
1!
1.
14
0A
0@
1C
1?
0D
0=
16
03
01
0#
#1281250
0!
0.
04
#1296875
1!
1.
14
1A
0C
1=
0>
06
19
#1312500
0!
0.
04
#1328125
1!
1.
14
0A
1@
1C
0?
1D
0=
16
1:
13
11
1#
#1343750
0!
0.
04
#1359375
1!
1.
14
1A
0C
1=
1>
06
09
0:
#1375000
0!
0"
0.
0/
05
04
18
0E
0A
0@
16
#1390625
1!
1.
14
07
1C
1?
0D
0=
08
1E
03
01
0#
#1406250
0!
0.
04
#1421875
1!
1.
14
1A
0C
1=
0>
06
19
#1437500
0!
0.
04
#1453125
1!
1.
14
0A
1@
1C
0?
1D
0=
16
1:
0;
13
11
1#
#1468750
0!
0.
04
#1484375
1!
1.
14
1A
0<
0C
1=
1>
06
09
0:
02
00
0$
#1500000
0!
0.
04
#1515625
1!
1.
14
0A
0@
1C
1?
0D
0=
16
03
01
0#
#1531250
0!
0.
04
#1546875
1!
1.
14
1A
0C
1=
0>
06
19
#1562500
0!
0.
04
#1578125
1!
1.
14
0A
1@
1C
0?
1D
0=
16
1:
13
11
1#
#1593750
0!
0.
04
#1609375
1!
1.
14
1A
0C
1=
1>
06
09
0:
#1625000
0!
1"
0.
1/
15
04
18
0E
0A
0@
16
#1640625
1!
1.
14
17
1C
1?
0D
0=
08
1E
03
01
0#
#1656250
0!
0.
04
#1671875
1!
1.
14
1A
0C
1=
0>
06
19
#1687500
0!
0.
04
#1703125
1!
1.
14
0A
1@
1C
0?
1D
0=
16
1:
1;
13
11
1#
#1718750
0!
0.
04
#1734375
1!
1.
14
1A
1<
0C
1=
1>
06
09
0:
12
10
1$
#1750000
0!
0"
0.
0/
05
04
18
0E
0A
0@
16
#1765625
1!
1.
14
07
1C
1?
0D
0=
08
1E
03
01
0#
#1781250
0!
0.
04
#1796875
1!
1.
14
1A
0C
1=
0>
06
19
#1812500
0!
0.
04
#1828125
1!
1.
14
0A
1@
1C
0?
1D
0=
16
1:
0;
13
11
1#
#1843750
0!
0.
04
#1859375
1!
1.
14
1A
0<
0C
1=
1>
06
09
0:
02
00
0$
#1875000
0!
0.
04
#1890625
1!
1.
14
0A
0@
1C
1?
0D
0=
16
03
01
0#
#1906250
0!
0.
04
#1921875
1!
1.
14
1A
0C
1=
0>
06
19
#1937500
0!
0.
04
#1953125
1!
1.
14
0A
1@
1C
0?
1D
0=
16
1:
13
11
1#
#1968750
0!
0.
04
#1984375
1!
1.
14
1A
0C
1=
1>
06
09
0:
#2000000
0!
1"
0.
1/
15
04
18
0E
0A
0@
16
#2015625
1!
1.
14
17
1C
1?
0D
0=
08
1E
03
01
0#
#2031250
0!
0.
04
#2046875
1!
1.
14
1A
0C
1=
0>
06
19
#2062500
0!
0.
04
#2078125
1!
1.
14
0A
1@
1C
0?
1D
0=
16
1:
1;
13
11
1#
#2093750
0!
0.
04
#2109375
1!
1.
14
1A
1<
0C
1=
1>
06
09
0:
12
10
1$
#2125000
0!
0.
04
#2140625
1!
1.
14
0A
0@
1C
1?
0D
0=
16
03
01
0#
#2156250
0!
0.
04
#2171875
1!
1.
14
1A
0C
1=
0>
06
19
#2187500
0!
0.
04
#2203125
1!
1.
14
0A
1@
1C
0?
1D
0=
16
1:
13
11
1#
#2218750
0!
0.
04
#2234375
1!
1.
14
1A
0C
1=
1>
06
09
0:
#2250000
0!
0.
04
#2265625
1!
1.
14
0A
0@
1C
1?
0D
0=
16
03
01
0#
#2281250
0!
0.
04
#2296875
1!
1.
14
1A
0C
1=
0>
06
19
#2312500
0!
0.
04
#2328125
1!
1.
14
0A
1@
1C
0?
1D
0=
16
1:
13
11
1#
#2343750
0!
0.
04
#2359375
1!
1.
14
1A
0C
1=
1>
06
09
0:
#2375000
0!
0.
04
#2390625
1!
1.
14
0A
0@
1C
1?
0D
0=
16
03
01
0#
#2406250
0!
0.
04
#2421875
1!
1.
14
1A
0C
1=
0>
06
19
#2437500
0!
0.
04
#2453125
1!
1.
14
0A
1@
1C
0?
1D
0=
16
1:
13
11
1#
#2468750
0!
0.
04
#2484375
1!
1.
14
1A
0C
1=
1>
06
09
0:
#2500000
0!
0.
04
#2515625
1!
1.
14
0A
0@
1C
1?
0D
0=
16
03
01
0#
#2531250
0!
0.
04
#2546875
1!
1.
14
1A
0C
1=
0>
06
19
#2562500
0!
0.
04
#2578125
1!
1.
14
0A
1@
1C
0?
1D
0=
16
1:
13
11
1#
#2593750
0!
0.
04
#2609375
1!
1.
14
1A
0C
1=
1>
06
09
0:
#2625000
0!
0.
04
#2640625
1!
1.
14
0A
0@
1C
1?
0D
0=
16
03
01
0#
#2656250
0!
0.
04
#2671875
1!
1.
14
1A
0C
1=
0>
06
19
#2687500
0!
0.
04
#2703125
1!
1.
14
0A
1@
1C
0?
1D
0=
16
1:
13
11
1#
#2718750
0!
0.
04
#2734375
1!
1.
14
1A
0C
1=
1>
06
09
0:
#2750000
0!
0.
04
#2765625
1!
1.
14
0A
0@
1C
1?
0D
0=
16
03
01
0#
#2781250
0!
0.
04
#2796875
1!
1.
14
1A
0C
1=
0>
06
19
#2812500
0!
0.
04
#2828125
1!
1.
14
0A
1@
1C
0?
1D
0=
16
1:
13
11
1#
#2843750
0!
0.
04
#2859375
1!
1.
14
1A
0C
1=
1>
06
09
0:
#2875000
0!
0.
04
#2890625
1!
1.
14
0A
0@
1C
1?
0D
0=
16
03
01
0#
#2906250
0!
0.
04
#2921875
1!
1.
14
1A
0C
1=
0>
06
19
#2937500
0!
0.
04
#2953125
1!
1.
14
0A
1@
1C
0?
1D
0=
16
1:
13
11
1#
#2968750
0!
0.
04
#2984375
1!
1.
14
1A
0C
1=
1>
06
09
0:
