Projeto Microprocessadores/serialToParallelConverter/simulation/qsim/serialToParallel.msim.vcd
$comment
	File created using the following command:
		vcd file serialToParallel.msim.vcd -direction
$end
$date
	Sat May 20 11:00:00 2017
$end
$version
	ModelSim Version 10.5b
$end
$timescale
	1ps
$end

$scope module serialtoparallel_vhd_vec_tst $end
$var wire 1 ! clock $end
$var wire 1 " dataParallel [7] $end
$var wire 1 # dataParallel [6] $end
$var wire 1 $ dataParallel [5] $end
$var wire 1 % dataParallel [4] $end
$var wire 1 & dataParallel [3] $end
$var wire 1 ' dataParallel [2] $end
$var wire 1 ( dataParallel [1] $end
$var wire 1 ) dataParallel [0] $end
$var wire 1 * dataSerial $end

$scope module i1 $end
$var wire 1 + gnd $end
$var wire 1 , vcc $end
$var wire 1 - unknown $end
$var wire 1 . devoe $end
$var wire 1 / devclrn $end
$var wire 1 0 devpor $end
$var wire 1 1 ww_devoe $end
$var wire 1 2 ww_devclrn $end
$var wire 1 3 ww_devpor $end
$var wire 1 4 ww_dataSerial $end
$var wire 1 5 ww_dataParallel [7] $end
$var wire 1 6 ww_dataParallel [6] $end
$var wire 1 7 ww_dataParallel [5] $end
$var wire 1 8 ww_dataParallel [4] $end
$var wire 1 9 ww_dataParallel [3] $end
$var wire 1 : ww_dataParallel [2] $end
$var wire 1 ; ww_dataParallel [1] $end
$var wire 1 < ww_dataParallel [0] $end
$var wire 1 = ww_clock $end
$var wire 1 > \inst_fifo|dcfifo_mixed_widths_component|auto_generated|fifo_ram|ram_block9a0_PORTADATAIN_bus\ [0] $end
$var wire 1 ? \inst_fifo|dcfifo_mixed_widths_component|auto_generated|fifo_ram|ram_block9a0_PORTAADDR_bus\ [5] $end
$var wire 1 @ \inst_fifo|dcfifo_mixed_widths_component|auto_generated|fifo_ram|ram_block9a0_PORTAADDR_bus\ [4] $end
$var wire 1 A \inst_fifo|dcfifo_mixed_widths_component|auto_generated|fifo_ram|ram_block9a0_PORTAADDR_bus\ [3] $end
$var wire 1 B \inst_fifo|dcfifo_mixed_widths_component|auto_generated|fifo_ram|ram_block9a0_PORTAADDR_bus\ [2] $end
$var wire 1 C \inst_fifo|dcfifo_mixed_widths_component|auto_generated|fifo_ram|ram_block9a0_PORTAADDR_bus\ [1] $end
$var wire 1 D \inst_fifo|dcfifo_mixed_widths_component|auto_generated|fifo_ram|ram_block9a0_PORTAADDR_bus\ [0] $end
$var wire 1 E \inst_fifo|dcfifo_mixed_widths_component|auto_generated|fifo_ram|ram_block9a0_PORTBADDR_bus\ [2] $end
$var wire 1 F \inst_fifo|dcfifo_mixed_widths_component|auto_generated|fifo_ram|ram_block9a0_PORTBADDR_bus\ [1] $end
$var wire 1 G \inst_fifo|dcfifo_mixed_widths_component|auto_generated|fifo_ram|ram_block9a0_PORTBADDR_bus\ [0] $end
$var wire 1 H \inst_fifo|dcfifo_mixed_widths_component|auto_generated|fifo_ram|ram_block9a0_PORTBDATAOUT_bus\ [7] $end
$var wire 1 I \inst_fifo|dcfifo_mixed_widths_component|auto_generated|fifo_ram|ram_block9a0_PORTBDATAOUT_bus\ [6] $end
$var wire 1 J \inst_fifo|dcfifo_mixed_widths_component|auto_generated|fifo_ram|ram_block9a0_PORTBDATAOUT_bus\ [5] $end
$var wire 1 K \inst_fifo|dcfifo_mixed_widths_component|auto_generated|fifo_ram|ram_block9a0_PORTBDATAOUT_bus\ [4] $end
$var wire 1 L \inst_fifo|dcfifo_mixed_widths_component|auto_generated|fifo_ram|ram_block9a0_PORTBDATAOUT_bus\ [3] $end
$var wire 1 M \inst_fifo|dcfifo_mixed_widths_component|auto_generated|fifo_ram|ram_block9a0_PORTBDATAOUT_bus\ [2] $end
$var wire 1 N \inst_fifo|dcfifo_mixed_widths_component|auto_generated|fifo_ram|ram_block9a0_PORTBDATAOUT_bus\ [1] $end
$var wire 1 O \inst_fifo|dcfifo_mixed_widths_component|auto_generated|fifo_ram|ram_block9a0_PORTBDATAOUT_bus\ [0] $end
$var wire 1 P \inst_Pll|altpll_component|auto_generated|pll1_INCLK_bus\ [1] $end
$var wire 1 Q \inst_Pll|altpll_component|auto_generated|pll1_INCLK_bus\ [0] $end
$var wire 1 R \inst_Pll|altpll_component|auto_generated|pll1_CLK_bus\ [4] $end
$var wire 1 S \inst_Pll|altpll_component|auto_generated|pll1_CLK_bus\ [3] $end
$var wire 1 T \inst_Pll|altpll_component|auto_generated|pll1_CLK_bus\ [2] $end
$var wire 1 U \inst_Pll|altpll_component|auto_generated|pll1_CLK_bus\ [1] $end
$var wire 1 V \inst_Pll|altpll_component|auto_generated|pll1_CLK_bus\ [0] $end
$var wire 1 W \clock~input_o\ $end
$var wire 1 X \inst_Pll|altpll_component|auto_generated|wire_pll1_fbout\ $end
$var wire 1 Y \inst_clockRecovery|clockOutCounter[1]~0_combout\ $end
$var wire 1 Z \inst_clockRecovery|clkOut~0_combout\ $end
$var wire 1 [ \inst_clockRecovery|clkOut~q\ $end
$var wire 1 \ \inst_fifo|dcfifo_mixed_widths_component|auto_generated|cntr_b|counter_comb_bita0~combout\ $end
$var wire 1 ] \inst_fifo|dcfifo_mixed_widths_component|auto_generated|cntr_b|counter_reg_bit0~0_combout\ $end
$var wire 1 ^ \inst_fifo|dcfifo_mixed_widths_component|auto_generated|cntr_b|counter_reg_bit0~q\ $end
$var wire 1 _ \inst_fifo|dcfifo_mixed_widths_component|auto_generated|cntr_b|counter_comb_bita0~COUT\ $end
$var wire 1 ` \inst_fifo|dcfifo_mixed_widths_component|auto_generated|cntr_b|counter_comb_bita1~combout\ $end
$var wire 1 a \inst_fifo|dcfifo_mixed_widths_component|auto_generated|cntr_b|counter_reg_bit1~q\ $end
$var wire 1 b \inst_fifo|dcfifo_mixed_widths_component|auto_generated|cntr_b|counter_comb_bita1~COUT\ $end
$var wire 1 c \inst_fifo|dcfifo_mixed_widths_component|auto_generated|cntr_b|counter_comb_bita2~combout\ $end
$var wire 1 d \inst_fifo|dcfifo_mixed_widths_component|auto_generated|cntr_b|counter_reg_bit2~q\ $end
$var wire 1 e \inst_fifo|dcfifo_mixed_widths_component|auto_generated|cntr_b|counter_comb_bita2~COUT\ $end
$var wire 1 f \inst_fifo|dcfifo_mixed_widths_component|auto_generated|cntr_b|counter_comb_bita2~0_combout\ $end
$var wire 1 g \inst_clockDivider|clkC[2]~2_combout\ $end
$var wire 1 h \inst_clockDivider|clkC[1]~0_combout\ $end
$var wire 1 i \inst_clockDivider|clkC[0]~1_combout\ $end
$var wire 1 j \inst_clockDivider|clk~0_combout\ $end
$var wire 1 k \inst_clockDivider|clk~q\ $end
$var wire 1 l \inst_fifo|dcfifo_mixed_widths_component|auto_generated|rdempty_eq_comp|aneb_result_wire[0]~1_combout\ $end
$var wire 1 m \inst_fifo|dcfifo_mixed_widths_component|auto_generated|rdptr_g1p|_~1_combout\ $end
$var wire 1 n \inst_fifo|dcfifo_mixed_widths_component|auto_generated|rdptr_g1p|counter5a2~0_combout\ $end
$var wire 1 o \inst_fifo|dcfifo_mixed_widths_component|auto_generated|rdptr_g1p|counter5a2~q\ $end
$var wire 1 p \inst_fifo|dcfifo_mixed_widths_component|auto_generated|rdptr_g1p|counter5a3~0_combout\ $end
$var wire 1 q \inst_fifo|dcfifo_mixed_widths_component|auto_generated|rdptr_g1p|counter5a3~q\ $end
$var wire 1 r \inst_fifo|dcfifo_mixed_widths_component|auto_generated|rdempty_eq_comp|aneb_result_wire[0]~0_combout\ $end
$var wire 1 s \inst_fifo|dcfifo_mixed_widths_component|auto_generated|rdptr_g1p|counter5a1~0_combout\ $end
$var wire 1 t \inst_fifo|dcfifo_mixed_widths_component|auto_generated|rdptr_g1p|counter5a1~q\ $end
$var wire 1 u \inst_fifo|dcfifo_mixed_widths_component|auto_generated|rdptr_g1p|_~2_combout\ $end
$var wire 1 v \inst_fifo|dcfifo_mixed_widths_component|auto_generated|rdptr_g1p|parity6~q\ $end
$var wire 1 w \inst_fifo|dcfifo_mixed_widths_component|auto_generated|rdptr_g1p|counter5a0~0_combout\ $end
$var wire 1 x \inst_fifo|dcfifo_mixed_widths_component|auto_generated|rdptr_g1p|counter5a0~q\ $end
$var wire 1 y \inst_fifo|dcfifo_mixed_widths_component|auto_generated|rdptr_g[0]~0_combout\ $end
$var wire 1 z \inst_fifo|dcfifo_mixed_widths_component|auto_generated|wrfull_eq_comp|aneb_result_wire[0]~1_combout\ $end
$var wire 1 { \inst_fifo|dcfifo_mixed_widths_component|auto_generated|wrptr_g1p|_~0_combout\ $end
$var wire 1 | \inst_fifo|dcfifo_mixed_widths_component|auto_generated|wrptr_g1p|counter8a[1]~4_combout\ $end
$var wire 1 } \inst_fifo|dcfifo_mixed_widths_component|auto_generated|wrptr_g1p|counter8a[3]~1_combout\ $end
$var wire 1 ~ \inst_fifo|dcfifo_mixed_widths_component|auto_generated|wrptr_g1p|counter8a[3]~2_combout\ $end
$var wire 1 !! \inst_fifo|dcfifo_mixed_widths_component|auto_generated|wrptr_g1p|_~1_combout\ $end
$var wire 1 "! \inst_fifo|dcfifo_mixed_widths_component|auto_generated|wrptr_g1p|parity7~0_combout\ $end
$var wire 1 #! \inst_fifo|dcfifo_mixed_widths_component|auto_generated|wrptr_g1p|parity7~q\ $end
$var wire 1 $! \inst_fifo|dcfifo_mixed_widths_component|auto_generated|wrptr_g1p|counter8a[0]~3_combout\ $end
$var wire 1 %! \inst_fifo|dcfifo_mixed_widths_component|auto_generated|wrptr_g1p|counter8a[2]~0_combout\ $end
$var wire 1 &! \inst_fifo|dcfifo_mixed_widths_component|auto_generated|wrfull_eq_comp|aneb_result_wire[0]~0_combout\ $end
$var wire 1 '! \dataSerial~input_o\ $end
$var wire 1 (! \inst_clockRecovery|counter[1]~1_combout\ $end
$var wire 1 )! \inst_clockRecovery|edge1|temp~q\ $end
$var wire 1 *! \inst_clockRecovery|edge1|EDGES~combout\ $end
$var wire 1 +! \inst_clockRecovery|counter[0]~0_combout\ $end
$var wire 1 ,! \inst_clockRecovery|syncData~0_combout\ $end
$var wire 1 -! \inst_clockRecovery|syncData~1_combout\ $end
$var wire 1 .! \inst_clockRecovery|syncData~q\ $end
$var wire 1 /! \inst_fifo|dcfifo_mixed_widths_component|auto_generated|wrptr_g[0]~0_combout\ $end
$var wire 1 0! \inst_fifo|dcfifo_mixed_widths_component|auto_generated|rdptr_g1p|counter5a0~_wirecell_combout\ $end
$var wire 1 1! \inst_fifo|dcfifo_mixed_widths_component|auto_generated|rdptr_g1p|_~0_combout\ $end
$var wire 1 2! \inst_fifo|dcfifo_mixed_widths_component|auto_generated|wrfull_eq_comp|aneb_result_wire\ [0] $end
$var wire 1 3! \inst_fifo|dcfifo_mixed_widths_component|auto_generated|fifo_ram|q_b\ [7] $end
$var wire 1 4! \inst_fifo|dcfifo_mixed_widths_component|auto_generated|fifo_ram|q_b\ [6] $end
$var wire 1 5! \inst_fifo|dcfifo_mixed_widths_component|auto_generated|fifo_ram|q_b\ [5] $end
$var wire 1 6! \inst_fifo|dcfifo_mixed_widths_component|auto_generated|fifo_ram|q_b\ [4] $end
$var wire 1 7! \inst_fifo|dcfifo_mixed_widths_component|auto_generated|fifo_ram|q_b\ [3] $end
$var wire 1 8! \inst_fifo|dcfifo_mixed_widths_component|auto_generated|fifo_ram|q_b\ [2] $end
$var wire 1 9! \inst_fifo|dcfifo_mixed_widths_component|auto_generated|fifo_ram|q_b\ [1] $end
$var wire 1 :! \inst_fifo|dcfifo_mixed_widths_component|auto_generated|fifo_ram|q_b\ [0] $end
$var wire 1 ;! \inst_fifo|dcfifo_mixed_widths_component|auto_generated|rdptr_g\ [3] $end
$var wire 1 <! \inst_fifo|dcfifo_mixed_widths_component|auto_generated|rdptr_g\ [2] $end
$var wire 1 =! \inst_fifo|dcfifo_mixed_widths_component|auto_generated|rdptr_g\ [1] $end
$var wire 1 >! \inst_fifo|dcfifo_mixed_widths_component|auto_generated|rdptr_g\ [0] $end
$var wire 1 ?! \inst_Pll|altpll_component|auto_generated|wire_pll1_clk\ [4] $end
$var wire 1 @! \inst_Pll|altpll_component|auto_generated|wire_pll1_clk\ [3] $end
$var wire 1 A! \inst_Pll|altpll_component|auto_generated|wire_pll1_clk\ [2] $end
$var wire 1 B! \inst_Pll|altpll_component|auto_generated|wire_pll1_clk\ [1] $end
$var wire 1 C! \inst_Pll|altpll_component|auto_generated|wire_pll1_clk\ [0] $end
$var wire 1 D! \inst_fifo|dcfifo_mixed_widths_component|auto_generated|wrptr_g\ [6] $end
$var wire 1 E! \inst_fifo|dcfifo_mixed_widths_component|auto_generated|wrptr_g\ [5] $end
$var wire 1 F! \inst_fifo|dcfifo_mixed_widths_component|auto_generated|wrptr_g\ [4] $end
$var wire 1 G! \inst_fifo|dcfifo_mixed_widths_component|auto_generated|wrptr_g\ [3] $end
$var wire 1 H! \inst_fifo|dcfifo_mixed_widths_component|auto_generated|wrptr_g\ [2] $end
$var wire 1 I! \inst_fifo|dcfifo_mixed_widths_component|auto_generated|wrptr_g\ [1] $end
$var wire 1 J! \inst_fifo|dcfifo_mixed_widths_component|auto_generated|wrptr_g\ [0] $end
$var wire 1 K! \inst_fifo|dcfifo_mixed_widths_component|auto_generated|ws_dgrp|dffpipe13|dffe15a\ [3] $end
$var wire 1 L! \inst_fifo|dcfifo_mixed_widths_component|auto_generated|ws_dgrp|dffpipe13|dffe15a\ [2] $end
$var wire 1 M! \inst_fifo|dcfifo_mixed_widths_component|auto_generated|ws_dgrp|dffpipe13|dffe15a\ [1] $end
$var wire 1 N! \inst_fifo|dcfifo_mixed_widths_component|auto_generated|ws_dgrp|dffpipe13|dffe15a\ [0] $end
$var wire 1 O! \inst_fifo|dcfifo_mixed_widths_component|auto_generated|rs_dgwp|dffpipe10|dffe12a\ [3] $end
$var wire 1 P! \inst_fifo|dcfifo_mixed_widths_component|auto_generated|rs_dgwp|dffpipe10|dffe12a\ [2] $end
$var wire 1 Q! \inst_fifo|dcfifo_mixed_widths_component|auto_generated|rs_dgwp|dffpipe10|dffe12a\ [1] $end
$var wire 1 R! \inst_fifo|dcfifo_mixed_widths_component|auto_generated|rs_dgwp|dffpipe10|dffe12a\ [0] $end
$var wire 1 S! \inst_fifo|dcfifo_mixed_widths_component|auto_generated|ram_address_a\ [5] $end
$var wire 1 T! \inst_fifo|dcfifo_mixed_widths_component|auto_generated|ram_address_a\ [4] $end
$var wire 1 U! \inst_fifo|dcfifo_mixed_widths_component|auto_generated|ram_address_a\ [3] $end
$var wire 1 V! \inst_fifo|dcfifo_mixed_widths_component|auto_generated|ram_address_a\ [2] $end
$var wire 1 W! \inst_fifo|dcfifo_mixed_widths_component|auto_generated|ram_address_a\ [1] $end
$var wire 1 X! \inst_fifo|dcfifo_mixed_widths_component|auto_generated|ram_address_a\ [0] $end
$var wire 1 Y! \inst_fifo|dcfifo_mixed_widths_component|auto_generated|rdempty_eq_comp|aneb_result_wire\ [0] $end
$var wire 1 Z! \inst_fifo|dcfifo_mixed_widths_component|auto_generated|wrptr_g1p|counter8a\ [3] $end
$var wire 1 [! \inst_fifo|dcfifo_mixed_widths_component|auto_generated|wrptr_g1p|counter8a\ [2] $end
$var wire 1 \! \inst_fifo|dcfifo_mixed_widths_component|auto_generated|wrptr_g1p|counter8a\ [1] $end
$var wire 1 ]! \inst_fifo|dcfifo_mixed_widths_component|auto_generated|wrptr_g1p|counter8a\ [0] $end
$var wire 1 ^! \inst_fifo|dcfifo_mixed_widths_component|auto_generated|ws_dgrp|dffpipe13|dffe14a\ [3] $end
$var wire 1 _! \inst_fifo|dcfifo_mixed_widths_component|auto_generated|ws_dgrp|dffpipe13|dffe14a\ [2] $end
$var wire 1 `! \inst_fifo|dcfifo_mixed_widths_component|auto_generated|ws_dgrp|dffpipe13|dffe14a\ [1] $end
$var wire 1 a! \inst_fifo|dcfifo_mixed_widths_component|auto_generated|ws_dgrp|dffpipe13|dffe14a\ [0] $end
$var wire 1 b! \inst_clockDivider|clkC\ [0] $end
$var wire 1 c! \inst_clockDivider|clkC\ [1] $end
$var wire 1 d! \inst_clockDivider|clkC\ [2] $end
$var wire 1 e! \inst_fifo|dcfifo_mixed_widths_component|auto_generated|rs_dgwp|dffpipe10|dffe11a\ [3] $end
$var wire 1 f! \inst_fifo|dcfifo_mixed_widths_component|auto_generated|rs_dgwp|dffpipe10|dffe11a\ [2] $end
$var wire 1 g! \inst_fifo|dcfifo_mixed_widths_component|auto_generated|rs_dgwp|dffpipe10|dffe11a\ [1] $end
$var wire 1 h! \inst_fifo|dcfifo_mixed_widths_component|auto_generated|rs_dgwp|dffpipe10|dffe11a\ [0] $end
$var wire 1 i! \inst_clockRecovery|clockOutCounter\ [0] $end
$var wire 1 j! \inst_clockRecovery|clockOutCounter\ [1] $end
$var wire 1 k! \inst_clockRecovery|counter\ [0] $end
$var wire 1 l! \inst_clockRecovery|counter\ [1] $end
$var wire 1 m! \inst_fifo|dcfifo_mixed_widths_component|auto_generated|delayed_wrptr_g\ [3] $end
$var wire 1 n! \inst_fifo|dcfifo_mixed_widths_component|auto_generated|delayed_wrptr_g\ [2] $end
$var wire 1 o! \inst_fifo|dcfifo_mixed_widths_component|auto_generated|delayed_wrptr_g\ [1] $end
$var wire 1 p! \inst_fifo|dcfifo_mixed_widths_component|auto_generated|delayed_wrptr_g\ [0] $end
$var wire 1 q! \inst_clockRecovery|edge1|ALT_INV_EDGES~combout\ $end
$var wire 1 r! \inst_clockRecovery|ALT_INV_clkOut~q\ $end
$var wire 1 s! \inst_fifo|dcfifo_mixed_widths_component|auto_generated|rdempty_eq_comp|ALT_INV_aneb_result_wire\ [0] $end
$upscope $end
$upscope $end
$enddefinitions $end
#0
$dumpvars
0!
0*
0+
1,
x-
1.
1/
10
11
12
13
04
0=
0W
xX
1Y
1Z
0[
0\
1]
0^
1_
1`
0a
1b
0c
0d
0e
0f
1g
0h
0i
1j
0k
0l
0m
0n
0o
0p
0q
0r
0s
0t
1u
0v
0w
0x
1y
0z
0{
0|
1}
0~
0!!
0"!
0#!
0$!
0%!
1&!
0'!
1(!
0)!
0*!
0+!
0,!
0-!
0.!
1/!
10!
01!
1q!
1r!
05
06
07
08
09
0:
0;
0<
0>
0H
0I
0J
0K
0L
0M
0N
0O
xR
xS
xT
xU
xV
12!
03!
04!
05!
06!
07!
08!
09!
0:!
0;!
0<!
0=!
0>!
x?!
x@!
xA!
xB!
xC!
0D!
0E!
0F!
0G!
0H!
0I!
0J!
0K!
0L!
0M!
0N!
0O!
0P!
0Q!
0R!
0S!
xT!
xU!
xV!
xW!
xX!
0Y!
0Z!
0[!
0\!
0]!
0^!
0_!
0`!
0a!
0b!
0c!
0d!
0e!
0f!
0g!
0h!
xi!
0j!
0k!
0l!
0m!
0n!
0o!
0p!
1s!
0P
0Q
0"
0#
0$
0%
0&
0'
0(
0)
0?
0@
0A
0B
0C
0D
0E
0F
1G
$end
#1563
1X
#10000
1!
1=
1W
1Q
#20000
0!
0=
0W
0Q
#30000
1!
1=
1W
1Q
#40000
0!
0=
0W
0Q
#50000
1!
1=
1W
1Q
#51563
0X
#60000
0!
0=
0W
0Q
#70000
1!
1=
1W
1Q
#80000
0!
0=
0W
0Q
#90000
1!
1=
1W
1Q
#100000
0!
0=
0W
0Q
#101563
1X
#110000
1!
1=
1W
1Q
#120000
0!
0=
0W
0Q
#125000
1*
14
1'!
1*!
0q!
#130000
1!
1=
1W
1Q
#140000
0!
0=
0W
0Q
#150000
1!
1=
1W
1Q
#151563
0X
#160000
0!
0=
0W
0Q
#170000
1!
1=
1W
1Q
#180000
0!
0=
0W
0Q
#190000
1!
1=
1W
1Q
#200000
0!
0=
0W
0Q
#201563
1X
#210000
1!
1=
1W
1Q
#220000
0!
0=
0W
0Q
#230000
1!
1=
1W
1Q
#240000
0!
0=
0W
0Q
#250000
1!
1=
1W
1Q
#251563
0X
#260000
0!
0=
0W
0Q
#270000
1!
1=
1W
1Q
#280000
0!
0=
0W
0Q
#290000
1!
1=
1W
1Q
#300000
0!
0=
0W
0Q
#301563
1X
#310000
1!
1=
1W
1Q
#320000
0!
0=
0W
0Q
#330000
1!
1=
1W
1Q
#340000
0!
0=
0W
0Q
#350000
1!
1=
1W
1Q
#355781
0X
#360000
0!
0=
0W
0Q
#370000
1!
1=
1W
1Q
#380000
0!
0=
0W
0Q
#390000
1!
1=
1W
1Q
#400000
0!
0=
0W
0Q
#410000
1!
1=
1X
0R
0S
0T
0U
0V
1W
0?!
0@!
0A!
0B!
0C!
1Q
#416250
1R
1S
1T
1U
1V
1?!
1@!
1A!
1B!
1C!
1j!
1[
1)!
0r!
0*!
0Y
1q!
#420000
0!
0=
0W
0Q
#430000
1!
1=
1W
1Q
#431875
0R
0S
0T
0U
0V
0?!
0@!
0A!
0B!
0C!
#440000
0!
0=
0W
0Q
#447500
1R
1S
1T
1U
1V
1?!
1@!
1A!
1B!
1C!
0j!
1l!
0(!
1+!
1Y
0Z
#450000
1!
1=
1W
1Q
#460000
0!
0=
0X
0W
0Q
#463125
0R
0S
0T
0U
0V
0?!
0@!
0A!
0B!
0C!
#470000
1!
1=
1W
1Q
#478750
1R
1S
1T
1U
1V
1?!
1@!
1A!
1B!
1C!
1j!
0[
0l!
1k!
1r!
1(!
1,!
0Y
1^
1a
1d!
1k
1J!
1-!
1D
0g
1h
0`
0b
1\
0_
0/!
1`
1b
0]
1c
0c
#480000
0!
0=
0W
0Q
#490000
1!
1=
1W
1Q
#494375
0R
0S
0T
0U
0V
0?!
0@!
0A!
0B!
0C!
#500000
0!
0=
0W
0Q
#510000
1!
1=
1X
1R
1S
1T
1U
1V
1W
1?!
1@!
1A!
1B!
1C!
1Q
0j!
1l!
1.!
1>
0(!
0+!
0,!
1Y
1Z
#520000
0!
0=
0W
0Q
#525625
0R
0S
0T
0U
0V
0?!
0@!
0A!
0B!
0C!
#530000
1!
1=
1W
1Q
#540000
0!
0=
0W
0Q
#541250
1R
1S
1T
1U
1V
1?!
1@!
1A!
1B!
1C!
1j!
1[
0l!
0k!
0r!
1(!
0Y
#550000
1!
1=
1W
1Q
#556875
0R
0S
0T
0U
0V
0?!
0@!
0A!
0B!
0C!
#560000
0!
0=
0X
0W
0Q
#570000
1!
1=
1W
1Q
#572500
1R
1S
1T
1U
1V
1?!
1@!
1A!
1B!
1C!
0j!
1l!
0(!
1+!
1Y
0Z
#580000
0!
0=
0W
0Q
#588125
0R
0S
0T
0U
0V
0?!
0@!
0A!
0B!
0C!
#590000
1!
1=
1W
1Q
#600000
0!
0=
0W
0Q
#603750
1R
1S
1T
1U
1V
1?!
1@!
1A!
1B!
1C!
1j!
0[
0l!
1k!
1r!
1(!
1,!
0Y
0^
0d!
1c!
0J!
1I!
0D
1C
1g
0\
1_
1/!
0`
0b
1]
1c
#610000
1!
1=
1X
1W
1Q
#619375
0R
0S
0T
0U
0V
0?!
0@!
0A!
0B!
0C!
#620000
0!
0=
0W
0Q
#630000
1!
1=
1W
1Q
#635000
1R
1S
1T
1U
1V
1?!
1@!
1A!
1B!
1C!
0j!
1l!
0(!
0+!
0,!
1Y
1Z
#640000
0!
0=
0W
0Q
#650000
1!
1=
1W
1Q
#650625
0R
0S
0T
0U
0V
0?!
0@!
0A!
0B!
0C!
#660000
0!
0=
0X
0W
0Q
#666250
1R
1S
1T
1U
1V
1?!
1@!
1A!
1B!
1C!
1j!
1[
0l!
0k!
0r!
1(!
0Y
#670000
1!
1=
1W
1Q
#680000
0!
0=
0W
0Q
#681875
0R
0S
0T
0U
0V
0?!
0@!
0A!
0B!
0C!
#690000
1!
1=
1W
1Q
#697500
1R
1S
1T
1U
1V
1?!
1@!
1A!
1B!
1C!
0j!
1l!
0(!
1+!
1Y
0Z
#700000
0!
0=
0W
0Q
#710000
1!
1=
1X
1W
1Q
#713125
0R
0S
0T
0U
0V
0?!
0@!
0A!
0B!
0C!
#720000
0!
0=
0W
0Q
#728750
1R
1S
1T
1U
1V
1?!
1@!
1A!
1B!
1C!
1j!
0[
0l!
1k!
1r!
1(!
1,!
0Y
1^
0a
1d
1d!
1J!
1D
0g
0h
1i
0c
1e
1`
1b
1\
0_
0/!
0`
0]
1c
0e
1f
1"!
1$!
0f
0"!
0$!
#730000
1!
1=
1W
1Q
#740000
0!
0=
0W
0Q
#744375
0R
0S
0T
0U
0V
0?!
0@!
0A!
0B!
0C!
#750000
1!
1=
1W
1Q
#760000
0!
0=
0X
1R
1S
1T
1U
1V
0W
1?!
1@!
1A!
1B!
1C!
0Q
0j!
1l!
0(!
0+!
0,!
1Y
1Z
#770000
1!
1=
1W
1Q
#775625
0R
0S
0T
0U
0V
0?!
0@!
0A!
0B!
0C!
#780000
0!
0=
0W
0Q
#790000
1!
1=
1W
1Q
#791250
1R
1S
1T
1U
1V
1?!
1@!
1A!
1B!
1C!
1j!
1[
0l!
0k!
0r!
1(!
0Y
#800000
0!
0=
0W
0Q
#806875
0R
0S
0T
0U
0V
0?!
0@!
0A!
0B!
0C!
#810000
1!
1=
1X
1W
1Q
#820000
0!
0=
0W
0Q
#822500
1R
1S
1T
1U
1V
1?!
1@!
1A!
1B!
1C!
0j!
1l!
0(!
1+!
1Y
0Z
#830000
1!
1=
1W
1Q
#838125
0R
0S
0T
0U
0V
0?!
0@!
0A!
0B!
0C!
#840000
0!
0=
0W
0Q
#850000
1!
1=
1W
1Q
#853750
1R
1S
1T
1U
1V
1?!
1@!
1A!
1B!
1C!
1j!
0[
0l!
1k!
1r!
1(!
1,!
0Y
0^
0d!
0c!
1b!
0J!
0I!
1H!
0D
0C
1B
1g
0\
1_
1/!
1`
1]
#860000
0!
0=
0X
0W
0Q
#869375
0R
0S
0T
0U
0V
0?!
0@!
0A!
0B!
0C!
#870000
1!
1=
1W
1Q
#875000
0*
04
0'!
1*!
0,!
0-!
0q!
1-!
0k!
0+!
#880000
0!
0=
0W
0Q
#885000
1R
1S
1T
1U
1V
1?!
1@!
1A!
1B!
1C!
0j!
0)!
0*!
1Y
1Z
1q!
#890000
1!
1=
1W
1Q
#900000
0!
0=
0W
0Q
#900625
0R
0S
0T
0U
0V
0?!
0@!
0A!
0B!
0C!
#910000
1!
1=
1X
1W
1Q
#916250
1R
1S
1T
1U
1V
1?!
1@!
1A!
1B!
1C!
1j!
1[
1l!
0r!
0(!
1+!
0Y
#920000
0!
0=
0W
0Q
#930000
1!
1=
1W
1Q
#931875
0R
0S
0T
0U
0V
0?!
0@!
0A!
0B!
0C!
#940000
0!
0=
0W
0Q
#947500
1R
1S
1T
1U
1V
1?!
1@!
1A!
1B!
1C!
0j!
0l!
1k!
1(!
1,!
1Y
0Z
0-!
#950000
1!
1=
1W
1Q
#960000
0!
0=
0X
0W
0Q
#963125
0R
0S
0T
0U
0V
0?!
0@!
0A!
0B!
0C!
#970000
1!
1=
1W
1Q
#978750
1R
1S
1T
1U
1V
1?!
1@!
1A!
1B!
1C!
1j!
0[
1l!
0.!
1r!
0>
0(!
0+!
0,!
0Y
1^
1a
1d!
1J!
1D
0g
1h
0`
0b
1\
0_
0/!
1`
1b
0]
0c
1e
1f
1c
0e
0f
1"!
1$!
0"!
0$!
#980000
0!
0=
0W
0Q
#990000
1!
1=
1W
1Q
#994375
0R
0S
0T
0U
0V
0?!
0@!
0A!
0B!
0C!
#1000000
0!
0=
0W
0Q
#1010000
1!
1=
1X
1R
1S
1T
1U
1V
1W
1?!
1@!
1A!
1B!
1C!
1Q
0j!
0l!
0k!
1(!
1Y
1Z
#1020000
0!
0=
0W
0Q
#1025625
0R
0S
0T
0U
0V
0?!
0@!
0A!
0B!
0C!
#1030000
1!
1=
1W
1Q
#1040000
0!
0=
0W
0Q
#1041250
1R
1S
1T
1U
1V
1?!
1@!
1A!
1B!
1C!
1j!
1[
1l!
0r!
0(!
1+!
0Y
#1050000
1!
1=
1W
1Q
#1056875
0R
0S
0T
0U
0V
0?!
0@!
0A!
0B!
0C!
#1060000
0!
0=
0X
0W
0Q
#1070000
1!
1=
1W
1Q
#1072500
1R
1S
1T
1U
1V
1?!
1@!
1A!
1B!
1C!
0j!
0l!
1k!
1(!
1,!
1Y
0Z
#1080000
0!
0=
0W
0Q
#1088125
0R
0S
0T
0U
0V
0?!
0@!
0A!
0B!
0C!
#1090000
1!
1=
1W
1Q
#1100000
0!
0=
0W
0Q
#1103750
1R
1S
1T
1U
1V
1?!
1@!
1A!
1B!
1C!
1j!
0[
1l!
1r!
0(!
0+!
0,!
0Y
0^
0d!
1c!
0J!
1I!
0D
1C
1g
0\
1_
1/!
0`
0b
1]
0c
1e
1f
1"!
1$!
#1110000
1!
1=
1X
1W
1Q
#1119375
0R
0S
0T
0U
0V
0?!
0@!
0A!
0B!
0C!
#1120000
0!
0=
0W
0Q
#1130000
1!
1=
1W
1Q
#1135000
1R
1S
1T
1U
1V
1?!
1@!
1A!
1B!
1C!
0j!
0l!
0k!
1(!
1Y
1Z
#1140000
0!
0=
0W
0Q
#1150000
1!
1=
1W
1Q
#1150625
0R
0S
0T
0U
0V
0?!
0@!
0A!
0B!
0C!
#1160000
0!
0=
0X
0W
0Q
#1166250
1R
1S
1T
1U
1V
1?!
1@!
1A!
1B!
1C!
1j!
1[
1l!
0r!
0(!
1+!
0Y
#1170000
1!
1=
1W
1Q
#1180000
0!
0=
0W
0Q
#1181875
0R
0S
0T
0U
0V
0?!
0@!
0A!
0B!
0C!
#1190000
1!
1=
1W
1Q
#1197500
1R
1S
1T
1U
1V
1?!
1@!
1A!
1B!
1C!
0j!
0l!
1k!
1(!
1,!
1Y
0Z
#1200000
0!
0=
0W
0Q
#1210000
1!
1=
1X
1W
1Q
#1213125
0R
0S
0T
0U
0V
0?!
0@!
0A!
0B!
0C!
#1220000
0!
0=
0W
0Q
