Mux8Bits/simulation/qsim/mux8bits.msim.vcd
$comment
	File created using the following command:
		vcd file mux8bits.msim.vcd -direction
$end
$date
	Sat Oct 18 18:42:33 2014
$end
$version
	ModelSim Version 10.1e
$end
$timescale
	1ps
$end
$scope module mux8bits_vlg_vec_tst $end
$var reg 1 ! s $end
$var reg 8 " x [0:7] $end
$var reg 8 # y [0:7] $end
$var wire 1 $ m [0] $end
$var wire 1 % m [1] $end
$var wire 1 & m [2] $end
$var wire 1 ' m [3] $end
$var wire 1 ( m [4] $end
$var wire 1 ) m [5] $end
$var wire 1 * m [6] $end
$var wire 1 + m [7] $end
$var wire 1 , sampler $end
$scope module i1 $end
$var wire 1 - gnd $end
$var wire 1 . vcc $end
$var wire 1 / unknown $end
$var tri1 1 0 devclrn $end
$var tri1 1 1 devpor $end
$var tri1 1 2 devoe $end
$var wire 1 3 m[7]~output_o $end
$var wire 1 4 m[6]~output_o $end
$var wire 1 5 m[5]~output_o $end
$var wire 1 6 m[4]~output_o $end
$var wire 1 7 m[3]~output_o $end
$var wire 1 8 m[2]~output_o $end
$var wire 1 9 m[1]~output_o $end
$var wire 1 : m[0]~output_o $end
$var wire 1 ; y[7]~input_o $end
$var wire 1 < x[7]~input_o $end
$var wire 1 = s~input_o $end
$var wire 1 > m~0_combout $end
$var wire 1 ? y[6]~input_o $end
$var wire 1 @ x[6]~input_o $end
$var wire 1 A m~1_combout $end
$var wire 1 B x[5]~input_o $end
$var wire 1 C y[5]~input_o $end
$var wire 1 D m~2_combout $end
$var wire 1 E x[4]~input_o $end
$var wire 1 F y[4]~input_o $end
$var wire 1 G m~3_combout $end
$var wire 1 H x[3]~input_o $end
$var wire 1 I y[3]~input_o $end
$var wire 1 J m~4_combout $end
$var wire 1 K x[2]~input_o $end
$var wire 1 L y[2]~input_o $end
$var wire 1 M m~5_combout $end
$var wire 1 N x[1]~input_o $end
$var wire 1 O y[1]~input_o $end
$var wire 1 P m~6_combout $end
$var wire 1 Q y[0]~input_o $end
$var wire 1 R x[0]~input_o $end
$var wire 1 S m~7_combout $end
$upscope $end
$upscope $end
$enddefinitions $end
#0
$dumpvars
0!
b10101000 "
b1111011 #
0+
0*
0)
1(
0'
1&
0%
1$
x,
0-
1.
x/
10
11
12
03
04
05
16
07
18
09
1:
1;
0<
0=
0>
1?
0@
0A
0B
0C
0D
1E
1F
1G
0H
1I
0J
1K
1L
1M
0N
1O
0P
0Q
1R
1S
$end
#5000000
b10101010 "
b10101110 "
b10100110 "
b10000110 "
b11000110 "
b1000110 "
b1110011 #
b1010011 #
b10011 #
b10010011 #
0F
0L
0O
1Q
1@
1B
0E
0K
1N
0R
0,
0G
0M
1P
0S
1A
1D
06
08
19
0:
14
15
0(
0&
1%
0$
1*
1)
#10000000
b10010010 #
b10010000 #
b10000000 #
b1100110 "
b11100110 "
b10001000 #
b10101000 #
b11101000 #
1K
1R
0;
0?
1F
0I
1L
1O
1,
1M
1S
18
1:
1&
1$
#15000000
b11100100 "
b11100000 "
b11101000 "
b10101000 "
b1101000 #
b1101001 #
b10001000 "
b1000 "
b101001 #
1;
0O
0Q
0@
0B
1E
0K
0N
0R
0,
0P
0S
0A
0D
1G
0M
09
0:
04
05
16
08
0%
0$
0*
0)
1(
0&
#20000000
b101101 #
b101100 #
b101000 "
1K
0;
1C
1,
1M
18
1&
#25000000
b111100 #
b110100 #
b101100 "
1B
0F
1I
0,
1D
15
1)
#30000000
b111100 "
b110100 "
b1110100 "
b10110100 #
b11110100 "
b10100100 #
b11110000 "
0I
1Q
0B
0E
1H
1N
1R
1,
1J
1S
0D
0G
1P
17
1:
05
06
19
1'
1$
0)
0(
1%
#35000000
b11110001 "
b10000100 #
b11000100 #
b11000101 #
b11010001 "
b11011001 "
b1000101 #
1;
0L
1O
0Q
1<
1E
0K
0,
1>
0M
1G
13
08
16
1+
0&
1(
#40000000
b1000111 #
b11011011 "
b1000011 #
b1001011 #
b11001011 "
b11001111 "
b1101011 #
b11101111 "
b11100111 "
1@
1B
0E
0H
1K
1?
0C
1F
1L
1,
1A
1D
0G
0J
1M
14
15
06
07
18
1*
1)
0(
0'
1&
#45000000
b1100111 "
b1100110 "
b1101010 #
b1100100 "
b1100000 "
0;
0<
0@
0B
0R
0,
0>
0A
0D
0S
03
04
05
0:
0+
0*
0)
0$
#47360000
1!
1=
1,
1G
1A
16
14
1(
1*
#50000000
b1111010 #
b1111000 #
b1110000 #
b1010000 #
b1010001 #
b1100100 "
1B
1;
0?
0F
1I
0L
0,
1>
0A
0G
1J
0M
13
04
06
17
08
1+
0*
0(
1'
0&
#55000000
b100100 "
b10001 #
b10010001 #
b10010101 #
b100 "
b1100 "
b1101 "
b1111 "
b10000101 #
b10000111 #
b10100111 #
b10100110 #
b1011 "
0;
1?
1C
0I
1L
0O
1Q
1<
1@
0B
1E
0K
0N
1,
0>
1A
1D
0J
1M
0P
1S
03
14
15
07
18
09
1:
0+
1*
1)
0'
1&
0%
1$
#60000000
b10001011 "
b11100110 #
b11100010 #
b10000011 "
b10000001 "
b11100000 #
b11000000 #
0?
0C
0L
1O
0@
0E
1R
0,
0A
0D
0M
1P
04
05
08
19
0*
0)
0&
1%
#65000000
b10010001 "
b11010001 "
b11010101 "
b1010101 "
b10000000 #
b10000100 #
b1010111 "
b10000110 #
b10100110 #
1?
1C
1L
0O
1@
1B
1H
1N
0R
1,
1A
1D
1M
0P
14
15
18
09
1*
1)
1&
0%
#70000000
b1110111 "
b1110110 "
b10100111 #
b110110 "
b110010 "
b10100011 #
b110000 "
b10100001 #
1;
0?
0C
0<
0@
0B
1K
0N
0,
1>
0A
0D
13
04
05
1+
0*
0)
#75000000
b100001 #
b110001 #
b111000 "
b1110001 #
b1010001 #
b11000 "
b1010000 #
b1010100 #
b1010110 #
1E
0K
0;
1?
1C
1I
0L
1O
0Q
1,
0M
0>
1A
1D
1J
1P
0S
08
03
14
15
17
19
0:
0&
0+
1*
1)
1'
1%
0$
#80000000
b10011000 "
b10011001 "
b11011001 "
b11011101 "
b11010110 #
b11000110 #
b10000110 #
b10100110 #
b11111101 "
b10100111 #
b10100011 #
1;
0C
0I
1L
0O
1Q
1<
1B
1K
1N
1R
0,
1>
0D
0J
1M
0P
1S
13
05
07
18
09
1:
1+
0)
0'
1&
0%
1$
#85000000
b11101101 "
b11101111 "
b11100111 "
b10100111 "
b100011 #
b1100011 #
b1100010 #
b1100110 #
0;
1C
1O
0Q
1@
0E
0H
0N
1,
0>
1D
1P
0S
03
15
19
0:
0+
1)
1%
0$
#90000000
b1101110 #
b1101100 #
b10100110 "
b1111100 #
b1011100 #
b10000110 "
b10010110 "
b11011100 #
b10011100 #
b10011000 #
0<
1H
0K
0?
0C
1F
1I
0L
0O
1Q
0,
1J
0M
0A
0D
1G
0P
1S
17
08
04
05
16
09
1:
1'
0&
0*
0)
1(
0%
1$
#95000000
b10110 "
b10010 "
b11010 "
b1011010 "
b10011010 #
b10001010 #
b1001010 "
b1010 #
b1001010 #
b1001110 #
1?
1C
0I
1O
0Q
0B
1E
0H
1N
0R
1,
1A
1D
0J
1P
0S
14
15
07
19
0:
1*
1)
0'
1%
0$
